#
# There is insufficient memory for the Java Runtime Environment to continue.
# Native memory allocation (mmap) failed to map 102760448 bytes for committing reserved memory.
# Possible reasons:
#   The system is out of physical RAM or swap space
#   In 32 bit mode, the process size limit was hit
# Possible solutions:
#   Reduce memory load on the system
#   Increase physical memory or swap space
#   Check if swap backing store is full
#   Use 64 bit Java on a 64 bit OS
#   Decrease Java heap size (-Xmx/-Xms)
#   Decrease number of Java threads
#   Decrease Java thread stack sizes (-Xss)
#   Set larger code cache with -XX:ReservedCodeCacheSize=
# This output file may be truncated or incomplete.
#
#  Out of Memory Error (os_linux.cpp:2643), pid=26656, tid=0x00007f42e8842700
#
# JRE version: OpenJDK Runtime Environment (8.0_151-b12) (build 1.8.0_151-8u151-b12-0ubuntu0.16.04.2-b12)
# Java VM: OpenJDK 64-Bit Server VM (25.151-b12 mixed mode linux-amd64 compressed oops)
# Failed to write core dump. Core dumps have been disabled. To enable core dumping, try "ulimit -c unlimited" before starting Java again
#

---------------  T H R E A D  ---------------

Current thread (0x00007f42fc078000):  VMThread [stack: 0x00007f42e8742000,0x00007f42e8843000] [id=26663]

Stack: [0x00007f42e8742000,0x00007f42e8843000],  sp=0x00007f42e88414c0,  free space=1021k
Native frames: (J=compiled Java code, j=interpreted, Vv=VM code, C=native code)
V  [libjvm.so+0xa684eb]
V  [libjvm.so+0x4c579c]
V  [libjvm.so+0x8b6b50]
V  [libjvm.so+0x8b0fce]
V  [libjvm.so+0x92b806]
V  [libjvm.so+0x92cb33]
V  [libjvm.so+0x9291fb]
V  [libjvm.so+0x9294ac]
V  [libjvm.so+0x8db3c3]
V  [libjvm.so+0xa6a192]
V  [libjvm.so+0xa6f277]
V  [libjvm.so+0xa6ca47]
V  [libjvm.so+0xa6decf]
V  [libjvm.so+0xa6e3c1]
V  [libjvm.so+0x8b4032]

VM_Operation (0x00007f4302da84b0): ParallelGCFailedAllocation, mode: safepoint, requested by thread 0x00007f42fc00e800


---------------  P R O C E S S  ---------------

Java Threads: ( => current thread )
  0x00007f42fc90b800 JavaThread "process reaper" daemon [_thread_blocked, id=26672, stack(0x00007f42cb854000,0x00007f42cb88d000)]
  0x00007f42fc0b8800 JavaThread "Service Thread" daemon [_thread_blocked, id=26669, stack(0x00007f42cbeff000,0x00007f42cc000000)]
  0x00007f42fc0b0800 JavaThread "C1 CompilerThread1" daemon [_thread_blocked, id=26668, stack(0x00007f42e80a5000,0x00007f42e81a6000)]
  0x00007f42fc0ad800 JavaThread "C2 CompilerThread0" daemon [_thread_in_native, id=26667, stack(0x00007f42e81a6000,0x00007f42e82a7000)]
  0x00007f42fc0ab800 JavaThread "Signal Dispatcher" daemon [_thread_blocked, id=26666, stack(0x00007f42e82a7000,0x00007f42e83a8000)]
  0x00007f42fc084000 JavaThread "Finalizer" daemon [_thread_blocked, id=26665, stack(0x00007f42e8540000,0x00007f42e8641000)]
  0x00007f42fc07f800 JavaThread "Reference Handler" daemon [_thread_blocked, id=26664, stack(0x00007f42e8641000,0x00007f42e8742000)]
  0x00007f42fc00e800 JavaThread "main" [_thread_blocked, id=26660, stack(0x00007f4302cae000,0x00007f4302daf000)]

Other Threads:
=>0x00007f42fc078000 VMThread [stack: 0x00007f42e8742000,0x00007f42e8843000] [id=26663]
  0x00007f42fc0ba800 WatcherThread [stack: 0x00007f42cbdfe000,0x00007f42cbeff000] [id=26670]

VM state:at safepoint (normal execution)

VM Mutex/Monitor currently owned by a thread:  ([mutex/lock_event])
[0x00007f42fc00af90] Threads_lock - owner thread: 0x00007f42fc078000
[0x00007f42fc00b490] Heap_lock - owner thread: 0x00007f42fc00e800

Heap:
 PSYoungGen      total 104960K, used 6085K [0x00000000eab00000, 0x00000000f1800000, 0x0000000100000000)
  eden space 98304K, 0% used [0x00000000eab00000,0x00000000eab00000,0x00000000f0b00000)
  from space 6656K, 91% used [0x00000000f0b00000,0x00000000f10f15f0,0x00000000f1180000)
  to   space 6656K, 0% used [0x00000000f1180000,0x00000000f1180000,0x00000000f1800000)
 ParOldGen       total 32768K, used 6368K [0x00000000c0000000, 0x00000000c2000000, 0x00000000eab00000)
  object space 32768K, 19% used [0x00000000c0000000,0x00000000c0638358,0x00000000c2000000)
 Metaspace       used 13043K, capacity 13286K, committed 13440K, reserved 1060864K
  class space    used 1552K, capacity 1629K, committed 1664K, reserved 1048576K

Card table byte_map: [0x00007f42ebff6000,0x00007f42ec1f7000] byte_map_base: 0x00007f42eb9f6000

Marking Bits: (ParMarkBitMap*) 0x00007f4301f662c0
 Begin Bits: [0x00007f42e9df4000, 0x00007f42eadf4000)
 End Bits:   [0x00007f42eadf4000, 0x00007f42ebdf4000)

Polling page: 0x00007f4302dba000

CodeCache: size=245760Kb used=5891Kb max_used=5891Kb free=239868Kb
 bounds [0x00007f42ec5b7000, 0x00007f42ecb87000, 0x00007f42fb5b7000]
 total_blobs=1923 nmethods=1596 adapters=241
 compilation: enabled

Compilation events (10 events):
Event: 3.325 Thread 0x00007f42fc0b0800 1601       2       java.util.Properties::getProperty (46 bytes)
Event: 3.325 Thread 0x00007f42fc0b0800 nmethod 1601 0x00007f42ecb79d50 code [0x00007f42ecb79ec0, 0x00007f42ecb7a118]
Event: 3.345 Thread 0x00007f42fc0b0800 1602       1       java.lang.reflect.Constructor::getModifiers (5 bytes)
Event: 3.345 Thread 0x00007f42fc0b0800 nmethod 1602 0x00007f42ecb7a210 code [0x00007f42ecb7a360, 0x00007f42ecb7a470]
Event: 3.354 Thread 0x00007f42fc0b0800 1603       1       java.lang.Boolean::booleanValue (5 bytes)
Event: 3.356 Thread 0x00007f42fc0b0800 nmethod 1603 0x00007f42ecb7a4d0 code [0x00007f42ecb7a620, 0x00007f42ecb7a730]
Event: 3.356 Thread 0x00007f42fc0b0800 1604       2       java.util.StringTokenizer::nextToken (92 bytes)
Event: 3.358 Thread 0x00007f42fc0b0800 nmethod 1604 0x00007f42ecb7a790 code [0x00007f42ecb7a920, 0x00007f42ecb7abd8]
Event: 3.360 Thread 0x00007f42fc0b0800 1605       2       org.apache.xerces.impl.XMLScanner::isInvalidLiteral (5 bytes)
Event: 3.360 Thread 0x00007f42fc0b0800 nmethod 1605 0x00007f42ecb7ad50 code [0x00007f42ecb7aec0, 0x00007f42ecb7b048]

GC Heap History (10 events):
Event: 0.327 GC heap after
Heap after GC invocations=2 (full 0):
 PSYoungGen      total 26624K, used 1280K [0x00000000eab00000, 0x00000000ec700000, 0x0000000100000000)
  eden space 24576K, 0% used [0x00000000eab00000,0x00000000eab00000,0x00000000ec300000)
  from space 2048K, 62% used [0x00000000ec500000,0x00000000ec6401c8,0x00000000ec700000)
  to   space 2048K, 0% used [0x00000000ec300000,0x00000000ec300000,0x00000000ec500000)
 ParOldGen       total 32768K, used 0K [0x00000000c0000000, 0x00000000c2000000, 0x00000000eab00000)
  object space 32768K, 0% used [0x00000000c0000000,0x00000000c0000000,0x00000000c2000000)
 Metaspace       used 4422K, capacity 5280K, committed 5504K, reserved 1056768K
  class space    used 493K, capacity 528K, committed 640K, reserved 1048576K
}
Event: 0.418 GC heap before
{Heap before GC invocations=3 (full 0):
 PSYoungGen      total 26624K, used 25856K [0x00000000eab00000, 0x00000000ec700000, 0x0000000100000000)
  eden space 24576K, 100% used [0x00000000eab00000,0x00000000ec300000,0x00000000ec300000)
  from space 2048K, 62% used [0x00000000ec500000,0x00000000ec6401c8,0x00000000ec700000)
  to   space 2048K, 0% used [0x00000000ec300000,0x00000000ec300000,0x00000000ec500000)
 ParOldGen       total 32768K, used 0K [0x00000000c0000000, 0x00000000c2000000, 0x00000000eab00000)
  object space 32768K, 0% used [0x00000000c0000000,0x00000000c0000000,0x00000000c2000000)
 Metaspace       used 5467K, capacity 6112K, committed 6400K, reserved 1056768K
  class space    used 618K, capacity 656K, committed 768K, reserved 1048576K
Event: 0.421 GC heap after
Heap after GC invocations=3 (full 0):
 PSYoungGen      total 26624K, used 1738K [0x00000000eab00000, 0x00000000edf00000, 0x0000000100000000)
  eden space 24576K, 0% used [0x00000000eab00000,0x00000000eab00000,0x00000000ec300000)
  from space 2048K, 84% used [0x00000000ec300000,0x00000000ec4b2b80,0x00000000ec500000)
  to   space 2048K, 0% used [0x00000000edd00000,0x00000000edd00000,0x00000000edf00000)
 ParOldGen       total 32768K, used 0K [0x00000000c0000000, 0x00000000c2000000, 0x00000000eab00000)
  object space 32768K, 0% used [0x00000000c0000000,0x00000000c0000000,0x00000000c2000000)
 Metaspace       used 5467K, capacity 6112K, committed 6400K, reserved 1056768K
  class space    used 618K, capacity 656K, committed 768K, reserved 1048576K
}
Event: 0.727 GC heap before
{Heap before GC invocations=4 (full 0):
 PSYoungGen      total 26624K, used 26314K [0x00000000eab00000, 0x00000000edf00000, 0x0000000100000000)
  eden space 24576K, 100% used [0x00000000eab00000,0x00000000ec300000,0x00000000ec300000)
  from space 2048K, 84% used [0x00000000ec300000,0x00000000ec4b2b80,0x00000000ec500000)
  to   space 2048K, 0% used [0x00000000edd00000,0x00000000edd00000,0x00000000edf00000)
 ParOldGen       total 32768K, used 0K [0x00000000c0000000, 0x00000000c2000000, 0x00000000eab00000)
  object space 32768K, 0% used [0x00000000c0000000,0x00000000c0000000,0x00000000c2000000)
 Metaspace       used 7236K, capacity 7368K, committed 7552K, reserved 1056768K
  class space    used 794K, capacity 826K, committed 896K, reserved 1048576K
Event: 0.732 GC heap after
Heap after GC invocations=4 (full 0):
 PSYoungGen      total 51200K, used 2032K [0x00000000eab00000, 0x00000000edf00000, 0x0000000100000000)
  eden space 49152K, 0% used [0x00000000eab00000,0x00000000eab00000,0x00000000edb00000)
  from space 2048K, 99% used [0x00000000edd00000,0x00000000edefc020,0x00000000edf00000)
  to   space 2048K, 0% used [0x00000000edb00000,0x00000000edb00000,0x00000000edd00000)
 ParOldGen       total 32768K, used 1301K [0x00000000c0000000, 0x00000000c2000000, 0x00000000eab00000)
  object space 32768K, 3% used [0x00000000c0000000,0x00000000c0145428,0x00000000c2000000)
 Metaspace       used 7236K, capacity 7368K, committed 7552K, reserved 1056768K
  class space    used 794K, capacity 826K, committed 896K, reserved 1048576K
}
Event: 1.074 GC heap before
{Heap before GC invocations=5 (full 0):
 PSYoungGen      total 51200K, used 51184K [0x00000000eab00000, 0x00000000edf00000, 0x0000000100000000)
  eden space 49152K, 100% used [0x00000000eab00000,0x00000000edb00000,0x00000000edb00000)
  from space 2048K, 99% used [0x00000000edd00000,0x00000000edefc020,0x00000000edf00000)
  to   space 2048K, 0% used [0x00000000edb00000,0x00000000edb00000,0x00000000edd00000)
 ParOldGen       total 32768K, used 1301K [0x00000000c0000000, 0x00000000c2000000, 0x00000000eab00000)
  object space 32768K, 3% used [0x00000000c0000000,0x00000000c0145428,0x00000000c2000000)
 Metaspace       used 8268K, capacity 8430K, committed 8704K, reserved 1056768K
  class space    used 914K, capacity 971K, committed 1024K, reserved 1048576K
Event: 1.087 GC heap after
Heap after GC invocations=5 (full 0):
 PSYoungGen      total 51200K, used 2019K [0x00000000eab00000, 0x00000000f1800000, 0x0000000100000000)
  eden space 49152K, 0% used [0x00000000eab00000,0x00000000eab00000,0x00000000edb00000)
  from space 2048K, 98% used [0x00000000edb00000,0x00000000edcf8ed8,0x00000000edd00000)
  to   space 6656K, 0% used [0x00000000f1180000,0x00000000f1180000,0x00000000f1800000)
 ParOldGen       total 32768K, used 6109K [0x00000000c0000000, 0x00000000c2000000, 0x00000000eab00000)
  object space 32768K, 18% used [0x00000000c0000000,0x00000000c05f7440,0x00000000c2000000)
 Metaspace       used 8268K, capacity 8430K, committed 8704K, reserved 1056768K
  class space    used 914K, capacity 971K, committed 1024K, reserved 1048576K
}
Event: 2.967 GC heap before
{Heap before GC invocations=6 (full 0):
 PSYoungGen      total 51200K, used 51171K [0x00000000eab00000, 0x00000000f1800000, 0x0000000100000000)
  eden space 49152K, 100% used [0x00000000eab00000,0x00000000edb00000,0x00000000edb00000)
  from space 2048K, 98% used [0x00000000edb00000,0x00000000edcf8ed8,0x00000000edd00000)
  to   space 6656K, 0% used [0x00000000f1180000,0x00000000f1180000,0x00000000f1800000)
 ParOldGen       total 32768K, used 6109K [0x00000000c0000000, 0x00000000c2000000, 0x00000000eab00000)
  object space 32768K, 18% used [0x00000000c0000000,0x00000000c05f7440,0x00000000c2000000)
 Metaspace       used 9860K, capacity 10150K, committed 10496K, reserved 1058816K
  class space    used 1087K, capacity 1181K, committed 1280K, reserved 1048576K
Event: 2.979 GC heap after
Heap after GC invocations=6 (full 0):
 PSYoungGen      total 104960K, used 3747K [0x00000000eab00000, 0x00000000f1800000, 0x0000000100000000)
  eden space 98304K, 0% used [0x00000000eab00000,0x00000000eab00000,0x00000000f0b00000)
  from space 6656K, 56% used [0x00000000f1180000,0x00000000f1528ef8,0x00000000f1800000)
  to   space 6656K, 0% used [0x00000000f0b00000,0x00000000f0b00000,0x00000000f1180000)
 ParOldGen       total 32768K, used 6109K [0x00000000c0000000, 0x00000000c2000000, 0x00000000eab00000)
  object space 32768K, 18% used [0x00000000c0000000,0x00000000c05f7440,0x00000000c2000000)
 Metaspace       used 9860K, capacity 10150K, committed 10496K, reserved 1058816K
  class space    used 1087K, capacity 1181K, committed 1280K, reserved 1048576K
}
Event: 3.365 GC heap before
{Heap before GC invocations=7 (full 0):
 PSYoungGen      total 104960K, used 102051K [0x00000000eab00000, 0x00000000f1800000, 0x0000000100000000)
  eden space 98304K, 100% used [0x00000000eab00000,0x00000000f0b00000,0x00000000f0b00000)
  from space 6656K, 56% used [0x00000000f1180000,0x00000000f1528ef8,0x00000000f1800000)
  to   space 6656K, 0% used [0x00000000f0b00000,0x00000000f0b00000,0x00000000f1180000)
 ParOldGen       total 32768K, used 6109K [0x00000000c0000000, 0x00000000c2000000, 0x00000000eab00000)
  object space 32768K, 18% used [0x00000000c0000000,0x00000000c05f7440,0x00000000c2000000)
 Metaspace       used 13043K, capacity 13286K, committed 13440K, reserved 1060864K
  class space    used 1552K, capacity 1629K, committed 1664K, reserved 1048576K

Deoptimization events (10 events):
Event: 1.150 Thread 0x00007f42fc00e800 Uncommon trap: reason=class_check action=maybe_recompile pc=0x00007f42ec8d6f7c method=java.util.Collections$UnmodifiableCollection$1.next()Ljava/lang/Object; @ 4
Event: 1.154 Thread 0x00007f42fc00e800 Uncommon trap: reason=class_check action=maybe_recompile pc=0x00007f42ec8fac38 method=java.util.Collections$UnmodifiableCollection$1.<init>(Ljava/util/Collections$UnmodifiableCollection;)V @ 17
Event: 2.668 Thread 0x00007f42fc00e800 Uncommon trap: reason=unstable_if action=reinterpret pc=0x00007f42ec9ff758 method=org.apache.tools.ant.types.selectors.SelectorUtils.match(Ljava/lang/String;Ljava/lang/String;Z)Z @ 173
Event: 2.891 Thread 0x00007f42fc00e800 Uncommon trap: reason=unstable_if action=reinterpret pc=0x00007f42ec8d1930 method=java.io.UnixFileSystem.resolve(Ljava/lang/String;Ljava/lang/String;)Ljava/lang/String; @ 18
Event: 2.891 Thread 0x00007f42fc00e800 Uncommon trap: reason=unstable_if action=reinterpret pc=0x00007f42ec8c483c method=java.io.UnixFileSystem.resolve(Ljava/lang/String;Ljava/lang/String;)Ljava/lang/String; @ 18
Event: 2.989 Thread 0x00007f42fc00e800 Uncommon trap: reason=unstable_if action=reinterpret pc=0x00007f42ecab3ad0 method=java.util.WeakHashMap.expungeStaleEntries()V @ 66
Event: 3.003 Thread 0x00007f42fc00e800 Uncommon trap: reason=class_check action=maybe_recompile pc=0x00007f42ecb346a8 method=java.util.regex.Pattern$Start.match(Ljava/util/regex/Matcher;ILjava/lang/CharSequence;)Z @ 44
Event: 3.003 Thread 0x00007f42fc00e800 Uncommon trap: reason=unstable_if action=reinterpret pc=0x00007f42ecb34774 method=java.util.regex.Matcher.search(I)Z @ 30
Event: 3.213 Thread 0x00007f42fc00e800 Uncommon trap: reason=unstable_if action=reinterpret pc=0x00007f42ec734d04 method=sun.net.www.ParseUtil.encodePath(Ljava/lang/String;Z)Ljava/lang/String; @ 109
Event: 3.354 Thread 0x00007f42fc00e800 Uncommon trap: reason=unstable_if action=reinterpret pc=0x00007f42ec9b69f8 method=java.util.StringTokenizer.nextToken()Ljava/lang/String; @ 5

Internal exceptions (10 events):
Event: 0.238 Thread 0x00007f42fc00e800 Exception <a 'java/lang/ClassNotFoundException': java/lang/ObjectCustomizer> (0x00000000eac02d20) thrown at [/build/openjdk-8-W2Qe27/openjdk-8-8u151-b12/src/hotspot/src/share/vm/classfile/systemDictionary.cpp, line 210]
Event: 0.240 Thread 0x00007f42fc00e800 Exception <a 'java/lang/ArrayIndexOutOfBoundsException': 18> (0x00000000eac05428) thrown at [/build/openjdk-8-W2Qe27/openjdk-8-8u151-b12/src/hotspot/src/share/vm/interpreter/interpreterRuntime.cpp, line 366]
Event: 0.241 Thread 0x00007f42fc00e800 Exception <a 'java/lang/ArrayIndexOutOfBoundsException': 22> (0x00000000eac08770) thrown at [/build/openjdk-8-W2Qe27/openjdk-8-8u151-b12/src/hotspot/src/share/vm/interpreter/interpreterRuntime.cpp, line 366]
Event: 0.242 Thread 0x00007f42fc00e800 Exception <a 'java/lang/ArrayIndexOutOfBoundsException': 160> (0x00000000eac0abc0) thrown at [/build/openjdk-8-W2Qe27/openjdk-8-8u151-b12/src/hotspot/src/share/vm/interpreter/interpreterRuntime.cpp, line 366]
Event: 0.246 Thread 0x00007f42fc00e800 Exception <a 'java/lang/ClassNotFoundException': org/apache/log4j/LayoutCustomizer> (0x00000000eac57ea8) thrown at [/build/openjdk-8-W2Qe27/openjdk-8-8u151-b12/src/hotspot/src/share/vm/classfile/systemDictionary.cpp, line 210]
Event: 0.249 Thread 0x00007f42fc00e800 Exception <a 'java/lang/ClassNotFoundException': org/apache/log4j/PatternLayoutCustomizer> (0x00000000eacd5970) thrown at [/build/openjdk-8-W2Qe27/openjdk-8-8u151-b12/src/hotspot/src/share/vm/classfile/systemDictionary.cpp, line 210]
Event: 0.255 Thread 0x00007f42fc00e800 Implicit null exception at 0x00007f42ec70cdb4 to 0x00007f42ec70d1b1
Event: 0.884 Thread 0x00007f42fc00e800 Exception <a 'java/lang/ClassNotFoundException': org/apache/tools/ant/helper/DefaultExecutor> (0x00000000ebf7bcc8) thrown at [/build/openjdk-8-W2Qe27/openjdk-8-8u151-b12/src/hotspot/src/share/vm/classfile/systemDictionary.cpp, line 210]
Event: 1.189 Thread 0x00007f42fc00e800 Exception <a 'java/lang/NoSuchFieldError': method resolution failed> (0x00000000eb19e960) thrown at [/build/openjdk-8-W2Qe27/openjdk-8-8u151-b12/src/hotspot/src/share/vm/prims/methodHandles.cpp, line 1146]
Event: 1.190 Thread 0x00007f42fc00e800 Exception <a 'java/lang/NoSuchFieldError': method resolution failed> (0x00000000eb1ac020) thrown at [/build/openjdk-8-W2Qe27/openjdk-8-8u151-b12/src/hotspot/src/share/vm/prims/methodHandles.cpp, line 1146]

Events (10 events):
Event: 3.358 loading class org/apache/xerces/xs/XSException done
Event: 3.358 loading class org/apache/xerces/impl/xs/util/ShortListImpl$1
Event: 3.358 loading class org/apache/xerces/impl/xs/util/ShortListImpl$1 done
Event: 3.359 loading class org/apache/xerces/impl/xs/XMLSchemaLoader$LocationArray
Event: 3.359 loading class org/apache/xerces/impl/xs/XMLSchemaLoader$LocationArray done
Event: 3.360 loading class org/dom4j/tree/DefaultDocument
Event: 3.360 loading class org/dom4j/tree/DefaultDocument done
Event: 3.361 loading class org/dom4j/tree/AbstractDocument
Event: 3.361 loading class org/dom4j/tree/AbstractDocument done
Event: 3.362 Executing VM operation: ParallelGCFailedAllocation


Dynamic libraries:
00400000-00401000 r-xp 00000000 fd:01 1046840                            /usr/lib/jvm/java-8-openjdk-amd64/jre/bin/java
00600000-00601000 r--p 00000000 fd:01 1046840                            /usr/lib/jvm/java-8-openjdk-amd64/jre/bin/java
00601000-00602000 rw-p 00001000 fd:01 1046840                            /usr/lib/jvm/java-8-openjdk-amd64/jre/bin/java
00d23000-00d44000 rw-p 00000000 00:00 0                                  [heap]
c0000000-c2000000 rw-p 00000000 00:00 0 
c2000000-eab00000 ---p 00000000 00:00 0 
eab00000-f1800000 rw-p 00000000 00:00 0 
f7a00000-100000000 ---p 00000000 00:00 0 
100000000-1001a0000 rw-p 00000000 00:00 0 
1001a0000-140000000 ---p 00000000 00:00 0 
7f42b0000000-7f42b0021000 rw-p 00000000 00:00 0 
7f42b0021000-7f42b4000000 ---p 00000000 00:00 0 
7f42b4000000-7f42b4021000 rw-p 00000000 00:00 0 
7f42b4021000-7f42b8000000 ---p 00000000 00:00 0 
7f42b8000000-7f42b8021000 rw-p 00000000 00:00 0 
7f42b8021000-7f42bc000000 ---p 00000000 00:00 0 
7f42bc000000-7f42bc021000 rw-p 00000000 00:00 0 
7f42bc021000-7f42c0000000 ---p 00000000 00:00 0 
7f42c0000000-7f42c0021000 rw-p 00000000 00:00 0 
7f42c0021000-7f42c4000000 ---p 00000000 00:00 0 
7f42c4000000-7f42c459b000 rw-p 00000000 00:00 0 
7f42c459b000-7f42c8000000 ---p 00000000 00:00 0 
7f42cb1b4000-7f42cb5d2000 rw-p 00000000 00:00 0 
7f42cb5d2000-7f42cb655000 ---p 00000000 00:00 0 
7f42cb655000-7f42cb753000 rw-p 00000000 00:00 0 
7f42cb753000-7f42cb756000 ---p 00000000 00:00 0 
7f42cb756000-7f42cb854000 rw-p 00000000 00:00 0 
7f42cb854000-7f42cb857000 ---p 00000000 00:00 0 
7f42cb857000-7f42cba8d000 rw-p 00000000 00:00 0 
7f42cba8d000-7f42cba92000 r--s 0009a000 fd:01 533095                     /usr/lib/jvm/java-8-openjdk-amd64/jre/lib/jsse.jar
7f42cba92000-7f42cba93000 r--s 00001000 fd:01 522405                     /opt/OpenbravoTablero/modules/org.openbravo.client.kernel/lib/runtime/jsmin.0.2.4.jar
7f42cba93000-7f42cba9f000 r--s 000ee000 fd:01 522406                     /opt/OpenbravoTablero/modules/org.openbravo.client.kernel/lib/runtime/jslint4java-1.4.7.jar
7f42cba9f000-7f42cbaa1000 r--s 00005000 fd:01 520712                     /opt/OpenbravoTablero/modules/org.openbravo.client.application/lib/runtime/httpmime-4.1.jar
7f42cbaa1000-7f42cbaa6000 r--s 00026000 fd:01 520714                     /opt/OpenbravoTablero/modules/org.openbravo.client.application/lib/runtime/httpcore-4.0.1.jar
7f42cbaa6000-7f42cbaad000 r--s 00040000 fd:01 520713                     /opt/OpenbravoTablero/modules/org.openbravo.client.application/lib/runtime/httpclient-4.0.jar
7f42cbaad000-7f42cbabb000 r--s 00099000 fd:01 520715                     /opt/OpenbravoTablero/modules/org.openbravo.client.application/lib/runtime/guice-2.0.jar
7f42cbabb000-7f42cbabf000 r--s 0000a000 fd:01 518216                     /opt/OpenbravoTablero/modules/org.openbravo.base.weld/lib/runtime/weld-spi.jar
7f42cbabf000-7f42cbac2000 r--s 00011000 fd:01 518222                     /opt/OpenbravoTablero/modules/org.openbravo.base.weld/lib/runtime/weld-servlet-core-1.1.24.Final.jar
7f42cbac2000-7f42cbad4000 r--s 000ce000 fd:01 518212                     /opt/OpenbravoTablero/modules/org.openbravo.base.weld/lib/runtime/weld-core-1.1.24.Final.jar
7f42cbad4000-7f42cbad6000 r--s 00004000 fd:01 518213                     /opt/OpenbravoTablero/modules/org.openbravo.base.weld/lib/runtime/weld-api.jar
7f42cbad6000-7f42cbad8000 r--s 00009000 fd:01 518211                     /opt/OpenbravoTablero/modules/org.openbravo.base.weld/lib/runtime/slf4j-ext-1.6.1.jar
7f42cbad8000-7f42cbad9000 r--s 00001000 fd:01 518214                     /opt/OpenbravoTablero/modules/org.openbravo.base.weld/lib/runtime/jboss-interceptor-spi-2.0.0.CR1.jar
7f42cbad9000-7f42cbadc000 r--s 0000c000 fd:01 518220                     /opt/OpenbravoTablero/modules/org.openbravo.base.weld/lib/runtime/jboss-interceptor-core-2.0.0.CR1.jar
7f42cbadc000-7f42cbade000 r--s 00000000 fd:01 518210                     /opt/OpenbravoTablero/modules/org.openbravo.base.weld/lib/runtime/jboss-interceptor-api-3.1.0-CR3.jar
7f42cbade000-7f42cbadf000 r--s 00000000 fd:01 518221                     /opt/OpenbravoTablero/modules/org.openbravo.base.weld/lib/runtime/javax.inject.jar
7f42cbadf000-7f42cbb0a000 r--s 001fc000 fd:01 518217                     /opt/OpenbravoTablero/modules/org.openbravo.base.weld/lib/runtime/guava-18.0.jar
7f42cbb0a000-7f42cbb0d000 r--s 00006000 fd:01 518219                     /opt/OpenbravoTablero/modules/org.openbravo.base.weld/lib/runtime/ejb-api-3.0.jar
7f42cbb0d000-7f42cbb10000 r--s 0000a000 fd:01 518218                     /opt/OpenbravoTablero/modules/org.openbravo.base.weld/lib/runtime/cdi-api.jar
7f42cbb10000-7f42cbb12000 r--s 00006000 fd:01 518215                     /opt/OpenbravoTablero/modules/org.openbravo.base.weld/lib/runtime/cal10n-api-0.7.4.jar
7f42cbb12000-7f42cbb13000 r--s 00006000 fd:01 522533                     /opt/OpenbravoTablero/modules/org.openbravo.apachejdbcconnectionpool/lib/runtime/tomcat-juli.jar
7f42cbb13000-7f42cbb15000 r--s 0001d000 fd:01 522532                     /opt/OpenbravoTablero/modules/org.openbravo.apachejdbcconnectionpool/lib/runtime/tomcat-jdbc.jar
7f42cbb15000-7f42cbb21000 r--s 00096000 fd:01 1076806                    /opt/OpenbravoTablero/modules/com.atrums.felectronica/lib/runtime/xmlsec-1.4.2-ADSI-1.1.jar
7f42cbb21000-7f42cbb24000 r--s 00018000 fd:01 1076805                    /opt/OpenbravoTablero/modules/com.atrums.felectronica/lib/runtime/xmlrpc-1.2-b1.jar
7f42cbb24000-7f42cbb25000 r--s 00007000 fd:01 1076804                    /opt/OpenbravoTablero/modules/com.atrums.felectronica/lib/runtime/xmlrpc-1.2-b1-applet.jar
7f42cbb25000-7f42cbb2a000 r--s 0002d000 fd:01 1076795                    /opt/OpenbravoTablero/modules/com.atrums.felectronica/lib/runtime/bcmail-jdk15-140.jar
7f42cbb2a000-7f42cbb2d000 r--s 00014000 fd:01 1076794                    /opt/OpenbravoTablero/modules/com.atrums.felectronica/lib/runtime/barbecue-1.5-beta1.jar
7f42cbb2d000-7f42cbb35000 r--s 0007a000 fd:01 1076803                    /opt/OpenbravoTablero/modules/com.atrums.felectronica/lib/runtime/MITyCLibXADES-1.1.7.jar
7f42cbb35000-7f42cbb3b000 r--s 00047000 fd:01 1076801                    /opt/OpenbravoTablero/modules/com.atrums.felectronica/lib/runtime/MITyCLibTrust-1.1.7.jar
7f42cbb3b000-7f42cbb3c000 r--s 00011000 fd:01 1076802                    /opt/OpenbravoTablero/modules/com.atrums.felectronica/lib/runtime/MITyCLibTSA-1.1.7.jar
7f42cbb3c000-7f42cbb3e000 r--s 00019000 fd:01 1076800                    /opt/OpenbravoTablero/modules/com.atrums.felectronica/lib/runtime/MITyCLibPolicy-1.1.7.jar
7f42cbb3e000-7f42cbb40000 r--s 0001c000 fd:01 1076799                    /opt/OpenbravoTablero/modules/com.atrums.felectronica/lib/runtime/MITyCLibOCSP-1.1.7.jar
7f42cbb40000-7f42cbb42000 r--s 0001f000 fd:01 1076798                    /opt/OpenbravoTablero/modules/com.atrums.felectronica/lib/runtime/MITyCLibCrypt-1.1.7.jar
7f42cbb42000-7f42cbb49000 r--s 0044c000 fd:01 1076797                    /opt/OpenbravoTablero/modules/com.atrums.felectronica/lib/runtime/MITyCLibCert-1.1.7.jar
7f42cbb49000-7f42cbb4d000 r--s 00029000 fd:01 1076796                    /opt/OpenbravoTablero/modules/com.atrums.felectronica/lib/runtime/MITyCLibAPI-1.1.7.jar
7f42cbb4d000-7f42cbb53000 r--s 0006e000 fd:01 278520                     /opt/OpenbravoTablero/src-db/database/lib/wstx-asl-3.0.2.jar
7f42cbb53000-7f42cbb55000 r--s 0000e000 fd:01 278521                     /opt/OpenbravoTablero/src-db/database/lib/jakarta-oro-2.0.8.jar
7f42cbb55000-7f42cbb60000 r--s 000b4000 fd:01 278518                     /opt/OpenbravoTablero/src-db/database/lib/dbsourcemanager.jar
7f42cbb60000-7f42cbb61000 r--s 00001000 fd:01 278522                     /opt/OpenbravoTablero/src-db/database/lib/dbmanager.jar
7f42cbb61000-7f42cbb67000 r--s 00036000 fd:01 278519                     /opt/OpenbravoTablero/src-db/database/lib/commons-betwixt-0.8.jar
7f42cbb67000-7f42cbb6c000 r--s 00066000 fd:01 523757                     /opt/OpenbravoTablero/src-wad/lib/openbravo-wad.jar
7f42cbb6c000-7f42cbb6d000 r--s 00005000 fd:01 522897                     /opt/OpenbravoTablero/src-trl/lib/openbravo-trl.jar
7f42cbb6d000-7f42cbb71000 r--s 0003d000 fd:01 516417                     /opt/OpenbravoTablero/src-core/lib/openbravo-core.jar
7f42cbb71000-7f42cbb77000 r--s 00036000 fd:01 276925                     /opt/OpenbravoTablero/lib/test/junit.jar
7f42cbb77000-7f42cbb7d000 r--s 00045000 fd:01 276926                     /opt/OpenbravoTablero/lib/test/hamcrest-all-1.3.jar
7f42cbb7d000-7f42cbb88000 r--s 0005f000 fd:01 276970                     /opt/OpenbravoTablero/lib/runtime/xstream-1.3.1.jar
7f42cbb88000-7f42cbb92000 r--s 00089000 fd:01 276977                     /opt/OpenbravoTablero/lib/runtime/xmlgraphics-commons-1.5.jar
7f42cbb92000-7f42cbba9000 r--s 00114000 fd:01 276929                     /opt/OpenbravoTablero/lib/runtime/xercesImpl.jar
7f42cbba9000-7f42cbbac000 r--s 0001c000 fd:01 276992                     /opt/OpenbravoTablero/lib/runtime/wsdl4j-1.5.1.jar
7f42cbbac000-7f42cbbb2000 r--s 0004b000 fd:01 276945                     /opt/OpenbravoTablero/lib/runtime/tika-core-0.9.jar
7f42cbbb2000-7f42cbbb3000 r--s 00002000 fd:01 276950                     /opt/OpenbravoTablero/lib/runtime/slf4j-log4j12-1.6.1.jar
7f42cbbb3000-7f42cbbb5000 r--s 00005000 fd:01 276960                     /opt/OpenbravoTablero/lib/runtime/slf4j-api-1.6.1.jar
7f42cbbb5000-7f42cbbb6000 r--s 00001000 fd:01 276954                     /opt/OpenbravoTablero/lib/runtime/renderFoRmi.jar
7f42cbbb6000-7f42cbbbc000 r--s 00067000 fd:01 276989                     /opt/OpenbravoTablero/lib/runtime/quartz-1.6.2.jar
7f42cbbbc000-7f42cbbc3000 r--s 0008e000 fd:01 276936                     /opt/OpenbravoTablero/lib/runtime/postgresql-9.4.1207.jre6.jar
7f42cbbc3000-7f42cbbe4000 r--s 001bb000 fd:01 276988                     /opt/OpenbravoTablero/lib/runtime/poi-3.10.1.jar
7f42cbbe4000-7f42cbbe8000 r--s 0003d000 fd:01 276967                     /opt/OpenbravoTablero/lib/runtime/openbravo-core.jar
7f42cbbe8000-7f42cbbfa000 r--s 001fc000 fd:01 276962                     /opt/OpenbravoTablero/lib/runtime/ojdbc6.jar
7f42cbbfa000-7f42cbbfc000 r--s 00018000 fd:01 276976                     /opt/OpenbravoTablero/lib/runtime/nekohtml.jar
7f42cbbfc000-7f42cbc03000 r--s 00072000 fd:01 276938                     /opt/OpenbravoTablero/lib/runtime/mail-1.4.4.jar
7f42cbc03000-7f42cbc0c000 r--s 0006d000 fd:01 276986                     /opt/OpenbravoTablero/lib/runtime/log4j-1.2.16.jar
7f42cbc0c000-7f42cbc18000 r--s 000aa000 fd:01 276965                     /opt/OpenbravoTablero/lib/runtime/jxl-2.6.10.jar
7f42cbc18000-7f42cbc1a000 r--s 00001000 fd:01 276949                     /opt/OpenbravoTablero/lib/runtime/jta.jar
7f42cbc1a000-7f42cbc2a000 r--s 0013f000 fd:01 276933                     /opt/OpenbravoTablero/lib/runtime/jfreechart-1.0.12.jar
7f42cbc2a000-7f42cbc2c000 r--s 00010000 fd:01 276951                     /opt/OpenbravoTablero/lib/runtime/jettison-1.3.jar
7f42cbc2c000-7f42cbc3e000 r--s 00223000 fd:01 276971                     /opt/OpenbravoTablero/lib/runtime/jdt-compiler-4.4.2.jar
7f42cbc3e000-7f42cbc44000 r--s 00046000 fd:01 276952                     /opt/OpenbravoTablero/lib/runtime/jcommon-1.0.15.jar
7f42cbc44000-7f42cbc46000 r--s 00006000 fd:01 276996                     /opt/OpenbravoTablero/lib/runtime/jaxrpc.jar
7f42cbc46000-7f42cbc4f000 r--s 00095000 fd:01 276953                     /opt/OpenbravoTablero/lib/runtime/javassist-3.14.0-GA.jar
7f42cbc4f000-7f42cbc51000 r--s 0025c000 fd:01 276930                     /opt/OpenbravoTablero/lib/runtime/jasperreports-fonts-6.0.0.jar
7f42cbc51000-7f42cbcad000 r--s 0048c000 fd:01 276937                     /opt/OpenbravoTablero/lib/runtime/jasperreports-6.0.0.jar
7f42cbcad000-7f42cbcbf000 r--s 00105000 fd:01 276987                     /opt/OpenbravoTablero/lib/runtime/jackson-databind-2.5.1.jar
7f42cbcbf000-7f42cbcc3000 r--s 00035000 fd:01 276966                     /opt/OpenbravoTablero/lib/runtime/jackson-core-2.5.1.jar
7f42cbcc3000-7f42cbcc5000 r--s 00008000 fd:01 276981                     /opt/OpenbravoTablero/lib/runtime/jackson-annotations-2.5.1.jar
7f42cbcc5000-7f42cbcdb000 r--s 001ef000 fd:01 276956                     /opt/OpenbravoTablero/lib/runtime/itextpdf-5.5.0.jar
7f42cbcdb000-7f42cbcdd000 r--s 0000c000 fd:01 276955                     /opt/OpenbravoTablero/lib/runtime/itext-pdfa-5.5.0.jar
7f42cbcdd000-7f42cbce9000 r--s 00108000 fd:01 276978                     /opt/OpenbravoTablero/lib/runtime/iText-2.1.7.jar
7f42cbce9000-7f42cbd31000 r--s 003aa000 fd:01 276946                     /opt/OpenbravoTablero/lib/runtime/hibernate3-patched.jar
7f42cbd31000-7f42cbd36000 r--s 00014000 fd:01 276984                     /opt/OpenbravoTablero/lib/runtime/hibernate-jpa-2.0-api-1.0.0.Final.jar
7f42cbd36000-7f42cbd46000 r--s 000c8000 fd:01 276932                     /opt/OpenbravoTablero/lib/runtime/freemarker-2.3.16.jar
7f42cbd46000-7f42cbd7f000 r--s 00329000 fd:01 276998                     /opt/OpenbravoTablero/lib/runtime/fop-1.1.jar
7f42cbd7f000-7f42cbd84000 r--s 00048000 fd:01 276974                     /opt/OpenbravoTablero/lib/runtime/dom4j-1.6.1.jar
7f42cbd84000-7f42cbd87000 r--s 00016000 fd:01 276959                     /opt/OpenbravoTablero/lib/runtime/commons-pool-1.5.6.jar
7f42cbd87000-7f42cbd89000 r--s 0000d000 fd:01 276935                     /opt/OpenbravoTablero/lib/runtime/commons-logging-1.1.1.jar
7f42cbd89000-7f42cbd8e000 r--s 00041000 fd:01 276993                     /opt/OpenbravoTablero/lib/runtime/commons-lang-2.6.jar
7f42cbd8e000-7f42cbd92000 r--s 0002a000 fd:01 276973                     /opt/OpenbravoTablero/lib/runtime/commons-io-2.4.jar
7f42cbd92000-7f42cbd94000 r--s 0000d000 fd:01 276958                     /opt/OpenbravoTablero/lib/runtime/commons-fileupload-1.2.2.jar
7f42cbd94000-7f42cbd97000 r--s 0000f000 fd:01 276972                     /opt/OpenbravoTablero/lib/runtime/commons-discovery-0.2.jar
7f42cbd97000-7f42cbd9b000 r--s 00020000 fd:01 276995                     /opt/OpenbravoTablero/lib/runtime/commons-digester-1.8.1.jar
7f42cbd9b000-7f42cbd9e000 r--s 00025000 fd:01 276982                     /opt/OpenbravoTablero/lib/runtime/commons-dbcp-1.4.jar
7f42cbd9e000-7f42cbdac000 r--s 0007f000 fd:01 276944                     /opt/OpenbravoTablero/lib/runtime/commons-collections-3.2.1.jar
7f42cbdac000-7f42cbdae000 r--s 00010000 fd:01 276994                     /opt/OpenbravoTablero/lib/runtime/commons-codec-1.5.jar
7f42cbdae000-7f42cbdb3000 r--s 00034000 fd:01 276979                     /opt/OpenbravoTablero/lib/runtime/commons-beanutils-1.8.3.jar
7f42cbdb3000-7f42cbdb5000 r--s 00005000 fd:01 276941                     /opt/OpenbravoTablero/lib/runtime/catalina-ant.jar
7f42cbdb5000-7f42cbdb6000 r--s 00007000 fd:01 276990                     /opt/OpenbravoTablero/lib/runtime/batik-xml.jar
7f42cbdb6000-7f42cbdb9000 r--s 0001d000 fd:01 276969                     /opt/OpenbravoTablero/lib/runtime/batik-util.jar
7f42cbdb9000-7f42cbdbe000 r--s 00030000 fd:01 276980                     /opt/OpenbravoTablero/lib/runtime/batik-svggen.jar
7f42cbdbe000-7f42cbdcb000 r--s 00087000 fd:01 276975                     /opt/OpenbravoTablero/lib/runtime/batik-svg-dom.jar
7f42cbdcb000-7f42cbdce000 r--s 0000d000 fd:01 276943                     /opt/OpenbravoTablero/lib/runtime/batik-script.jar
7f42cbdce000-7f42cbdd0000 r--s 00010000 fd:01 276983                     /opt/OpenbravoTablero/lib/runtime/batik-parser.jar
7f42cbdd0000-7f42cbdd4000 r--s 00038000 fd:01 276963                     /opt/OpenbravoTablero/lib/runtime/batik-gvt.jar
7f42cbdd4000-7f42cbdd8000 r--s 00027000 fd:01 276942                     /opt/OpenbravoTablero/lib/runtime/batik-dom.jar
7f42cbdd8000-7f42cbde0000 r--s 00045000 fd:01 276940                     /opt/OpenbravoTablero/lib/runtime/batik-css.jar
7f42cbde0000-7f42cbdea000 r--s 00080000 fd:01 276968                     /opt/OpenbravoTablero/lib/runtime/batik-bridge.jar
7f42cbdea000-7f42cbdfe000 r--s 00173000 fd:01 276985                     /opt/OpenbravoTablero/lib/runtime/axis.jar
7f42cbdfe000-7f42cbdff000 ---p 00000000 00:00 0 
7f42cbdff000-7f42cbeff000 rw-p 00000000 00:00 0 
7f42cbeff000-7f42cbf02000 ---p 00000000 00:00 0 
7f42cbf02000-7f42cc000000 rw-p 00000000 00:00 0 
7f42cc000000-7f42cc021000 rw-p 00000000 00:00 0 
7f42cc021000-7f42d0000000 ---p 00000000 00:00 0 
7f42d0000000-7f42d16f6000 rw-p 00000000 00:00 0 
7f42d16f6000-7f42d4000000 ---p 00000000 00:00 0 
7f42d4000000-7f42d4021000 rw-p 00000000 00:00 0 
7f42d4021000-7f42d8000000 ---p 00000000 00:00 0 
7f42d8000000-7f42d8021000 rw-p 00000000 00:00 0 
7f42d8021000-7f42dc000000 ---p 00000000 00:00 0 
7f42dc000000-7f42dc021000 rw-p 00000000 00:00 0 
7f42dc021000-7f42e0000000 ---p 00000000 00:00 0 
7f42e0000000-7f42e0021000 rw-p 00000000 00:00 0 
7f42e0021000-7f42e4000000 ---p 00000000 00:00 0 
7f42e4000000-7f42e4026000 rw-p 00000000 00:00 0 
7f42e4026000-7f42e8000000 ---p 00000000 00:00 0 
7f42e8000000-7f42e8001000 r--s 00002000 fd:01 276961                     /opt/OpenbravoTablero/lib/runtime/batik-ext.jar
7f42e8001000-7f42e8008000 r--s 0005c000 fd:01 276997                     /opt/OpenbravoTablero/lib/runtime/batik-awt-util.jar
7f42e8008000-7f42e800b000 r--s 00015000 fd:01 276928                     /opt/OpenbravoTablero/lib/runtime/batik-anim.jar
7f42e800b000-7f42e8011000 r--s 00043000 fd:01 276957                     /opt/OpenbravoTablero/lib/runtime/barcode4j-fop-ext-complete.jar
7f42e8011000-7f42e8013000 r--s 00007000 fd:01 276964                     /opt/OpenbravoTablero/lib/runtime/axis-ant.jar
7f42e8013000-7f42e8016000 r--s 0000f000 fd:01 276947                     /opt/OpenbravoTablero/lib/runtime/avalon-framework-4.1.5.jar
7f42e8016000-7f42e801b000 r--s 00068000 fd:01 276934                     /opt/OpenbravoTablero/lib/runtime/antlr-2.7.7.jar
7f42e801b000-7f42e8023000 r--s 00063000 fd:01 276948                     /opt/OpenbravoTablero/lib/runtime/ant-nodeps.jar
7f42e8023000-7f42e8024000 r--s 00004000 fd:01 276931                     /opt/OpenbravoTablero/lib/runtime/ant-launcher-1.9.2.jar
7f42e8024000-7f42e8026000 r--s 00001000 fd:01 276991                     /opt/OpenbravoTablero/lib/runtime/ant-apache-log4j-1.9.2.jar
7f42e8026000-7f42e8044000 r--s 001cb000 fd:01 276939                     /opt/OpenbravoTablero/lib/runtime/ant-1.9.2.jar
7f42e8044000-7f42e804d000 r--s 000c7000 fd:01 276919                     /opt/OpenbravoTablero/lib/build/yuicompressor-2.4.2.jar
7f42e804d000-7f42e8056000 r--s 000be000 fd:01 276922                     /opt/OpenbravoTablero/lib/build/ob-rhino-1.6R7.jar
7f42e8056000-7f42e805f000 r--s 000cc000 fd:01 276921                     /opt/OpenbravoTablero/lib/build/js.jar
7f42e805f000-7f42e807a000 r--s 00394000 fd:01 785206                     /usr/lib/jvm/java-8-openjdk-amd64/jre/lib/ext/cldrdata.jar
7f42e807a000-7f42e8080000 r--s 0003a000 fd:01 785209                     /usr/lib/jvm/java-8-openjdk-amd64/jre/lib/ext/sunjce_provider.jar
7f42e8080000-7f42e808a000 r--s 00116000 fd:01 785211                     /usr/lib/jvm/java-8-openjdk-amd64/jre/lib/ext/localedata.jar
7f42e808a000-7f42e80a5000 r--s 001d6000 fd:01 785208                     /usr/lib/jvm/java-8-openjdk-amd64/jre/lib/ext/nashorn.jar
7f42e80a5000-7f42e80a8000 ---p 00000000 00:00 0 
7f42e80a8000-7f42e81a6000 rw-p 00000000 00:00 0 
7f42e81a6000-7f42e81a9000 ---p 00000000 00:00 0 
7f42e81a9000-7f42e82a7000 rw-p 00000000 00:00 0 
7f42e82a7000-7f42e82aa000 ---p 00000000 00:00 0 
7f42e82aa000-7f42e83a8000 rw-p 00000000 00:00 0 
7f42e83a8000-7f42e8540000 r--p 00000000 fd:01 2061                       /usr/lib/locale/locale-archive
7f42e8540000-7f42e8543000 ---p 00000000 00:00 0 
7f42e8543000-7f42e8641000 rw-p 00000000 00:00 0 
7f42e8641000-7f42e8644000 ---p 00000000 00:00 0 
7f42e8644000-7f42e8742000 rw-p 00000000 00:00 0 
7f42e8742000-7f42e8743000 ---p 00000000 00:00 0 
7f42e8743000-7f42e91af000 rw-p 00000000 00:00 0 
7f42e91af000-7f42e937e000 r--s 03c21000 fd:01 533088                     /usr/lib/jvm/java-8-openjdk-amd64/jre/lib/rt.jar
7f42e937e000-7f42ebdf4000 rw-p 00000000 00:00 0 
7f42ebdf4000-7f42ebdf5000 ---p 00000000 00:00 0 
7f42ebdf5000-7f42ebef5000 rw-p 00000000 00:00 0 
7f42ebef5000-7f42ebef6000 ---p 00000000 00:00 0 
7f42ebef6000-7f42ec006000 rw-p 00000000 00:00 0 
7f42ec006000-7f42ec14b000 ---p 00000000 00:00 0 
7f42ec14b000-7f42ec182000 rw-p 00000000 00:00 0 
7f42ec182000-7f42ec1f6000 ---p 00000000 00:00 0 
7f42ec1f6000-7f42ec20f000 rw-p 00000000 00:00 0 
7f42ec20f000-7f42ec5b7000 ---p 00000000 00:00 0 
7f42ec5b7000-7f42ecb87000 rwxp 00000000 00:00 0 
7f42ecb87000-7f42fb5b7000 ---p 00000000 00:00 0 
7f42fb5b7000-7f42fb5bf000 r-xp 00000000 fd:01 785239                     /usr/lib/jvm/java-8-openjdk-amd64/jre/lib/amd64/libzip.so
7f42fb5bf000-7f42fb7be000 ---p 00008000 fd:01 785239                     /usr/lib/jvm/java-8-openjdk-amd64/jre/lib/amd64/libzip.so
7f42fb7be000-7f42fb7bf000 r--p 00007000 fd:01 785239                     /usr/lib/jvm/java-8-openjdk-amd64/jre/lib/amd64/libzip.so
7f42fb7bf000-7f42fb7c0000 rw-p 00008000 fd:01 785239                     /usr/lib/jvm/java-8-openjdk-amd64/jre/lib/amd64/libzip.so
7f42fb7c0000-7f42fb7cb000 r-xp 00000000 fd:01 21329                      /lib/x86_64-linux-gnu/libnss_files-2.23.so
7f42fb7cb000-7f42fb9ca000 ---p 0000b000 fd:01 21329                      /lib/x86_64-linux-gnu/libnss_files-2.23.so
7f42fb9ca000-7f42fb9cb000 r--p 0000a000 fd:01 21329                      /lib/x86_64-linux-gnu/libnss_files-2.23.so
7f42fb9cb000-7f42fb9cc000 rw-p 0000b000 fd:01 21329                      /lib/x86_64-linux-gnu/libnss_files-2.23.so
7f42fb9cc000-7f42fb9d2000 rw-p 00000000 00:00 0 
7f42fb9d2000-7f42fb9dd000 r-xp 00000000 fd:01 21341                      /lib/x86_64-linux-gnu/libnss_nis-2.23.so
7f42fb9dd000-7f42fbbdc000 ---p 0000b000 fd:01 21341                      /lib/x86_64-linux-gnu/libnss_nis-2.23.so
7f42fbbdc000-7f42fbbdd000 r--p 0000a000 fd:01 21341                      /lib/x86_64-linux-gnu/libnss_nis-2.23.so
7f42fbbdd000-7f42fbbde000 rw-p 0000b000 fd:01 21341                      /lib/x86_64-linux-gnu/libnss_nis-2.23.so
7f42fbbde000-7f42fbbf4000 r-xp 00000000 fd:01 21246                      /lib/x86_64-linux-gnu/libnsl-2.23.so
7f42fbbf4000-7f42fbdf3000 ---p 00016000 fd:01 21246                      /lib/x86_64-linux-gnu/libnsl-2.23.so
7f42fbdf3000-7f42fbdf4000 r--p 00015000 fd:01 21246                      /lib/x86_64-linux-gnu/libnsl-2.23.so
7f42fbdf4000-7f42fbdf5000 rw-p 00016000 fd:01 21246                      /lib/x86_64-linux-gnu/libnsl-2.23.so
7f42fbdf5000-7f42fbdf7000 rw-p 00000000 00:00 0 
7f42fbdf7000-7f42fbdff000 r-xp 00000000 fd:01 21298                      /lib/x86_64-linux-gnu/libnss_compat-2.23.so
7f42fbdff000-7f42fbffe000 ---p 00008000 fd:01 21298                      /lib/x86_64-linux-gnu/libnss_compat-2.23.so
7f42fbffe000-7f42fbfff000 r--p 00007000 fd:01 21298                      /lib/x86_64-linux-gnu/libnss_compat-2.23.so
7f42fbfff000-7f42fc000000 rw-p 00008000 fd:01 21298                      /lib/x86_64-linux-gnu/libnss_compat-2.23.so
7f42fc000000-7f42fd005000 rw-p 00000000 00:00 0 
7f42fd005000-7f4300000000 ---p 00000000 00:00 0 
7f4300000000-7f4300002000 r--s 00014000 fd:01 276920                     /opt/OpenbravoTablero/lib/build/servlet-api.jar
7f4300002000-7f4300006000 r--s 00037000 fd:01 785212                     /usr/lib/jvm/java-8-openjdk-amd64/jre/lib/ext/sunpkcs11.jar
7f4300006000-7f4300016000 rw-p 00000000 00:00 0 
7f4300016000-7f430015c000 ---p 00000000 00:00 0 
7f430015c000-7f4300189000 r-xp 00000000 fd:01 785224                     /usr/lib/jvm/java-8-openjdk-amd64/jre/lib/amd64/libjava.so
7f4300189000-7f4300388000 ---p 0002d000 fd:01 785224                     /usr/lib/jvm/java-8-openjdk-amd64/jre/lib/amd64/libjava.so
7f4300388000-7f4300389000 r--p 0002c000 fd:01 785224                     /usr/lib/jvm/java-8-openjdk-amd64/jre/lib/amd64/libjava.so
7f4300389000-7f430038b000 rw-p 0002d000 fd:01 785224                     /usr/lib/jvm/java-8-openjdk-amd64/jre/lib/amd64/libjava.so
7f430038b000-7f430039a000 r-xp 00000000 fd:01 785237                     /usr/lib/jvm/java-8-openjdk-amd64/jre/lib/amd64/libverify.so
7f430039a000-7f4300599000 ---p 0000f000 fd:01 785237                     /usr/lib/jvm/java-8-openjdk-amd64/jre/lib/amd64/libverify.so
7f4300599000-7f430059b000 r--p 0000e000 fd:01 785237                     /usr/lib/jvm/java-8-openjdk-amd64/jre/lib/amd64/libverify.so
7f430059b000-7f430059c000 rw-p 00010000 fd:01 785237                     /usr/lib/jvm/java-8-openjdk-amd64/jre/lib/amd64/libverify.so
7f430059c000-7f43005a3000 r-xp 00000000 fd:01 21343                      /lib/x86_64-linux-gnu/librt-2.23.so
7f43005a3000-7f43007a2000 ---p 00007000 fd:01 21343                      /lib/x86_64-linux-gnu/librt-2.23.so
7f43007a2000-7f43007a3000 r--p 00006000 fd:01 21343                      /lib/x86_64-linux-gnu/librt-2.23.so
7f43007a3000-7f43007a4000 rw-p 00007000 fd:01 21343                      /lib/x86_64-linux-gnu/librt-2.23.so
7f43007a4000-7f43007ba000 r-xp 00000000 fd:01 2039                       /lib/x86_64-linux-gnu/libgcc_s.so.1
7f43007ba000-7f43009b9000 ---p 00016000 fd:01 2039                       /lib/x86_64-linux-gnu/libgcc_s.so.1
7f43009b9000-7f43009ba000 rw-p 00015000 fd:01 2039                       /lib/x86_64-linux-gnu/libgcc_s.so.1
7f43009ba000-7f4300ac2000 r-xp 00000000 fd:01 21243                      /lib/x86_64-linux-gnu/libm-2.23.so
7f4300ac2000-7f4300cc1000 ---p 00108000 fd:01 21243                      /lib/x86_64-linux-gnu/libm-2.23.so
7f4300cc1000-7f4300cc2000 r--p 00107000 fd:01 21243                      /lib/x86_64-linux-gnu/libm-2.23.so
7f4300cc2000-7f4300cc3000 rw-p 00108000 fd:01 21243                      /lib/x86_64-linux-gnu/libm-2.23.so
7f4300cc3000-7f4300e35000 r-xp 00000000 fd:01 70537                      /usr/lib/x86_64-linux-gnu/libstdc++.so.6.0.21
7f4300e35000-7f4301035000 ---p 00172000 fd:01 70537                      /usr/lib/x86_64-linux-gnu/libstdc++.so.6.0.21
7f4301035000-7f430103f000 r--p 00172000 fd:01 70537                      /usr/lib/x86_64-linux-gnu/libstdc++.so.6.0.21
7f430103f000-7f4301041000 rw-p 0017c000 fd:01 70537                      /usr/lib/x86_64-linux-gnu/libstdc++.so.6.0.21
7f4301041000-7f4301045000 rw-p 00000000 00:00 0 
7f4301045000-7f4301c97000 r-xp 00000000 fd:01 1046829                    /usr/lib/jvm/java-8-openjdk-amd64/jre/lib/amd64/server/libjvm.so
7f4301c97000-7f4301e97000 ---p 00c52000 fd:01 1046829                    /usr/lib/jvm/java-8-openjdk-amd64/jre/lib/amd64/server/libjvm.so
7f4301e97000-7f4301f2a000 r--p 00c52000 fd:01 1046829                    /usr/lib/jvm/java-8-openjdk-amd64/jre/lib/amd64/server/libjvm.so
7f4301f2a000-7f4301f53000 rw-p 00ce5000 fd:01 1046829                    /usr/lib/jvm/java-8-openjdk-amd64/jre/lib/amd64/server/libjvm.so
7f4301f53000-7f4301f83000 rw-p 00000000 00:00 0 
7f4301f83000-7f4301f9b000 r-xp 00000000 fd:01 21248                      /lib/x86_64-linux-gnu/libpthread-2.23.so
7f4301f9b000-7f430219a000 ---p 00018000 fd:01 21248                      /lib/x86_64-linux-gnu/libpthread-2.23.so
7f430219a000-7f430219b000 r--p 00017000 fd:01 21248                      /lib/x86_64-linux-gnu/libpthread-2.23.so
7f430219b000-7f430219c000 rw-p 00018000 fd:01 21248                      /lib/x86_64-linux-gnu/libpthread-2.23.so
7f430219c000-7f43021a0000 rw-p 00000000 00:00 0 
7f43021a0000-7f43021a3000 r-xp 00000000 fd:01 21251                      /lib/x86_64-linux-gnu/libdl-2.23.so
7f43021a3000-7f43023a2000 ---p 00003000 fd:01 21251                      /lib/x86_64-linux-gnu/libdl-2.23.so
7f43023a2000-7f43023a3000 r--p 00002000 fd:01 21251                      /lib/x86_64-linux-gnu/libdl-2.23.so
7f43023a3000-7f43023a4000 rw-p 00003000 fd:01 21251                      /lib/x86_64-linux-gnu/libdl-2.23.so
7f43023a4000-7f43023bd000 r-xp 00000000 fd:01 2193                       /lib/x86_64-linux-gnu/libz.so.1.2.8
7f43023bd000-7f43025bc000 ---p 00019000 fd:01 2193                       /lib/x86_64-linux-gnu/libz.so.1.2.8
7f43025bc000-7f43025bd000 r--p 00018000 fd:01 2193                       /lib/x86_64-linux-gnu/libz.so.1.2.8
7f43025bd000-7f43025be000 rw-p 00019000 fd:01 2193                       /lib/x86_64-linux-gnu/libz.so.1.2.8
7f43025be000-7f430277e000 r-xp 00000000 fd:01 21249                      /lib/x86_64-linux-gnu/libc-2.23.so
7f430277e000-7f430297e000 ---p 001c0000 fd:01 21249                      /lib/x86_64-linux-gnu/libc-2.23.so
7f430297e000-7f4302982000 r--p 001c0000 fd:01 21249                      /lib/x86_64-linux-gnu/libc-2.23.so
7f4302982000-7f4302984000 rw-p 001c4000 fd:01 21249                      /lib/x86_64-linux-gnu/libc-2.23.so
7f4302984000-7f4302988000 rw-p 00000000 00:00 0 
7f4302988000-7f4302995000 r-xp 00000000 fd:01 785235                     /usr/lib/jvm/java-8-openjdk-amd64/jre/lib/amd64/jli/libjli.so
7f4302995000-7f4302b95000 ---p 0000d000 fd:01 785235                     /usr/lib/jvm/java-8-openjdk-amd64/jre/lib/amd64/jli/libjli.so
7f4302b95000-7f4302b96000 r--p 0000d000 fd:01 785235                     /usr/lib/jvm/java-8-openjdk-amd64/jre/lib/amd64/jli/libjli.so
7f4302b96000-7f4302b97000 rw-p 0000e000 fd:01 785235                     /usr/lib/jvm/java-8-openjdk-amd64/jre/lib/amd64/jli/libjli.so
7f4302b97000-7f4302bbd000 r-xp 00000000 fd:01 21247                      /lib/x86_64-linux-gnu/ld-2.23.so
7f4302bbd000-7f4302bbf000 r--s 00001000 fd:01 785214                     /usr/lib/jvm/java-8-openjdk-amd64/jre/lib/ext/dnsns.jar
7f4302bbf000-7f4302bc1000 r--s 00008000 fd:01 785210                     /usr/lib/jvm/java-8-openjdk-amd64/jre/lib/ext/sunec.jar
7f4302bc1000-7f4302ca6000 rw-p 00000000 00:00 0 
7f4302ca6000-7f4302cae000 rw-s 00000000 fd:01 55543                      /tmp/hsperfdata_root/26656
7f4302cae000-7f4302cb1000 ---p 00000000 00:00 0 
7f4302cb1000-7f4302db3000 rw-p 00000000 00:00 0 
7f4302db3000-7f4302db4000 r--s 00001000 fd:01 276918                     /opt/OpenbravoTablero/lib/build/YUIAnt.jar
7f4302db4000-7f4302db5000 r--s 00010000 fd:01 785207                     /usr/lib/jvm/java-8-openjdk-amd64/jre/lib/ext/zipfs.jar
7f4302db5000-7f4302db8000 r--s 0000f000 fd:01 785205                     /usr/lib/jvm/java-8-openjdk-amd64/jre/lib/ext/icedtea-sound.jar
7f4302db8000-7f4302db9000 r--s 0000a000 fd:01 785213                     /usr/lib/jvm/java-8-openjdk-amd64/jre/lib/ext/jaccess.jar
7f4302db9000-7f4302dba000 rw-p 00000000 00:00 0 
7f4302dba000-7f4302dbb000 ---p 00000000 00:00 0 
7f4302dbb000-7f4302dbc000 rw-p 00000000 00:00 0 
7f4302dbc000-7f4302dbd000 r--p 00025000 fd:01 21247                      /lib/x86_64-linux-gnu/ld-2.23.so
7f4302dbd000-7f4302dbe000 rw-p 00026000 fd:01 21247                      /lib/x86_64-linux-gnu/ld-2.23.so
7f4302dbe000-7f4302dbf000 rw-p 00000000 00:00 0 
7ffc90dae000-7ffc90dd2000 rw-p 00000000 00:00 0                          [stack]
7ffc90df3000-7ffc90df6000 r--p 00000000 00:00 0                          [vvar]
7ffc90df6000-7ffc90df8000 r-xp 00000000 00:00 0                          [vdso]
ffffffffff600000-ffffffffff601000 r-xp 00000000 00:00 0                  [vsyscall]

VM Arguments:
jvm_args: -Xmx1024M 
java_command: org.openbravo.base.gen.GenerateEntitiesTask /opt/OpenbravoTablero/src false
java_class_path (initial): /opt/OpenbravoTablero/modules/org.openbravo.advpaymentmngt/build/classes:/opt/OpenbravoTablero/modules/org.openbravo.advpaymentmngt/build/classes/org:/opt/OpenbravoTablero/modules/org.openbravo.advpaymentmngt/build/classes/org/openbravo:/opt/OpenbravoTablero/modules/org.openbravo.advpaymentmngt/build/classes/org/openbravo/advpaymentmngt:/opt/OpenbravoTablero/modules/org.openbravo.advpaymentmngt/build/classes/org/openbravo/advpaymentmngt/buildvalidation:/opt/OpenbravoTablero/modules/org.openbravo.advpaymentmngt/build/classes/org/openbravo/advpaymentmngt/modulescript:/opt/OpenbravoTablero/modules/org.openbravo.userinterface.selector/build/classes:/opt/OpenbravoTablero/modules/org.openbravo.userinterface.selector/build/classes/org:/opt/OpenbravoTablero/modules/org.openbravo.userinterface.selector/build/classes/org/openbravo:/opt/OpenbravoTablero/modules/org.openbravo.userinterface.selector/build/classes/org/openbravo/userinterface:/opt/OpenbravoTablero/modules/org.openbravo.userinterface.selector/build/classes/org/openbravo/userinterface/selector:/opt/OpenbravoTablero/modules/org.openbravo.userinterface.skin.250to300Comp/build/classes:/opt/OpenbravoTablero/modules/org.openbravo.userinterface.skin.250to300Comp/build/classes/org:/opt/OpenbravoTablero/modules/org.openbravo.userinterface.skin.250to300Comp/build/classes/org/openbravo:/opt/OpenbravoTablero/modules/org.openbravo.userinterface.skin.250to300Comp/build/classes/org/openbravo/userinterface:/opt/OpenbravoTablero/modules/org.openbravo.userinterface.skin.250to300Comp/build/classes/org/openbravo/userinterface/skin:/opt/OpenbravoTablero/modules/org.openbravo.userinterface.skin.250to300Comp/build/classes/org/openbravo/userinterface/skin/s250to300Comp:/opt/OpenbravoTablero/modules/org.openbravo.userinterface.skin.250to300Comp/build/classes/org/openbravo/userinterface/skin/s250to300Comp/modulescript:/opt/OpenbravoTablero/modules/org.openbravo.v3.datasets/build/classes:/opt/OpenbravoTablero/mod
Launcher Type: SUN_STANDARD

Environment Variables:
JAVA_HOME=/usr/lib/jvm/java-8-openjdk-amd64
PATH=/usr/local/sbin:/usr/local/bin:/usr/sbin:/usr/bin:/sbin:/bin:/usr/games:/usr/local/games:/snap/bin
SHELL=/bin/bash

Signal Handlers:
SIGSEGV: [libjvm.so+0xa69040], sa_mask[0]=11111111011111111101111111111110, sa_flags=SA_RESTART|SA_SIGINFO
SIGBUS: [libjvm.so+0xa69040], sa_mask[0]=11111111011111111101111111111110, sa_flags=SA_RESTART|SA_SIGINFO
SIGFPE: [libjvm.so+0x8b2170], sa_mask[0]=11111111011111111101111111111110, sa_flags=SA_RESTART|SA_SIGINFO
SIGPIPE: [libjvm.so+0x8b2170], sa_mask[0]=11111111011111111101111111111110, sa_flags=SA_RESTART|SA_SIGINFO
SIGXFSZ: [libjvm.so+0x8b2170], sa_mask[0]=11111111011111111101111111111110, sa_flags=SA_RESTART|SA_SIGINFO
SIGILL: [libjvm.so+0x8b2170], sa_mask[0]=11111111011111111101111111111110, sa_flags=SA_RESTART|SA_SIGINFO
SIGUSR1: SIG_DFL, sa_mask[0]=00000000000000000000000000000000, sa_flags=none
SIGUSR2: [libjvm.so+0x8b2020], sa_mask[0]=00100000000000000000000000000000, sa_flags=SA_RESTART|SA_SIGINFO
SIGHUP: [libjvm.so+0x8b24f0], sa_mask[0]=11111111011111111101111111111110, sa_flags=SA_RESTART|SA_SIGINFO
SIGINT: [libjvm.so+0x8b24f0], sa_mask[0]=11111111011111111101111111111110, sa_flags=SA_RESTART|SA_SIGINFO
SIGTERM: [libjvm.so+0x8b24f0], sa_mask[0]=11111111011111111101111111111110, sa_flags=SA_RESTART|SA_SIGINFO
SIGQUIT: [libjvm.so+0x8b24f0], sa_mask[0]=11111111011111111101111111111110, sa_flags=SA_RESTART|SA_SIGINFO


---------------  S Y S T E M  ---------------

OS:DISTRIB_ID=Ubuntu
DISTRIB_RELEASE=16.04
DISTRIB_CODENAME=xenial
DISTRIB_DESCRIPTION="Ubuntu 16.04.3 LTS"

uname:Linux 4.4.0-112-generic #135-Ubuntu SMP Fri Jan 19 11:48:36 UTC 2018 x86_64
libc:glibc 2.23 NPTL 2.23 
rlimit: STACK 8192k, CORE 0k, NPROC 11959, NOFILE 1048576, AS infinity
load average:0.40 0.27 0.18

/proc/meminfo:
MemTotal:        3080336 kB
MemFree:           71204 kB
MemAvailable:       8500 kB
Buffers:            4468 kB
Cached:            46824 kB
SwapCached:            0 kB
Active:          2893648 kB
Inactive:          41104 kB
Active(anon):    2886728 kB
Inactive(anon):    33248 kB
Active(file):       6920 kB
Inactive(file):     7856 kB
Unevictable:        3652 kB
Mlocked:            3652 kB
SwapTotal:             0 kB
SwapFree:              0 kB
Dirty:               200 kB
Writeback:             0 kB
AnonPages:       2887296 kB
Mapped:            10524 kB
Shmem:             33936 kB
Slab:              35908 kB
SReclaimable:      18760 kB
SUnreclaim:        17148 kB
KernelStack:        4144 kB
PageTables:         9840 kB
NFS_Unstable:          0 kB
Bounce:                0 kB
WritebackTmp:          0 kB
CommitLimit:     1540168 kB
Committed_AS:    3315668 kB
VmallocTotal:   34359738367 kB
VmallocUsed:           0 kB
VmallocChunk:          0 kB
HardwareCorrupted:     0 kB
AnonHugePages:   1929216 kB
CmaTotal:              0 kB
CmaFree:               0 kB
HugePages_Total:       0
HugePages_Free:        0
HugePages_Rsvd:        0
HugePages_Surp:        0
Hugepagesize:       2048 kB
DirectMap4k:       63468 kB
DirectMap2M:     3082240 kB
DirectMap1G:           0 kB


CPU:total 2 (initial active 2) (1 cores per cpu, 1 threads per core) family 6 model 79 stepping 1, cmov, cx8, fxsr, mmx, sse, sse2, sse3, ssse3, sse4.1, sse4.2, popcnt, avx, avx2, aes, clmul, erms, rtm, 3dnowpref, lzcnt, tsc, bmi1, bmi2, adx

/proc/cpuinfo:
processor	: 0
vendor_id	: GenuineIntel
cpu family	: 6
model		: 79
model name	: Intel(R) Xeon(R) CPU E5-2697A v4 @ 2.60GHz
stepping	: 1
microcode	: 0x1
cpu MHz		: 2599.996
cache size	: 40960 KB
physical id	: 0
siblings	: 1
core id		: 0
cpu cores	: 1
apicid		: 0
initial apicid	: 0
fpu		: yes
fpu_exception	: yes
cpuid level	: 13
wp		: yes
flags		: fpu vme de pse tsc msr pae mce cx8 apic sep mtrr pge mca cmov pat pse36 clflush mmx fxsr sse sse2 ss syscall nx pdpe1gb rdtscp lm constant_tsc arch_perfmon rep_good nopl eagerfpu pni pclmulqdq vmx ssse3 fma cx16 pcid sse4_1 sse4_2 x2apic movbe popcnt tsc_deadline_timer aes xsave avx f16c rdrand hypervisor lahf_lm abm 3dnowprefetch invpcid_single kaiser tpr_shadow vnmi flexpriority ept vpid fsgsbase tsc_adjust bmi1 hle avx2 smep bmi2 erms invpcid rtm rdseed adx smap xsaveopt
bugs		:
bogomips	: 5199.99
clflush size	: 64
cache_alignment	: 64
address sizes	: 40 bits physical, 48 bits virtual
power management:

processor	: 1
vendor_id	: GenuineIntel
cpu family	: 6
model		: 79
model name	: Intel(R) Xeon(R) CPU E5-2697A v4 @ 2.60GHz
stepping	: 1
microcode	: 0x1
cpu MHz		: 2599.996
cache size	: 40960 KB
physical id	: 1
siblings	: 1
core id		: 0
cpu cores	: 1
apicid		: 1
initial apicid	: 1
fpu		: yes
fpu_exception	: yes
cpuid level	: 13
wp		: yes
flags		: fpu vme de pse tsc msr pae mce cx8 apic sep mtrr pge mca cmov pat pse36 clflush mmx fxsr sse sse2 ss syscall nx pdpe1gb rdtscp lm constant_tsc arch_perfmon rep_good nopl eagerfpu pni pclmulqdq vmx ssse3 fma cx16 pcid sse4_1 sse4_2 x2apic movbe popcnt tsc_deadline_timer aes xsave avx f16c rdrand hypervisor lahf_lm abm 3dnowprefetch invpcid_single kaiser tpr_shadow vnmi flexpriority ept vpid fsgsbase tsc_adjust bmi1 hle avx2 smep bmi2 erms invpcid rtm rdseed adx smap xsaveopt
bugs		:
bogomips	: 5199.99
clflush size	: 64
cache_alignment	: 64
address sizes	: 40 bits physical, 48 bits virtual
power management:



Memory: 4k page, physical 3080336k(71204k free), swap 0k(0k free)

vm_info: OpenJDK 64-Bit Server VM (25.151-b12) for linux-amd64 JRE (1.8.0_151-8u151-b12-0ubuntu0.16.04.2-b12), built on Oct 27 2017 21:59:02 by "buildd" with gcc 5.4.0 20160609

time: Wed Feb 28 07:28:25 2018
elapsed time: 3 seconds (0d 0h 0m 3s)

