#
# There is insufficient memory for the Java Runtime Environment to continue.
# Native memory allocation (mmap) failed to map 25165824 bytes for committing reserved memory.
# Possible reasons:
#   The system is out of physical RAM or swap space
#   In 32 bit mode, the process size limit was hit
# Possible solutions:
#   Reduce memory load on the system
#   Increase physical memory or swap space
#   Check if swap backing store is full
#   Use 64 bit Java on a 64 bit OS
#   Decrease Java heap size (-Xmx/-Xms)
#   Decrease number of Java threads
#   Decrease Java thread stack sizes (-Xss)
#   Set larger code cache with -XX:ReservedCodeCacheSize=
# This output file may be truncated or incomplete.
#
#  Out of Memory Error (os_linux.cpp:2643), pid=4137, tid=0x00007ff314ef6700
#
# JRE version: OpenJDK Runtime Environment (8.0_151-b12) (build 1.8.0_151-8u151-b12-0ubuntu0.16.04.2-b12)
# Java VM: OpenJDK 64-Bit Server VM (25.151-b12 mixed mode linux-amd64 compressed oops)
# Failed to write core dump. Core dumps have been disabled. To enable core dumping, try "ulimit -c unlimited" before starting Java again
#

---------------  T H R E A D  ---------------

Current thread (0x00007ff32c078000):  VMThread [stack: 0x00007ff314df6000,0x00007ff314ef7000] [id=4144]

Stack: [0x00007ff314df6000,0x00007ff314ef7000],  sp=0x00007ff314ef54c0,  free space=1021k
Native frames: (J=compiled Java code, j=interpreted, Vv=VM code, C=native code)
V  [libjvm.so+0xa684eb]
V  [libjvm.so+0x4c579c]
V  [libjvm.so+0x8b6b50]
V  [libjvm.so+0x8b0fce]
V  [libjvm.so+0x92b806]
V  [libjvm.so+0x92cb33]
V  [libjvm.so+0x9291fb]
V  [libjvm.so+0x9294ac]
V  [libjvm.so+0x8db3c3]
V  [libjvm.so+0xa6a192]
V  [libjvm.so+0xa6f277]
V  [libjvm.so+0xa6ca47]
V  [libjvm.so+0xa6decf]
V  [libjvm.so+0xa6e3c1]
V  [libjvm.so+0x8b4032]

VM_Operation (0x00007ff3334c3c10): ParallelGCFailedAllocation, mode: safepoint, requested by thread 0x00007ff32c00e800


---------------  P R O C E S S  ---------------

Java Threads: ( => current thread )
  0x00007ff32c74b000 JavaThread "PoolCleaner[824909230:1520204668079]" daemon [_thread_blocked, id=4152, stack(0x00007ff314026000,0x00007ff314127000)]
  0x00007ff32c0b8800 JavaThread "Service Thread" daemon [_thread_blocked, id=4150, stack(0x00007ff314658000,0x00007ff314759000)]
  0x00007ff32c0b0800 JavaThread "C1 CompilerThread1" daemon [_thread_blocked, id=4149, stack(0x00007ff314759000,0x00007ff31485a000)]
  0x00007ff32c0ad800 JavaThread "C2 CompilerThread0" daemon [_thread_in_native, id=4148, stack(0x00007ff31485a000,0x00007ff31495b000)]
  0x00007ff32c0ab800 JavaThread "Signal Dispatcher" daemon [_thread_blocked, id=4147, stack(0x00007ff31495b000,0x00007ff314a5c000)]
  0x00007ff32c084000 JavaThread "Finalizer" daemon [_thread_blocked, id=4146, stack(0x00007ff314bf4000,0x00007ff314cf5000)]
  0x00007ff32c07f800 JavaThread "Reference Handler" daemon [_thread_blocked, id=4145, stack(0x00007ff314cf5000,0x00007ff314df6000)]
  0x00007ff32c00e800 JavaThread "main" [_thread_blocked, id=4141, stack(0x00007ff3333c7000,0x00007ff3334c8000)]

Other Threads:
=>0x00007ff32c078000 VMThread [stack: 0x00007ff314df6000,0x00007ff314ef7000] [id=4144]
  0x00007ff32c0ba800 WatcherThread [stack: 0x00007ff314557000,0x00007ff314658000] [id=4151]

VM state:at safepoint (normal execution)

VM Mutex/Monitor currently owned by a thread:  ([mutex/lock_event])
[0x00007ff32c00afd0] Threads_lock - owner thread: 0x00007ff32c078000
[0x00007ff32c00b4d0] Heap_lock - owner thread: 0x00007ff32c00e800

Heap:
 PSYoungGen      total 26624K, used 1781K [0x00000000eab00000, 0x00000000ec700000, 0x0000000100000000)
  eden space 24576K, 0% used [0x00000000eab00000,0x00000000eab00000,0x00000000ec300000)
  from space 2048K, 87% used [0x00000000ec300000,0x00000000ec4bd770,0x00000000ec500000)
  to   space 2048K, 0% used [0x00000000ec500000,0x00000000ec500000,0x00000000ec700000)
 ParOldGen       total 32768K, used 16K [0x00000000c0000000, 0x00000000c2000000, 0x00000000eab00000)
  object space 32768K, 0% used [0x00000000c0000000,0x00000000c0004000,0x00000000c2000000)
 Metaspace       used 5714K, capacity 6068K, committed 6400K, reserved 1056768K
  class space    used 657K, capacity 688K, committed 768K, reserved 1048576K

Card table byte_map: [0x00007ff31c836000,0x00007ff31ca37000] byte_map_base: 0x00007ff31c236000

Marking Bits: (ParMarkBitMap*) 0x00007ff33267f2c0
 Begin Bits: [0x00007ff316000000, 0x00007ff317000000)
 End Bits:   [0x00007ff317000000, 0x00007ff318000000)

Polling page: 0x00007ff3334d3000

CodeCache: size=245760Kb used=2162Kb max_used=2162Kb free=243597Kb
 bounds [0x00007ff31cdf7000, 0x00007ff31d067000, 0x00007ff32bdf7000]
 total_blobs=650 nmethods=390 adapters=175
 compilation: enabled

Compilation events (10 events):
Event: 0.443 Thread 0x00007ff32c0b0800 nmethod 390 0x00007ff31d009e10 code [0x00007ff31d00a040, 0x00007ff31d00ab78]
Event: 0.443 Thread 0x00007ff32c0b0800  392   !   3       sun.misc.Resource::getBytes (242 bytes)
Event: 0.445 Thread 0x00007ff32c0b0800 nmethod 392 0x00007ff31d00b050 code [0x00007ff31d00b340, 0x00007ff31d00cc88]
Event: 0.445 Thread 0x00007ff32c0b0800  391       3       java.net.URLClassLoader::getAndVerifyPackage (109 bytes)
Event: 0.445 Thread 0x00007ff32c0b0800 nmethod 391 0x00007ff31d00db90 code [0x00007ff31d00de80, 0x00007ff31d00f5e8]
Event: 0.456 Thread 0x00007ff32c0b0800  395       3       java.util.jar.JarFile::getManifestFromReference (113 bytes)
Event: 0.457 Thread 0x00007ff32c0b0800 nmethod 395 0x00007ff31d0105d0 code [0x00007ff31d010900, 0x00007ff31d011f38]
Event: 0.458 Thread 0x00007ff32c0b0800  396       3       sun.net.www.protocol.jar.Handler::parseURL (201 bytes)
Event: 0.459 Thread 0x00007ff32c0b0800 nmethod 396 0x00007ff31d012cd0 code [0x00007ff31d012f80, 0x00007ff31d0143c8]
Event: 0.459 Thread 0x00007ff32c0b0800  397       3       sun.net.www.protocol.jar.Handler::parseContextSpec (154 bytes)

GC Heap History (5 events):
Event: 0.262 GC heap before
{Heap before GC invocations=1 (full 0):
 PSYoungGen      total 14336K, used 12288K [0x00000000eab00000, 0x00000000ebb00000, 0x0000000100000000)
  eden space 12288K, 100% used [0x00000000eab00000,0x00000000eb700000,0x00000000eb700000)
  from space 2048K, 0% used [0x00000000eb900000,0x00000000eb900000,0x00000000ebb00000)
  to   space 2048K, 0% used [0x00000000eb700000,0x00000000eb700000,0x00000000eb900000)
 ParOldGen       total 32768K, used 0K [0x00000000c0000000, 0x00000000c2000000, 0x00000000eab00000)
  object space 32768K, 0% used [0x00000000c0000000,0x00000000c0000000,0x00000000c2000000)
 Metaspace       used 3523K, capacity 4780K, committed 5120K, reserved 1056768K
  class space    used 376K, capacity 424K, committed 512K, reserved 1048576K
Event: 0.265 GC heap after
Heap after GC invocations=1 (full 0):
 PSYoungGen      total 14336K, used 1318K [0x00000000eab00000, 0x00000000ec700000, 0x0000000100000000)
  eden space 12288K, 0% used [0x00000000eab00000,0x00000000eab00000,0x00000000eb700000)
  from space 2048K, 64% used [0x00000000eb700000,0x00000000eb849ba0,0x00000000eb900000)
  to   space 2048K, 0% used [0x00000000ec500000,0x00000000ec500000,0x00000000ec700000)
 ParOldGen       total 32768K, used 8K [0x00000000c0000000, 0x00000000c2000000, 0x00000000eab00000)
  object space 32768K, 0% used [0x00000000c0000000,0x00000000c0002000,0x00000000c2000000)
 Metaspace       used 3523K, capacity 4780K, committed 5120K, reserved 1056768K
  class space    used 376K, capacity 424K, committed 512K, reserved 1048576K
}
Event: 0.345 GC heap before
{Heap before GC invocations=2 (full 0):
 PSYoungGen      total 14336K, used 13606K [0x00000000eab00000, 0x00000000ec700000, 0x0000000100000000)
  eden space 12288K, 100% used [0x00000000eab00000,0x00000000eb700000,0x00000000eb700000)
  from space 2048K, 64% used [0x00000000eb700000,0x00000000eb849ba0,0x00000000eb900000)
  to   space 2048K, 0% used [0x00000000ec500000,0x00000000ec500000,0x00000000ec700000)
 ParOldGen       total 32768K, used 8K [0x00000000c0000000, 0x00000000c2000000, 0x00000000eab00000)
  object space 32768K, 0% used [0x00000000c0000000,0x00000000c0002000,0x00000000c2000000)
 Metaspace       used 4245K, capacity 5140K, committed 5504K, reserved 1056768K
  class space    used 482K, capacity 528K, committed 640K, reserved 1048576K
Event: 0.347 GC heap after
Heap after GC invocations=2 (full 0):
 PSYoungGen      total 26624K, used 1161K [0x00000000eab00000, 0x00000000ec700000, 0x0000000100000000)
  eden space 24576K, 0% used [0x00000000eab00000,0x00000000eab00000,0x00000000ec300000)
  from space 2048K, 56% used [0x00000000ec500000,0x00000000ec622468,0x00000000ec700000)
  to   space 2048K, 0% used [0x00000000ec300000,0x00000000ec300000,0x00000000ec500000)
 ParOldGen       total 32768K, used 8K [0x00000000c0000000, 0x00000000c2000000, 0x00000000eab00000)
  object space 32768K, 0% used [0x00000000c0000000,0x00000000c0002000,0x00000000c2000000)
 Metaspace       used 4245K, capacity 5140K, committed 5504K, reserved 1056768K
  class space    used 482K, capacity 528K, committed 640K, reserved 1048576K
}
Event: 0.459 GC heap before
{Heap before GC invocations=3 (full 0):
 PSYoungGen      total 26624K, used 25737K [0x00000000eab00000, 0x00000000ec700000, 0x0000000100000000)
  eden space 24576K, 100% used [0x00000000eab00000,0x00000000ec300000,0x00000000ec300000)
  from space 2048K, 56% used [0x00000000ec500000,0x00000000ec622468,0x00000000ec700000)
  to   space 2048K, 0% used [0x00000000ec300000,0x00000000ec300000,0x00000000ec500000)
 ParOldGen       total 32768K, used 8K [0x00000000c0000000, 0x00000000c2000000, 0x00000000eab00000)
  object space 32768K, 0% used [0x00000000c0000000,0x00000000c0002000,0x00000000c2000000)
 Metaspace       used 5714K, capacity 6068K, committed 6400K, reserved 1056768K
  class space    used 657K, capacity 688K, committed 768K, reserved 1048576K

Deoptimization events (7 events):
Event: 0.149 Thread 0x00007ff32c00e800 Uncommon trap: reason=unstable_if action=reinterpret pc=0x00007ff31cf148c4 method=java.lang.String.indexOf(II)I @ 49
Event: 0.151 Thread 0x00007ff32c00e800 Uncommon trap: reason=unstable_if action=reinterpret pc=0x00007ff31ce64a5c method=java.lang.String.hashCode()I @ 14
Event: 0.206 Thread 0x00007ff32c00e800 Uncommon trap: reason=unstable_if action=reinterpret pc=0x00007ff31cf4f800 method=java.lang.String.startsWith(Ljava/lang/String;I)Z @ 37
Event: 0.288 Thread 0x00007ff32c00e800 Uncommon trap: reason=unstable_if action=reinterpret pc=0x00007ff31cf78688 method=java.lang.AbstractStringBuilder.append(Ljava/lang/String;)Ljava/lang/AbstractStringBuilder; @ 1
Event: 0.300 Thread 0x00007ff32c00e800 Uncommon trap: reason=unstable_if action=reinterpret pc=0x00007ff31cf76b60 method=java.lang.String.<init>([CII)V @ 18
Event: 0.418 Thread 0x00007ff32c00e800 Uncommon trap: reason=unstable_if action=reinterpret pc=0x00007ff31cf94624 method=java.lang.String.<init>([CII)V @ 18
Event: 0.419 Thread 0x00007ff32c00e800 Uncommon trap: reason=unstable_if action=reinterpret pc=0x00007ff31cf43e1c method=java.lang.String.indexOf([CII[CIII)I @ 3

Internal exceptions (10 events):
Event: 0.261 Thread 0x00007ff32c00e800 Exception <a 'java/lang/ClassNotFoundException': org/apache/log4j/PatternLayoutBeanInfo> (0x00000000eb6bd278) thrown at [/build/openjdk-8-W2Qe27/openjdk-8-8u151-b12/src/hotspot/src/share/vm/classfile/systemDictionary.cpp, line 210]
Event: 0.266 Thread 0x00007ff32c00e800 Exception <a 'java/lang/ClassNotFoundException': org/apache/log4j/LayoutBeanInfo> (0x00000000eab06cb0) thrown at [/build/openjdk-8-W2Qe27/openjdk-8-8u151-b12/src/hotspot/src/share/vm/classfile/systemDictionary.cpp, line 210]
Event: 0.267 Thread 0x00007ff32c00e800 Exception <a 'java/lang/ClassNotFoundException': java/lang/ObjectBeanInfo> (0x00000000eab29a60) thrown at [/build/openjdk-8-W2Qe27/openjdk-8-8u151-b12/src/hotspot/src/share/vm/classfile/systemDictionary.cpp, line 210]
Event: 0.267 Thread 0x00007ff32c00e800 Exception <a 'java/lang/ClassNotFoundException': java/lang/ObjectCustomizer> (0x00000000eab4cc40) thrown at [/build/openjdk-8-W2Qe27/openjdk-8-8u151-b12/src/hotspot/src/share/vm/classfile/systemDictionary.cpp, line 210]
Event: 0.271 Thread 0x00007ff32c00e800 Exception <a 'java/lang/ArrayIndexOutOfBoundsException': 18> (0x00000000eab4f348) thrown at [/build/openjdk-8-W2Qe27/openjdk-8-8u151-b12/src/hotspot/src/share/vm/interpreter/interpreterRuntime.cpp, line 366]
Event: 0.272 Thread 0x00007ff32c00e800 Exception <a 'java/lang/ArrayIndexOutOfBoundsException': 22> (0x00000000eab52690) thrown at [/build/openjdk-8-W2Qe27/openjdk-8-8u151-b12/src/hotspot/src/share/vm/interpreter/interpreterRuntime.cpp, line 366]
Event: 0.273 Thread 0x00007ff32c00e800 Exception <a 'java/lang/ArrayIndexOutOfBoundsException': 160> (0x00000000eab54ae0) thrown at [/build/openjdk-8-W2Qe27/openjdk-8-8u151-b12/src/hotspot/src/share/vm/interpreter/interpreterRuntime.cpp, line 366]
Event: 0.279 Thread 0x00007ff32c00e800 Exception <a 'java/lang/ClassNotFoundException': org/apache/log4j/LayoutCustomizer> (0x00000000eaba1c70) thrown at [/build/openjdk-8-W2Qe27/openjdk-8-8u151-b12/src/hotspot/src/share/vm/classfile/systemDictionary.cpp, line 210]
Event: 0.281 Thread 0x00007ff32c00e800 Exception <a 'java/lang/ClassNotFoundException': org/apache/log4j/PatternLayoutCustomizer> (0x00000000eac1f850) thrown at [/build/openjdk-8-W2Qe27/openjdk-8-8u151-b12/src/hotspot/src/share/vm/classfile/systemDictionary.cpp, line 210]
Event: 0.288 Thread 0x00007ff32c00e800 Implicit null exception at 0x00007ff31cf78274 to 0x00007ff31cf78671

Events (10 events):
Event: 0.458 loading class org/postgresql/util/PSQLException done
Event: 0.458 Thread 0x00007ff32c00e800 DEOPT PACKING pc=0x00007ff31cffc02c sp=0x00007ff3334c39a0
Event: 0.458 Thread 0x00007ff32c00e800 DEOPT UNPACKING pc=0x00007ff31ce3e373 sp=0x00007ff3334c3698 mode 0
Event: 0.458 loading class java/lang/ExceptionInInitializerError
Event: 0.458 loading class java/lang/ExceptionInInitializerError done
Event: 0.459 loading class java/sql/Connection
Event: 0.459 loading class java/sql/Connection done
Event: 0.459 loading class org/postgresql/core/Logger
Event: 0.459 loading class org/postgresql/core/Logger done
Event: 0.459 Executing VM operation: ParallelGCFailedAllocation


Dynamic libraries:
00400000-00401000 r-xp 00000000 fd:01 1046840                            /usr/lib/jvm/java-8-openjdk-amd64/jre/bin/java
00600000-00601000 r--p 00000000 fd:01 1046840                            /usr/lib/jvm/java-8-openjdk-amd64/jre/bin/java
00601000-00602000 rw-p 00001000 fd:01 1046840                            /usr/lib/jvm/java-8-openjdk-amd64/jre/bin/java
01914000-01935000 rw-p 00000000 00:00 0                                  [heap]
c0000000-c2000000 rw-p 00000000 00:00 0 
c2000000-eab00000 ---p 00000000 00:00 0 
eab00000-ec700000 rw-p 00000000 00:00 0 
edf00000-100000000 ---p 00000000 00:00 0 
100000000-1000c0000 rw-p 00000000 00:00 0 
1000c0000-140000000 ---p 00000000 00:00 0 
7ff2ebf74000-7ff2ec000000 rw-p 00000000 00:00 0 
7ff2ec000000-7ff2ec021000 rw-p 00000000 00:00 0 
7ff2ec021000-7ff2f0000000 ---p 00000000 00:00 0 
7ff2f0000000-7ff2f0021000 rw-p 00000000 00:00 0 
7ff2f0021000-7ff2f4000000 ---p 00000000 00:00 0 
7ff2f4000000-7ff2f43cc000 rw-p 00000000 00:00 0 
7ff2f43cc000-7ff2f8000000 ---p 00000000 00:00 0 
7ff2f8000000-7ff2f8021000 rw-p 00000000 00:00 0 
7ff2f8021000-7ff2fc000000 ---p 00000000 00:00 0 
7ff2fc000000-7ff2fc021000 rw-p 00000000 00:00 0 
7ff2fc021000-7ff300000000 ---p 00000000 00:00 0 
7ff300000000-7ff300291000 rw-p 00000000 00:00 0 
7ff300291000-7ff304000000 ---p 00000000 00:00 0 
7ff304000000-7ff304021000 rw-p 00000000 00:00 0 
7ff304021000-7ff308000000 ---p 00000000 00:00 0 
7ff308000000-7ff308021000 rw-p 00000000 00:00 0 
7ff308021000-7ff30c000000 ---p 00000000 00:00 0 
7ff30c000000-7ff30c021000 rw-p 00000000 00:00 0 
7ff30c021000-7ff310000000 ---p 00000000 00:00 0 
7ff310000000-7ff310021000 rw-p 00000000 00:00 0 
7ff310021000-7ff314000000 ---p 00000000 00:00 0 
7ff314026000-7ff314029000 ---p 00000000 00:00 0 
7ff314029000-7ff314127000 rw-p 00000000 00:00 0 
7ff3141ab000-7ff3141ac000 r--s 00001000 fd:01 522405                     /opt/OpenbravoTablero/modules/org.openbravo.client.kernel/lib/runtime/jsmin.0.2.4.jar
7ff3141ac000-7ff3141b8000 r--s 000ee000 fd:01 522406                     /opt/OpenbravoTablero/modules/org.openbravo.client.kernel/lib/runtime/jslint4java-1.4.7.jar
7ff3141b8000-7ff3141ba000 r--s 00005000 fd:01 520712                     /opt/OpenbravoTablero/modules/org.openbravo.client.application/lib/runtime/httpmime-4.1.jar
7ff3141ba000-7ff3141bf000 r--s 00026000 fd:01 520714                     /opt/OpenbravoTablero/modules/org.openbravo.client.application/lib/runtime/httpcore-4.0.1.jar
7ff3141bf000-7ff3141c6000 r--s 00040000 fd:01 520713                     /opt/OpenbravoTablero/modules/org.openbravo.client.application/lib/runtime/httpclient-4.0.jar
7ff3141c6000-7ff3141d4000 r--s 00099000 fd:01 520715                     /opt/OpenbravoTablero/modules/org.openbravo.client.application/lib/runtime/guice-2.0.jar
7ff3141d4000-7ff3141d8000 r--s 0000a000 fd:01 518216                     /opt/OpenbravoTablero/modules/org.openbravo.base.weld/lib/runtime/weld-spi.jar
7ff3141d8000-7ff3141db000 r--s 00011000 fd:01 518222                     /opt/OpenbravoTablero/modules/org.openbravo.base.weld/lib/runtime/weld-servlet-core-1.1.24.Final.jar
7ff3141db000-7ff3141ed000 r--s 000ce000 fd:01 518212                     /opt/OpenbravoTablero/modules/org.openbravo.base.weld/lib/runtime/weld-core-1.1.24.Final.jar
7ff3141ed000-7ff3141ef000 r--s 00004000 fd:01 518213                     /opt/OpenbravoTablero/modules/org.openbravo.base.weld/lib/runtime/weld-api.jar
7ff3141ef000-7ff3141f1000 r--s 00009000 fd:01 518211                     /opt/OpenbravoTablero/modules/org.openbravo.base.weld/lib/runtime/slf4j-ext-1.6.1.jar
7ff3141f1000-7ff3141f2000 r--s 00001000 fd:01 518214                     /opt/OpenbravoTablero/modules/org.openbravo.base.weld/lib/runtime/jboss-interceptor-spi-2.0.0.CR1.jar
7ff3141f2000-7ff3141f5000 r--s 0000c000 fd:01 518220                     /opt/OpenbravoTablero/modules/org.openbravo.base.weld/lib/runtime/jboss-interceptor-core-2.0.0.CR1.jar
7ff3141f5000-7ff3141f7000 r--s 00000000 fd:01 518210                     /opt/OpenbravoTablero/modules/org.openbravo.base.weld/lib/runtime/jboss-interceptor-api-3.1.0-CR3.jar
7ff3141f7000-7ff3141f8000 r--s 00000000 fd:01 518221                     /opt/OpenbravoTablero/modules/org.openbravo.base.weld/lib/runtime/javax.inject.jar
7ff3141f8000-7ff314223000 r--s 001fc000 fd:01 518217                     /opt/OpenbravoTablero/modules/org.openbravo.base.weld/lib/runtime/guava-18.0.jar
7ff314223000-7ff314226000 r--s 00006000 fd:01 518219                     /opt/OpenbravoTablero/modules/org.openbravo.base.weld/lib/runtime/ejb-api-3.0.jar
7ff314226000-7ff314229000 r--s 0000a000 fd:01 518218                     /opt/OpenbravoTablero/modules/org.openbravo.base.weld/lib/runtime/cdi-api.jar
7ff314229000-7ff31422b000 r--s 00006000 fd:01 518215                     /opt/OpenbravoTablero/modules/org.openbravo.base.weld/lib/runtime/cal10n-api-0.7.4.jar
7ff31422b000-7ff31422c000 r--s 00006000 fd:01 522533                     /opt/OpenbravoTablero/modules/org.openbravo.apachejdbcconnectionpool/lib/runtime/tomcat-juli.jar
7ff31422c000-7ff31422e000 r--s 0001d000 fd:01 522532                     /opt/OpenbravoTablero/modules/org.openbravo.apachejdbcconnectionpool/lib/runtime/tomcat-jdbc.jar
7ff31422e000-7ff31423a000 r--s 00096000 fd:01 1076806                    /opt/OpenbravoTablero/modules/com.atrums.felectronica/lib/runtime/xmlsec-1.4.2-ADSI-1.1.jar
7ff31423a000-7ff31423d000 r--s 00018000 fd:01 1076805                    /opt/OpenbravoTablero/modules/com.atrums.felectronica/lib/runtime/xmlrpc-1.2-b1.jar
7ff31423d000-7ff31423e000 r--s 00007000 fd:01 1076804                    /opt/OpenbravoTablero/modules/com.atrums.felectronica/lib/runtime/xmlrpc-1.2-b1-applet.jar
7ff31423e000-7ff314243000 r--s 0002d000 fd:01 1076795                    /opt/OpenbravoTablero/modules/com.atrums.felectronica/lib/runtime/bcmail-jdk15-140.jar
7ff314243000-7ff314246000 r--s 00014000 fd:01 1076794                    /opt/OpenbravoTablero/modules/com.atrums.felectronica/lib/runtime/barbecue-1.5-beta1.jar
7ff314246000-7ff31424e000 r--s 0007a000 fd:01 1076803                    /opt/OpenbravoTablero/modules/com.atrums.felectronica/lib/runtime/MITyCLibXADES-1.1.7.jar
7ff31424e000-7ff314254000 r--s 00047000 fd:01 1076801                    /opt/OpenbravoTablero/modules/com.atrums.felectronica/lib/runtime/MITyCLibTrust-1.1.7.jar
7ff314254000-7ff314255000 r--s 00011000 fd:01 1076802                    /opt/OpenbravoTablero/modules/com.atrums.felectronica/lib/runtime/MITyCLibTSA-1.1.7.jar
7ff314255000-7ff314257000 r--s 00019000 fd:01 1076800                    /opt/OpenbravoTablero/modules/com.atrums.felectronica/lib/runtime/MITyCLibPolicy-1.1.7.jar
7ff314257000-7ff314259000 r--s 0001c000 fd:01 1076799                    /opt/OpenbravoTablero/modules/com.atrums.felectronica/lib/runtime/MITyCLibOCSP-1.1.7.jar
7ff314259000-7ff31425b000 r--s 0001f000 fd:01 1076798                    /opt/OpenbravoTablero/modules/com.atrums.felectronica/lib/runtime/MITyCLibCrypt-1.1.7.jar
7ff31425b000-7ff314262000 r--s 0044c000 fd:01 1076797                    /opt/OpenbravoTablero/modules/com.atrums.felectronica/lib/runtime/MITyCLibCert-1.1.7.jar
7ff314262000-7ff314266000 r--s 00029000 fd:01 1076796                    /opt/OpenbravoTablero/modules/com.atrums.felectronica/lib/runtime/MITyCLibAPI-1.1.7.jar
7ff314266000-7ff31426c000 r--s 0006e000 fd:01 278520                     /opt/OpenbravoTablero/src-db/database/lib/wstx-asl-3.0.2.jar
7ff31426c000-7ff31426e000 r--s 0000e000 fd:01 278521                     /opt/OpenbravoTablero/src-db/database/lib/jakarta-oro-2.0.8.jar
7ff31426e000-7ff314279000 r--s 000b4000 fd:01 278518                     /opt/OpenbravoTablero/src-db/database/lib/dbsourcemanager.jar
7ff314279000-7ff31427a000 r--s 00001000 fd:01 278522                     /opt/OpenbravoTablero/src-db/database/lib/dbmanager.jar
7ff31427a000-7ff314280000 r--s 00036000 fd:01 278519                     /opt/OpenbravoTablero/src-db/database/lib/commons-betwixt-0.8.jar
7ff314280000-7ff314285000 r--s 00066000 fd:01 523757                     /opt/OpenbravoTablero/src-wad/lib/openbravo-wad.jar
7ff314285000-7ff314286000 r--s 00005000 fd:01 522897                     /opt/OpenbravoTablero/src-trl/lib/openbravo-trl.jar
7ff314286000-7ff31428a000 r--s 0003d000 fd:01 516417                     /opt/OpenbravoTablero/src-core/lib/openbravo-core.jar
7ff31428a000-7ff314290000 r--s 00036000 fd:01 276925                     /opt/OpenbravoTablero/lib/test/junit.jar
7ff314290000-7ff314296000 r--s 00045000 fd:01 276926                     /opt/OpenbravoTablero/lib/test/hamcrest-all-1.3.jar
7ff314296000-7ff3142a1000 r--s 0005f000 fd:01 276970                     /opt/OpenbravoTablero/lib/runtime/xstream-1.3.1.jar
7ff3142a1000-7ff3142ab000 r--s 00089000 fd:01 276977                     /opt/OpenbravoTablero/lib/runtime/xmlgraphics-commons-1.5.jar
7ff3142ab000-7ff3142c2000 r--s 00114000 fd:01 276929                     /opt/OpenbravoTablero/lib/runtime/xercesImpl.jar
7ff3142c2000-7ff3142c5000 r--s 0001c000 fd:01 276992                     /opt/OpenbravoTablero/lib/runtime/wsdl4j-1.5.1.jar
7ff3142c5000-7ff3142cb000 r--s 0004b000 fd:01 276945                     /opt/OpenbravoTablero/lib/runtime/tika-core-0.9.jar
7ff3142cb000-7ff3142cc000 r--s 00002000 fd:01 276950                     /opt/OpenbravoTablero/lib/runtime/slf4j-log4j12-1.6.1.jar
7ff3142cc000-7ff3142ce000 r--s 00005000 fd:01 276960                     /opt/OpenbravoTablero/lib/runtime/slf4j-api-1.6.1.jar
7ff3142ce000-7ff3142cf000 r--s 00001000 fd:01 276954                     /opt/OpenbravoTablero/lib/runtime/renderFoRmi.jar
7ff3142cf000-7ff3142d5000 r--s 00067000 fd:01 276989                     /opt/OpenbravoTablero/lib/runtime/quartz-1.6.2.jar
7ff3142d5000-7ff3142dc000 r--s 0008e000 fd:01 276936                     /opt/OpenbravoTablero/lib/runtime/postgresql-9.4.1207.jre6.jar
7ff3142dc000-7ff3142fd000 r--s 001bb000 fd:01 276988                     /opt/OpenbravoTablero/lib/runtime/poi-3.10.1.jar
7ff3142fd000-7ff314301000 r--s 0003d000 fd:01 276967                     /opt/OpenbravoTablero/lib/runtime/openbravo-core.jar
7ff314301000-7ff314313000 r--s 001fc000 fd:01 276962                     /opt/OpenbravoTablero/lib/runtime/ojdbc6.jar
7ff314313000-7ff314315000 r--s 00018000 fd:01 276976                     /opt/OpenbravoTablero/lib/runtime/nekohtml.jar
7ff314315000-7ff31431c000 r--s 00072000 fd:01 276938                     /opt/OpenbravoTablero/lib/runtime/mail-1.4.4.jar
7ff31431c000-7ff314325000 r--s 0006d000 fd:01 276986                     /opt/OpenbravoTablero/lib/runtime/log4j-1.2.16.jar
7ff314325000-7ff314331000 r--s 000aa000 fd:01 276965                     /opt/OpenbravoTablero/lib/runtime/jxl-2.6.10.jar
7ff314331000-7ff314333000 r--s 00001000 fd:01 276949                     /opt/OpenbravoTablero/lib/runtime/jta.jar
7ff314333000-7ff314343000 r--s 0013f000 fd:01 276933                     /opt/OpenbravoTablero/lib/runtime/jfreechart-1.0.12.jar
7ff314343000-7ff314345000 r--s 00010000 fd:01 276951                     /opt/OpenbravoTablero/lib/runtime/jettison-1.3.jar
7ff314345000-7ff314357000 r--s 00223000 fd:01 276971                     /opt/OpenbravoTablero/lib/runtime/jdt-compiler-4.4.2.jar
7ff314357000-7ff31435d000 r--s 00046000 fd:01 276952                     /opt/OpenbravoTablero/lib/runtime/jcommon-1.0.15.jar
7ff31435d000-7ff31435f000 r--s 00006000 fd:01 276996                     /opt/OpenbravoTablero/lib/runtime/jaxrpc.jar
7ff31435f000-7ff314368000 r--s 00095000 fd:01 276953                     /opt/OpenbravoTablero/lib/runtime/javassist-3.14.0-GA.jar
7ff314368000-7ff31436a000 r--s 0025c000 fd:01 276930                     /opt/OpenbravoTablero/lib/runtime/jasperreports-fonts-6.0.0.jar
7ff31436a000-7ff3143c6000 r--s 0048c000 fd:01 276937                     /opt/OpenbravoTablero/lib/runtime/jasperreports-6.0.0.jar
7ff3143c6000-7ff3143d8000 r--s 00105000 fd:01 276987                     /opt/OpenbravoTablero/lib/runtime/jackson-databind-2.5.1.jar
7ff3143d8000-7ff3143dc000 r--s 00035000 fd:01 276966                     /opt/OpenbravoTablero/lib/runtime/jackson-core-2.5.1.jar
7ff3143dc000-7ff3143de000 r--s 00008000 fd:01 276981                     /opt/OpenbravoTablero/lib/runtime/jackson-annotations-2.5.1.jar
7ff3143de000-7ff3143f4000 r--s 001ef000 fd:01 276956                     /opt/OpenbravoTablero/lib/runtime/itextpdf-5.5.0.jar
7ff3143f4000-7ff3143f6000 r--s 0000c000 fd:01 276955                     /opt/OpenbravoTablero/lib/runtime/itext-pdfa-5.5.0.jar
7ff3143f6000-7ff314402000 r--s 00108000 fd:01 276978                     /opt/OpenbravoTablero/lib/runtime/iText-2.1.7.jar
7ff314402000-7ff31444a000 r--s 003aa000 fd:01 276946                     /opt/OpenbravoTablero/lib/runtime/hibernate3-patched.jar
7ff31444a000-7ff31444f000 r--s 00014000 fd:01 276984                     /opt/OpenbravoTablero/lib/runtime/hibernate-jpa-2.0-api-1.0.0.Final.jar
7ff31444f000-7ff31445f000 r--s 000c8000 fd:01 276932                     /opt/OpenbravoTablero/lib/runtime/freemarker-2.3.16.jar
7ff31445f000-7ff314498000 r--s 00329000 fd:01 276998                     /opt/OpenbravoTablero/lib/runtime/fop-1.1.jar
7ff314498000-7ff31449d000 r--s 00048000 fd:01 276974                     /opt/OpenbravoTablero/lib/runtime/dom4j-1.6.1.jar
7ff31449d000-7ff3144a0000 r--s 00016000 fd:01 276959                     /opt/OpenbravoTablero/lib/runtime/commons-pool-1.5.6.jar
7ff3144a0000-7ff3144a2000 r--s 0000d000 fd:01 276935                     /opt/OpenbravoTablero/lib/runtime/commons-logging-1.1.1.jar
7ff3144a2000-7ff3144a7000 r--s 00041000 fd:01 276993                     /opt/OpenbravoTablero/lib/runtime/commons-lang-2.6.jar
7ff3144a7000-7ff3144ab000 r--s 0002a000 fd:01 276973                     /opt/OpenbravoTablero/lib/runtime/commons-io-2.4.jar
7ff3144ab000-7ff3144ad000 r--s 0000d000 fd:01 276958                     /opt/OpenbravoTablero/lib/runtime/commons-fileupload-1.2.2.jar
7ff3144ad000-7ff3144b0000 r--s 0000f000 fd:01 276972                     /opt/OpenbravoTablero/lib/runtime/commons-discovery-0.2.jar
7ff3144b0000-7ff3144b4000 r--s 00020000 fd:01 276995                     /opt/OpenbravoTablero/lib/runtime/commons-digester-1.8.1.jar
7ff3144b4000-7ff3144b7000 r--s 00025000 fd:01 276982                     /opt/OpenbravoTablero/lib/runtime/commons-dbcp-1.4.jar
7ff3144b7000-7ff3144c5000 r--s 0007f000 fd:01 276944                     /opt/OpenbravoTablero/lib/runtime/commons-collections-3.2.1.jar
7ff3144c5000-7ff3144c7000 r--s 00010000 fd:01 276994                     /opt/OpenbravoTablero/lib/runtime/commons-codec-1.5.jar
7ff3144c7000-7ff3144cc000 r--s 00034000 fd:01 276979                     /opt/OpenbravoTablero/lib/runtime/commons-beanutils-1.8.3.jar
7ff3144cc000-7ff3144ce000 r--s 00005000 fd:01 276941                     /opt/OpenbravoTablero/lib/runtime/catalina-ant.jar
7ff3144ce000-7ff3144cf000 r--s 00007000 fd:01 276990                     /opt/OpenbravoTablero/lib/runtime/batik-xml.jar
7ff3144cf000-7ff3144d2000 r--s 0001d000 fd:01 276969                     /opt/OpenbravoTablero/lib/runtime/batik-util.jar
7ff3144d2000-7ff3144d7000 r--s 00030000 fd:01 276980                     /opt/OpenbravoTablero/lib/runtime/batik-svggen.jar
7ff3144d7000-7ff3144e4000 r--s 00087000 fd:01 276975                     /opt/OpenbravoTablero/lib/runtime/batik-svg-dom.jar
7ff3144e4000-7ff3144e7000 r--s 0000d000 fd:01 276943                     /opt/OpenbravoTablero/lib/runtime/batik-script.jar
7ff3144e7000-7ff3144e9000 r--s 00010000 fd:01 276983                     /opt/OpenbravoTablero/lib/runtime/batik-parser.jar
7ff3144e9000-7ff3144ed000 r--s 00038000 fd:01 276963                     /opt/OpenbravoTablero/lib/runtime/batik-gvt.jar
7ff3144ed000-7ff3144f1000 r--s 00027000 fd:01 276942                     /opt/OpenbravoTablero/lib/runtime/batik-dom.jar
7ff3144f1000-7ff3144f9000 r--s 00045000 fd:01 276940                     /opt/OpenbravoTablero/lib/runtime/batik-css.jar
7ff3144f9000-7ff314503000 r--s 00080000 fd:01 276968                     /opt/OpenbravoTablero/lib/runtime/batik-bridge.jar
7ff314503000-7ff31450a000 r--s 0005c000 fd:01 276997                     /opt/OpenbravoTablero/lib/runtime/batik-awt-util.jar
7ff31450a000-7ff31450d000 r--s 00015000 fd:01 276928                     /opt/OpenbravoTablero/lib/runtime/batik-anim.jar
7ff31450d000-7ff314513000 r--s 00043000 fd:01 276957                     /opt/OpenbravoTablero/lib/runtime/barcode4j-fop-ext-complete.jar
7ff314513000-7ff314527000 r--s 00173000 fd:01 276985                     /opt/OpenbravoTablero/lib/runtime/axis.jar
7ff314527000-7ff314529000 r--s 00007000 fd:01 276964                     /opt/OpenbravoTablero/lib/runtime/axis-ant.jar
7ff314529000-7ff31452c000 r--s 0000f000 fd:01 276947                     /opt/OpenbravoTablero/lib/runtime/avalon-framework-4.1.5.jar
7ff31452c000-7ff314531000 r--s 00068000 fd:01 276934                     /opt/OpenbravoTablero/lib/runtime/antlr-2.7.7.jar
7ff314531000-7ff314539000 r--s 00063000 fd:01 276948                     /opt/OpenbravoTablero/lib/runtime/ant-nodeps.jar
7ff314539000-7ff314557000 r--s 001cb000 fd:01 276939                     /opt/OpenbravoTablero/lib/runtime/ant-1.9.2.jar
7ff314557000-7ff314558000 ---p 00000000 00:00 0 
7ff314558000-7ff314658000 rw-p 00000000 00:00 0 
7ff314658000-7ff31465b000 ---p 00000000 00:00 0 
7ff31465b000-7ff314759000 rw-p 00000000 00:00 0 
7ff314759000-7ff31475c000 ---p 00000000 00:00 0 
7ff31475c000-7ff31485a000 rw-p 00000000 00:00 0 
7ff31485a000-7ff31485d000 ---p 00000000 00:00 0 
7ff31485d000-7ff31495b000 rw-p 00000000 00:00 0 
7ff31495b000-7ff31495e000 ---p 00000000 00:00 0 
7ff31495e000-7ff314a5c000 rw-p 00000000 00:00 0 
7ff314a5c000-7ff314bf4000 r--p 00000000 fd:01 2061                       /usr/lib/locale/locale-archive
7ff314bf4000-7ff314bf7000 ---p 00000000 00:00 0 
7ff314bf7000-7ff314cf5000 rw-p 00000000 00:00 0 
7ff314cf5000-7ff314cf8000 ---p 00000000 00:00 0 
7ff314cf8000-7ff314df6000 rw-p 00000000 00:00 0 
7ff314df6000-7ff314df7000 ---p 00000000 00:00 0 
7ff314df7000-7ff315d80000 rw-p 00000000 00:00 0 
7ff315d80000-7ff316000000 ---p 00000000 00:00 0 
7ff316000000-7ff318000000 rw-p 00000000 00:00 0 
7ff318000000-7ff318021000 rw-p 00000000 00:00 0 
7ff318021000-7ff31c000000 ---p 00000000 00:00 0 
7ff31c000000-7ff31c001000 r--s 00002000 fd:01 276961                     /opt/OpenbravoTablero/lib/runtime/batik-ext.jar
7ff31c001000-7ff31c002000 r--s 00004000 fd:01 276931                     /opt/OpenbravoTablero/lib/runtime/ant-launcher-1.9.2.jar
7ff31c002000-7ff31c004000 r--s 00001000 fd:01 276991                     /opt/OpenbravoTablero/lib/runtime/ant-apache-log4j-1.9.2.jar
7ff31c004000-7ff31c00d000 r--s 000c7000 fd:01 276919                     /opt/OpenbravoTablero/lib/build/yuicompressor-2.4.2.jar
7ff31c00d000-7ff31c00f000 r--s 00014000 fd:01 276920                     /opt/OpenbravoTablero/lib/build/servlet-api.jar
7ff31c00f000-7ff31c018000 r--s 000be000 fd:01 276922                     /opt/OpenbravoTablero/lib/build/ob-rhino-1.6R7.jar
7ff31c018000-7ff31c021000 r--s 000cc000 fd:01 276921                     /opt/OpenbravoTablero/lib/build/js.jar
7ff31c021000-7ff31c03c000 r--s 00394000 fd:01 785206                     /usr/lib/jvm/java-8-openjdk-amd64/jre/lib/ext/cldrdata.jar
7ff31c03c000-7ff31c057000 r--s 001d6000 fd:01 785208                     /usr/lib/jvm/java-8-openjdk-amd64/jre/lib/ext/nashorn.jar
7ff31c057000-7ff31c099000 rw-p 00000000 00:00 0 
7ff31c099000-7ff31c268000 r--s 03c21000 fd:01 533088                     /usr/lib/jvm/java-8-openjdk-amd64/jre/lib/rt.jar
7ff31c268000-7ff31c4de000 rw-p 00000000 00:00 0 
7ff31c4de000-7ff31c4df000 ---p 00000000 00:00 0 
7ff31c4df000-7ff31c5df000 rw-p 00000000 00:00 0 
7ff31c5df000-7ff31c5e0000 ---p 00000000 00:00 0 
7ff31c5e0000-7ff31c6f0000 rw-p 00000000 00:00 0 
7ff31c6f0000-7ff31c836000 ---p 00000000 00:00 0 
7ff31c836000-7ff31c846000 rw-p 00000000 00:00 0 
7ff31c846000-7ff31c98b000 ---p 00000000 00:00 0 
7ff31c98b000-7ff31c99a000 rw-p 00000000 00:00 0 
7ff31c99a000-7ff31ca36000 ---p 00000000 00:00 0 
7ff31ca36000-7ff31ca41000 rw-p 00000000 00:00 0 
7ff31ca41000-7ff31cdf7000 ---p 00000000 00:00 0 
7ff31cdf7000-7ff31d067000 rwxp 00000000 00:00 0 
7ff31d067000-7ff32bdf7000 ---p 00000000 00:00 0 
7ff32bdf7000-7ff32bdff000 r-xp 00000000 fd:01 785239                     /usr/lib/jvm/java-8-openjdk-amd64/jre/lib/amd64/libzip.so
7ff32bdff000-7ff32bffe000 ---p 00008000 fd:01 785239                     /usr/lib/jvm/java-8-openjdk-amd64/jre/lib/amd64/libzip.so
7ff32bffe000-7ff32bfff000 r--p 00007000 fd:01 785239                     /usr/lib/jvm/java-8-openjdk-amd64/jre/lib/amd64/libzip.so
7ff32bfff000-7ff32c000000 rw-p 00008000 fd:01 785239                     /usr/lib/jvm/java-8-openjdk-amd64/jre/lib/amd64/libzip.so
7ff32c000000-7ff32c77a000 rw-p 00000000 00:00 0 
7ff32c77a000-7ff330000000 ---p 00000000 00:00 0 
7ff330000000-7ff330006000 r--s 0003a000 fd:01 785209                     /usr/lib/jvm/java-8-openjdk-amd64/jre/lib/ext/sunjce_provider.jar
7ff330006000-7ff330010000 r--s 00116000 fd:01 785211                     /usr/lib/jvm/java-8-openjdk-amd64/jre/lib/ext/localedata.jar
7ff330010000-7ff330014000 r--s 00037000 fd:01 785212                     /usr/lib/jvm/java-8-openjdk-amd64/jre/lib/ext/sunpkcs11.jar
7ff330014000-7ff330035000 rw-p 00000000 00:00 0 
7ff330035000-7ff330040000 r-xp 00000000 fd:01 21329                      /lib/x86_64-linux-gnu/libnss_files-2.23.so
7ff330040000-7ff33023f000 ---p 0000b000 fd:01 21329                      /lib/x86_64-linux-gnu/libnss_files-2.23.so
7ff33023f000-7ff330240000 r--p 0000a000 fd:01 21329                      /lib/x86_64-linux-gnu/libnss_files-2.23.so
7ff330240000-7ff330241000 rw-p 0000b000 fd:01 21329                      /lib/x86_64-linux-gnu/libnss_files-2.23.so
7ff330241000-7ff330247000 rw-p 00000000 00:00 0 
7ff330247000-7ff330252000 r-xp 00000000 fd:01 21341                      /lib/x86_64-linux-gnu/libnss_nis-2.23.so
7ff330252000-7ff330451000 ---p 0000b000 fd:01 21341                      /lib/x86_64-linux-gnu/libnss_nis-2.23.so
7ff330451000-7ff330452000 r--p 0000a000 fd:01 21341                      /lib/x86_64-linux-gnu/libnss_nis-2.23.so
7ff330452000-7ff330453000 rw-p 0000b000 fd:01 21341                      /lib/x86_64-linux-gnu/libnss_nis-2.23.so
7ff330453000-7ff330469000 r-xp 00000000 fd:01 21246                      /lib/x86_64-linux-gnu/libnsl-2.23.so
7ff330469000-7ff330668000 ---p 00016000 fd:01 21246                      /lib/x86_64-linux-gnu/libnsl-2.23.so
7ff330668000-7ff330669000 r--p 00015000 fd:01 21246                      /lib/x86_64-linux-gnu/libnsl-2.23.so
7ff330669000-7ff33066a000 rw-p 00016000 fd:01 21246                      /lib/x86_64-linux-gnu/libnsl-2.23.so
7ff33066a000-7ff33066c000 rw-p 00000000 00:00 0 
7ff33066c000-7ff330674000 r-xp 00000000 fd:01 21298                      /lib/x86_64-linux-gnu/libnss_compat-2.23.so
7ff330674000-7ff330873000 ---p 00008000 fd:01 21298                      /lib/x86_64-linux-gnu/libnss_compat-2.23.so
7ff330873000-7ff330874000 r--p 00007000 fd:01 21298                      /lib/x86_64-linux-gnu/libnss_compat-2.23.so
7ff330874000-7ff330875000 rw-p 00008000 fd:01 21298                      /lib/x86_64-linux-gnu/libnss_compat-2.23.so
7ff330875000-7ff3308a2000 r-xp 00000000 fd:01 785224                     /usr/lib/jvm/java-8-openjdk-amd64/jre/lib/amd64/libjava.so
7ff3308a2000-7ff330aa1000 ---p 0002d000 fd:01 785224                     /usr/lib/jvm/java-8-openjdk-amd64/jre/lib/amd64/libjava.so
7ff330aa1000-7ff330aa2000 r--p 0002c000 fd:01 785224                     /usr/lib/jvm/java-8-openjdk-amd64/jre/lib/amd64/libjava.so
7ff330aa2000-7ff330aa4000 rw-p 0002d000 fd:01 785224                     /usr/lib/jvm/java-8-openjdk-amd64/jre/lib/amd64/libjava.so
7ff330aa4000-7ff330ab3000 r-xp 00000000 fd:01 785237                     /usr/lib/jvm/java-8-openjdk-amd64/jre/lib/amd64/libverify.so
7ff330ab3000-7ff330cb2000 ---p 0000f000 fd:01 785237                     /usr/lib/jvm/java-8-openjdk-amd64/jre/lib/amd64/libverify.so
7ff330cb2000-7ff330cb4000 r--p 0000e000 fd:01 785237                     /usr/lib/jvm/java-8-openjdk-amd64/jre/lib/amd64/libverify.so
7ff330cb4000-7ff330cb5000 rw-p 00010000 fd:01 785237                     /usr/lib/jvm/java-8-openjdk-amd64/jre/lib/amd64/libverify.so
7ff330cb5000-7ff330cbc000 r-xp 00000000 fd:01 21343                      /lib/x86_64-linux-gnu/librt-2.23.so
7ff330cbc000-7ff330ebb000 ---p 00007000 fd:01 21343                      /lib/x86_64-linux-gnu/librt-2.23.so
7ff330ebb000-7ff330ebc000 r--p 00006000 fd:01 21343                      /lib/x86_64-linux-gnu/librt-2.23.so
7ff330ebc000-7ff330ebd000 rw-p 00007000 fd:01 21343                      /lib/x86_64-linux-gnu/librt-2.23.so
7ff330ebd000-7ff330ed3000 r-xp 00000000 fd:01 2039                       /lib/x86_64-linux-gnu/libgcc_s.so.1
7ff330ed3000-7ff3310d2000 ---p 00016000 fd:01 2039                       /lib/x86_64-linux-gnu/libgcc_s.so.1
7ff3310d2000-7ff3310d3000 rw-p 00015000 fd:01 2039                       /lib/x86_64-linux-gnu/libgcc_s.so.1
7ff3310d3000-7ff3311db000 r-xp 00000000 fd:01 21243                      /lib/x86_64-linux-gnu/libm-2.23.so
7ff3311db000-7ff3313da000 ---p 00108000 fd:01 21243                      /lib/x86_64-linux-gnu/libm-2.23.so
7ff3313da000-7ff3313db000 r--p 00107000 fd:01 21243                      /lib/x86_64-linux-gnu/libm-2.23.so
7ff3313db000-7ff3313dc000 rw-p 00108000 fd:01 21243                      /lib/x86_64-linux-gnu/libm-2.23.so
7ff3313dc000-7ff33154e000 r-xp 00000000 fd:01 70537                      /usr/lib/x86_64-linux-gnu/libstdc++.so.6.0.21
7ff33154e000-7ff33174e000 ---p 00172000 fd:01 70537                      /usr/lib/x86_64-linux-gnu/libstdc++.so.6.0.21
7ff33174e000-7ff331758000 r--p 00172000 fd:01 70537                      /usr/lib/x86_64-linux-gnu/libstdc++.so.6.0.21
7ff331758000-7ff33175a000 rw-p 0017c000 fd:01 70537                      /usr/lib/x86_64-linux-gnu/libstdc++.so.6.0.21
7ff33175a000-7ff33175e000 rw-p 00000000 00:00 0 
7ff33175e000-7ff3323b0000 r-xp 00000000 fd:01 1046829                    /usr/lib/jvm/java-8-openjdk-amd64/jre/lib/amd64/server/libjvm.so
7ff3323b0000-7ff3325b0000 ---p 00c52000 fd:01 1046829                    /usr/lib/jvm/java-8-openjdk-amd64/jre/lib/amd64/server/libjvm.so
7ff3325b0000-7ff332643000 r--p 00c52000 fd:01 1046829                    /usr/lib/jvm/java-8-openjdk-amd64/jre/lib/amd64/server/libjvm.so
7ff332643000-7ff33266c000 rw-p 00ce5000 fd:01 1046829                    /usr/lib/jvm/java-8-openjdk-amd64/jre/lib/amd64/server/libjvm.so
7ff33266c000-7ff33269c000 rw-p 00000000 00:00 0 
7ff33269c000-7ff3326b4000 r-xp 00000000 fd:01 21248                      /lib/x86_64-linux-gnu/libpthread-2.23.so
7ff3326b4000-7ff3328b3000 ---p 00018000 fd:01 21248                      /lib/x86_64-linux-gnu/libpthread-2.23.so
7ff3328b3000-7ff3328b4000 r--p 00017000 fd:01 21248                      /lib/x86_64-linux-gnu/libpthread-2.23.so
7ff3328b4000-7ff3328b5000 rw-p 00018000 fd:01 21248                      /lib/x86_64-linux-gnu/libpthread-2.23.so
7ff3328b5000-7ff3328b9000 rw-p 00000000 00:00 0 
7ff3328b9000-7ff3328bc000 r-xp 00000000 fd:01 21251                      /lib/x86_64-linux-gnu/libdl-2.23.so
7ff3328bc000-7ff332abb000 ---p 00003000 fd:01 21251                      /lib/x86_64-linux-gnu/libdl-2.23.so
7ff332abb000-7ff332abc000 r--p 00002000 fd:01 21251                      /lib/x86_64-linux-gnu/libdl-2.23.so
7ff332abc000-7ff332abd000 rw-p 00003000 fd:01 21251                      /lib/x86_64-linux-gnu/libdl-2.23.so
7ff332abd000-7ff332ad6000 r-xp 00000000 fd:01 2193                       /lib/x86_64-linux-gnu/libz.so.1.2.8
7ff332ad6000-7ff332cd5000 ---p 00019000 fd:01 2193                       /lib/x86_64-linux-gnu/libz.so.1.2.8
7ff332cd5000-7ff332cd6000 r--p 00018000 fd:01 2193                       /lib/x86_64-linux-gnu/libz.so.1.2.8
7ff332cd6000-7ff332cd7000 rw-p 00019000 fd:01 2193                       /lib/x86_64-linux-gnu/libz.so.1.2.8
7ff332cd7000-7ff332e97000 r-xp 00000000 fd:01 21249                      /lib/x86_64-linux-gnu/libc-2.23.so
7ff332e97000-7ff333097000 ---p 001c0000 fd:01 21249                      /lib/x86_64-linux-gnu/libc-2.23.so
7ff333097000-7ff33309b000 r--p 001c0000 fd:01 21249                      /lib/x86_64-linux-gnu/libc-2.23.so
7ff33309b000-7ff33309d000 rw-p 001c4000 fd:01 21249                      /lib/x86_64-linux-gnu/libc-2.23.so
7ff33309d000-7ff3330a1000 rw-p 00000000 00:00 0 
7ff3330a1000-7ff3330ae000 r-xp 00000000 fd:01 785235                     /usr/lib/jvm/java-8-openjdk-amd64/jre/lib/amd64/jli/libjli.so
7ff3330ae000-7ff3332ae000 ---p 0000d000 fd:01 785235                     /usr/lib/jvm/java-8-openjdk-amd64/jre/lib/amd64/jli/libjli.so
7ff3332ae000-7ff3332af000 r--p 0000d000 fd:01 785235                     /usr/lib/jvm/java-8-openjdk-amd64/jre/lib/amd64/jli/libjli.so
7ff3332af000-7ff3332b0000 rw-p 0000e000 fd:01 785235                     /usr/lib/jvm/java-8-openjdk-amd64/jre/lib/amd64/jli/libjli.so
7ff3332b0000-7ff3332d6000 r-xp 00000000 fd:01 21247                      /lib/x86_64-linux-gnu/ld-2.23.so
7ff3332d6000-7ff3332d8000 r--s 00001000 fd:01 785214                     /usr/lib/jvm/java-8-openjdk-amd64/jre/lib/ext/dnsns.jar
7ff3332d8000-7ff3332da000 r--s 00008000 fd:01 785210                     /usr/lib/jvm/java-8-openjdk-amd64/jre/lib/ext/sunec.jar
7ff3332da000-7ff3333bf000 rw-p 00000000 00:00 0 
7ff3333bf000-7ff3333c7000 rw-s 00000000 fd:01 11477                      /tmp/hsperfdata_root/4137
7ff3333c7000-7ff3333ca000 ---p 00000000 00:00 0 
7ff3333ca000-7ff3334cc000 rw-p 00000000 00:00 0 
7ff3334cc000-7ff3334cd000 r--s 00001000 fd:01 276918                     /opt/OpenbravoTablero/lib/build/YUIAnt.jar
7ff3334cd000-7ff3334ce000 r--s 00010000 fd:01 785207                     /usr/lib/jvm/java-8-openjdk-amd64/jre/lib/ext/zipfs.jar
7ff3334ce000-7ff3334d1000 r--s 0000f000 fd:01 785205                     /usr/lib/jvm/java-8-openjdk-amd64/jre/lib/ext/icedtea-sound.jar
7ff3334d1000-7ff3334d2000 r--s 0000a000 fd:01 785213                     /usr/lib/jvm/java-8-openjdk-amd64/jre/lib/ext/jaccess.jar
7ff3334d2000-7ff3334d3000 rw-p 00000000 00:00 0 
7ff3334d3000-7ff3334d4000 ---p 00000000 00:00 0 
7ff3334d4000-7ff3334d5000 rw-p 00000000 00:00 0 
7ff3334d5000-7ff3334d6000 r--p 00025000 fd:01 21247                      /lib/x86_64-linux-gnu/ld-2.23.so
7ff3334d6000-7ff3334d7000 rw-p 00026000 fd:01 21247                      /lib/x86_64-linux-gnu/ld-2.23.so
7ff3334d7000-7ff3334d8000 rw-p 00000000 00:00 0 
7ffc710dc000-7ffc71100000 rw-p 00000000 00:00 0                          [stack]
7ffc7114b000-7ffc7114e000 r--p 00000000 00:00 0                          [vvar]
7ffc7114e000-7ffc71150000 r-xp 00000000 00:00 0                          [vdso]
ffffffffff600000-ffffffffff601000 r-xp 00000000 00:00 0                  [vsyscall]

VM Arguments:
jvm_args: -Xmx1024M 
java_command: org.openbravo.translate.Translate /opt/OpenbravoTablero/config/Openbravo.properties jrxml /opt/OpenbravoTablero/src
java_class_path (initial): /opt/OpenbravoTablero/modules/org.openbravo.advpaymentmngt/build/classes:/opt/OpenbravoTablero/modules/org.openbravo.advpaymentmngt/build/classes/org:/opt/OpenbravoTablero/modules/org.openbravo.advpaymentmngt/build/classes/org/openbravo:/opt/OpenbravoTablero/modules/org.openbravo.advpaymentmngt/build/classes/org/openbravo/advpaymentmngt:/opt/OpenbravoTablero/modules/org.openbravo.advpaymentmngt/build/classes/org/openbravo/advpaymentmngt/buildvalidation:/opt/OpenbravoTablero/modules/org.openbravo.advpaymentmngt/build/classes/org/openbravo/advpaymentmngt/modulescript:/opt/OpenbravoTablero/modules/org.openbravo.userinterface.selector/build/classes:/opt/OpenbravoTablero/modules/org.openbravo.userinterface.selector/build/classes/org:/opt/OpenbravoTablero/modules/org.openbravo.userinterface.selector/build/classes/org/openbravo:/opt/OpenbravoTablero/modules/org.openbravo.userinterface.selector/build/classes/org/openbravo/userinterface:/opt/OpenbravoTablero/modules/org.openbravo.userinterface.selector/build/classes/org/openbravo/userinterface/selector:/opt/OpenbravoTablero/modules/org.openbravo.userinterface.skin.250to300Comp/build/classes:/opt/OpenbravoTablero/modules/org.openbravo.userinterface.skin.250to300Comp/build/classes/org:/opt/OpenbravoTablero/modules/org.openbravo.userinterface.skin.250to300Comp/build/classes/org/openbravo:/opt/OpenbravoTablero/modules/org.openbravo.userinterface.skin.250to300Comp/build/classes/org/openbravo/userinterface:/opt/OpenbravoTablero/modules/org.openbravo.userinterface.skin.250to300Comp/build/classes/org/openbravo/userinterface/skin:/opt/OpenbravoTablero/modules/org.openbravo.userinterface.skin.250to300Comp/build/classes/org/openbravo/userinterface/skin/s250to300Comp:/opt/OpenbravoTablero/modules/org.openbravo.userinterface.skin.250to300Comp/build/classes/org/openbravo/userinterface/skin/s250to300Comp/modulescript:/opt/OpenbravoTablero/modules/org.openbravo.v3.datasets/build/classes:/opt/OpenbravoTablero/mod
Launcher Type: SUN_STANDARD

Environment Variables:
JAVA_HOME=/usr/lib/jvm/java-8-openjdk-amd64
PATH=/usr/local/sbin:/usr/local/bin:/usr/sbin:/usr/bin:/sbin:/bin:/usr/games:/usr/local/games:/snap/bin
SHELL=/bin/bash

Signal Handlers:
SIGSEGV: [libjvm.so+0xa69040], sa_mask[0]=11111111011111111101111111111110, sa_flags=SA_RESTART|SA_SIGINFO
SIGBUS: [libjvm.so+0xa69040], sa_mask[0]=11111111011111111101111111111110, sa_flags=SA_RESTART|SA_SIGINFO
SIGFPE: [libjvm.so+0x8b2170], sa_mask[0]=11111111011111111101111111111110, sa_flags=SA_RESTART|SA_SIGINFO
SIGPIPE: [libjvm.so+0x8b2170], sa_mask[0]=11111111011111111101111111111110, sa_flags=SA_RESTART|SA_SIGINFO
SIGXFSZ: [libjvm.so+0x8b2170], sa_mask[0]=11111111011111111101111111111110, sa_flags=SA_RESTART|SA_SIGINFO
SIGILL: [libjvm.so+0x8b2170], sa_mask[0]=11111111011111111101111111111110, sa_flags=SA_RESTART|SA_SIGINFO
SIGUSR1: SIG_DFL, sa_mask[0]=00000000000000000000000000000000, sa_flags=none
SIGUSR2: [libjvm.so+0x8b2020], sa_mask[0]=00100000000000000000000000000000, sa_flags=SA_RESTART|SA_SIGINFO
SIGHUP: [libjvm.so+0x8b24f0], sa_mask[0]=11111111011111111101111111111110, sa_flags=SA_RESTART|SA_SIGINFO
SIGINT: [libjvm.so+0x8b24f0], sa_mask[0]=11111111011111111101111111111110, sa_flags=SA_RESTART|SA_SIGINFO
SIGTERM: [libjvm.so+0x8b24f0], sa_mask[0]=11111111011111111101111111111110, sa_flags=SA_RESTART|SA_SIGINFO
SIGQUIT: [libjvm.so+0x8b24f0], sa_mask[0]=11111111011111111101111111111110, sa_flags=SA_RESTART|SA_SIGINFO


---------------  S Y S T E M  ---------------

OS:DISTRIB_ID=Ubuntu
DISTRIB_RELEASE=16.04
DISTRIB_CODENAME=xenial
DISTRIB_DESCRIPTION="Ubuntu 16.04.3 LTS"

uname:Linux 4.4.0-116-generic #140-Ubuntu SMP Mon Feb 12 21:23:04 UTC 2018 x86_64
libc:glibc 2.23 NPTL 2.23 
rlimit: STACK 8192k, CORE 0k, NPROC 11959, NOFILE 1048576, AS infinity
load average:1.20 0.69 0.35

/proc/meminfo:
MemTotal:        3080304 kB
MemFree:           77652 kB
MemAvailable:       6060 kB
Buffers:             236 kB
Cached:            37868 kB
SwapCached:            0 kB
Active:          2897816 kB
Inactive:          33996 kB
Active(anon):    2896960 kB
Inactive(anon):    33204 kB
Active(file):        856 kB
Inactive(file):      792 kB
Unevictable:        3652 kB
Mlocked:            3652 kB
SwapTotal:             0 kB
SwapFree:              0 kB
Dirty:               320 kB
Writeback:             0 kB
AnonPages:       2897480 kB
Mapped:             4196 kB
Shmem:             33912 kB
Slab:              31240 kB
SReclaimable:      14112 kB
SUnreclaim:        17128 kB
KernelStack:        4112 kB
PageTables:        10368 kB
NFS_Unstable:          0 kB
Bounce:                0 kB
WritebackTmp:          0 kB
CommitLimit:     1540152 kB
Committed_AS:    3211272 kB
VmallocTotal:   34359738367 kB
VmallocUsed:           0 kB
VmallocChunk:          0 kB
HardwareCorrupted:     0 kB
AnonHugePages:   1964032 kB
CmaTotal:              0 kB
CmaFree:               0 kB
HugePages_Total:       0
HugePages_Free:        0
HugePages_Rsvd:        0
HugePages_Surp:        0
Hugepagesize:       2048 kB
DirectMap4k:       49132 kB
DirectMap2M:     3096576 kB
DirectMap1G:           0 kB


CPU:total 2 (initial active 2) (1 cores per cpu, 1 threads per core) family 6 model 79 stepping 1, cmov, cx8, fxsr, mmx, sse, sse2, sse3, ssse3, sse4.1, sse4.2, popcnt, avx, avx2, aes, clmul, erms, rtm, 3dnowpref, lzcnt, tsc, bmi1, bmi2, adx

/proc/cpuinfo:
processor	: 0
vendor_id	: GenuineIntel
cpu family	: 6
model		: 79
model name	: Intel(R) Xeon(R) CPU E5-2697A v4 @ 2.60GHz
stepping	: 1
microcode	: 0x1
cpu MHz		: 2599.996
cache size	: 40960 KB
physical id	: 0
siblings	: 1
core id		: 0
cpu cores	: 1
apicid		: 0
initial apicid	: 0
fpu		: yes
fpu_exception	: yes
cpuid level	: 13
wp		: yes
flags		: fpu vme de pse tsc msr pae mce cx8 apic sep mtrr pge mca cmov pat pse36 clflush mmx fxsr sse sse2 ss syscall nx pdpe1gb rdtscp lm constant_tsc arch_perfmon rep_good nopl eagerfpu pni pclmulqdq vmx ssse3 fma cx16 pcid sse4_1 sse4_2 x2apic movbe popcnt tsc_deadline_timer aes xsave avx f16c rdrand hypervisor lahf_lm abm 3dnowprefetch invpcid_single retpoline kaiser tpr_shadow vnmi flexpriority ept vpid fsgsbase tsc_adjust bmi1 hle avx2 smep bmi2 erms invpcid rtm rdseed adx smap xsaveopt
bugs		: cpu_meltdown spectre_v1 spectre_v2
bogomips	: 5199.99
clflush size	: 64
cache_alignment	: 64
address sizes	: 40 bits physical, 48 bits virtual
power management:

processor	: 1
vendor_id	: GenuineIntel
cpu family	: 6
model		: 79
model name	: Intel(R) Xeon(R) CPU E5-2697A v4 @ 2.60GHz
stepping	: 1
microcode	: 0x1
cpu MHz		: 2599.996
cache size	: 40960 KB
physical id	: 1
siblings	: 1
core id		: 0
cpu cores	: 1
apicid		: 1
initial apicid	: 1
fpu		: yes
fpu_exception	: yes
cpuid level	: 13
wp		: yes
flags		: fpu vme de pse tsc msr pae mce cx8 apic sep mtrr pge mca cmov pat pse36 clflush mmx fxsr sse sse2 ss syscall nx pdpe1gb rdtscp lm constant_tsc arch_perfmon rep_good nopl eagerfpu pni pclmulqdq vmx ssse3 fma cx16 pcid sse4_1 sse4_2 x2apic movbe popcnt tsc_deadline_timer aes xsave avx f16c rdrand hypervisor lahf_lm abm 3dnowprefetch invpcid_single retpoline kaiser tpr_shadow vnmi flexpriority ept vpid fsgsbase tsc_adjust bmi1 hle avx2 smep bmi2 erms invpcid rtm rdseed adx smap xsaveopt
bugs		: cpu_meltdown spectre_v1 spectre_v2
bogomips	: 5199.99
clflush size	: 64
cache_alignment	: 64
address sizes	: 40 bits physical, 48 bits virtual
power management:



Memory: 4k page, physical 3080304k(77952k free), swap 0k(0k free)

vm_info: OpenJDK 64-Bit Server VM (25.151-b12) for linux-amd64 JRE (1.8.0_151-8u151-b12-0ubuntu0.16.04.2-b12), built on Oct 27 2017 21:59:02 by "buildd" with gcc 5.4.0 20160609

time: Sun Mar  4 18:04:28 2018
elapsed time: 0 seconds (0d 0h 0m 0s)

