#
# There is insufficient memory for the Java Runtime Environment to continue.
# Native memory allocation (mmap) failed to map 262144 bytes for committing reserved memory.
# Possible reasons:
#   The system is out of physical RAM or swap space
#   In 32 bit mode, the process size limit was hit
# Possible solutions:
#   Reduce memory load on the system
#   Increase physical memory or swap space
#   Check if swap backing store is full
#   Use 64 bit Java on a 64 bit OS
#   Decrease Java heap size (-Xmx/-Xms)
#   Decrease number of Java threads
#   Decrease Java thread stack sizes (-Xss)
#   Set larger code cache with -XX:ReservedCodeCacheSize=
# This output file may be truncated or incomplete.
#
#  Out of Memory Error (os_linux.cpp:2643), pid=16093, tid=0x00007f66b0a8d700
#
# JRE version: OpenJDK Runtime Environment (8.0_151-b12) (build 1.8.0_151-8u151-b12-0ubuntu0.16.04.2-b12)
# Java VM: OpenJDK 64-Bit Server VM (25.151-b12 mixed mode linux-amd64 compressed oops)
# Failed to write core dump. Core dumps have been disabled. To enable core dumping, try "ulimit -c unlimited" before starting Java again
#

---------------  T H R E A D  ---------------

Current thread (0x00007f66a800e800):  JavaThread "main" [_thread_in_vm, id=16097, stack(0x00007f66b098d000,0x00007f66b0a8e000)]

Stack: [0x00007f66b098d000,0x00007f66b0a8e000],  sp=0x00007f66b0a87d60,  free space=1003k
Native frames: (J=compiled Java code, j=interpreted, Vv=VM code, C=native code)
V  [libjvm.so+0xa684eb]
V  [libjvm.so+0x4c579c]
V  [libjvm.so+0x8b6b50]
V  [libjvm.so+0x8b0fce]
V  [libjvm.so+0xa64de4]
V  [libjvm.so+0x835e15]
V  [libjvm.so+0x836023]
V  [libjvm.so+0x836d96]
V  [libjvm.so+0x836f03]
V  [libjvm.so+0x83860b]
V  [libjvm.so+0x83887b]
V  [libjvm.so+0x84ff86]
V  [libjvm.so+0x841005]
V  [libjvm.so+0x658e03]
j  com.sun.jmx.mbeanserver.MBeanIntrospector$MBeanInfoMaker.visitAttribute(Ljava/lang/String;Ljava/lang/Object;Ljava/lang/Object;)V+0
j  com.sun.jmx.mbeanserver.MBeanAnalyzer.visit(Lcom/sun/jmx/mbeanserver/MBeanAnalyzer$MBeanVisitor;)V+69
j  com.sun.jmx.mbeanserver.MBeanIntrospector.makeInterfaceMBeanInfo(Ljava/lang/Class;Lcom/sun/jmx/mbeanserver/MBeanAnalyzer;)Ljavax/management/MBeanInfo;+12
j  com.sun.jmx.mbeanserver.MBeanIntrospector.getPerInterface(Ljava/lang/Class;)Lcom/sun/jmx/mbeanserver/PerInterface;+54
j  com.sun.jmx.mbeanserver.MBeanSupport.<init>(Ljava/lang/Object;Ljava/lang/Class;)V+90
j  com.sun.jmx.mbeanserver.MXBeanSupport.<init>(Ljava/lang/Object;Ljava/lang/Class;)V+3
j  javax.management.StandardMBean.construct(Ljava/lang/Object;Ljava/lang/Class;ZZ)V+56
j  javax.management.StandardMBean.<init>(Ljava/lang/Object;Ljava/lang/Class;Z)V+9
j  java.lang.management.ManagementFactory$2.run()Ljava/lang/Void;+70
j  java.lang.management.ManagementFactory$2.run()Ljava/lang/Object;+1
v  ~StubRoutines::call_stub
V  [libjvm.so+0x66287b]
V  [libjvm.so+0x6b3639]  JVM_DoPrivileged+0x429
j  java.security.AccessController.doPrivileged(Ljava/security/PrivilegedExceptionAction;)Ljava/lang/Object;+0
j  java.lang.management.ManagementFactory.addMXBean(Ljavax/management/MBeanServer;Ljava/lang/management/PlatformManagedObject;)V+9
j  java.lang.management.ManagementFactory.getPlatformMBeanServer()Ljavax/management/MBeanServer;+120
j  oracle.jdbc.driver.OracleDriver.registerMBeans()V+62
j  oracle.jdbc.driver.OracleDriver$1.run()Ljava/lang/Object;+0
v  ~StubRoutines::call_stub
V  [libjvm.so+0x66287b]
V  [libjvm.so+0x6b3639]  JVM_DoPrivileged+0x429
j  java.security.AccessController.doPrivileged(Ljava/security/PrivilegedAction;)Ljava/lang/Object;+0
j  oracle.jdbc.driver.OracleDriver.<clinit>()V+64
v  ~StubRoutines::call_stub
V  [libjvm.so+0x66287b]
V  [libjvm.so+0x6212e7]
V  [libjvm.so+0x6216e2]
V  [libjvm.so+0x621b40]
V  [libjvm.so+0x6218f2]
V  [libjvm.so+0x621b40]
V  [libjvm.so+0x93ade7]
V  [libjvm.so+0x6ae606]  JVM_NewInstanceFromConstructor+0x66
j  sun.reflect.NativeConstructorAccessorImpl.newInstance0(Ljava/lang/reflect/Constructor;[Ljava/lang/Object;)Ljava/lang/Object;+0
j  sun.reflect.NativeConstructorAccessorImpl.newInstance([Ljava/lang/Object;)Ljava/lang/Object;+85
j  sun.reflect.DelegatingConstructorAccessorImpl.newInstance([Ljava/lang/Object;)Ljava/lang/Object;+5
j  java.lang.reflect.Constructor.newInstance([Ljava/lang/Object;)Ljava/lang/Object;+79
j  java.lang.Class.newInstance()Ljava/lang/Object;+138
j  java.util.ServiceLoader$LazyIterator.nextService()Ljava/lang/Object;+119
j  java.util.ServiceLoader$LazyIterator.next()Ljava/lang/Object;+11
j  java.util.ServiceLoader$1.next()Ljava/lang/Object;+37
j  java.sql.DriverManager$2.run()Ljava/lang/Void;+21
j  java.sql.DriverManager$2.run()Ljava/lang/Object;+1
v  ~StubRoutines::call_stub
V  [libjvm.so+0x66287b]
V  [libjvm.so+0x6b3639]  JVM_DoPrivileged+0x429
j  java.security.AccessController.doPrivileged(Ljava/security/PrivilegedAction;)Ljava/lang/Object;+0
j  java.sql.DriverManager.loadInitialDrivers()V+27
j  java.sql.DriverManager.<clinit>()V+32
v  ~StubRoutines::call_stub
V  [libjvm.so+0x66287b]
V  [libjvm.so+0x6212e7]
V  [libjvm.so+0x6216e2]
V  [libjvm.so+0x621b40]
V  [libjvm.so+0x7863a0]
V  [libjvm.so+0x78a9e5]
V  [libjvm.so+0x78d548]
V  [libjvm.so+0x655569]
j  org.postgresql.Driver.register()V+25
j  org.postgresql.Driver.<clinit>()V+27
v  ~StubRoutines::call_stub
V  [libjvm.so+0x66287b]
V  [libjvm.so+0x6212e7]
V  [libjvm.so+0x6216e2]
V  [libjvm.so+0x621b40]
V  [libjvm.so+0x6ada26]
V  [libjvm.so+0x6add59]  JVM_FindClassFromCaller+0x159
C  [libjava.so+0xe7d0]  Java_java_lang_Class_forName0+0x140
j  java.lang.Class.forName0(Ljava/lang/String;ZLjava/lang/ClassLoader;Ljava/lang/Class;)Ljava/lang/Class;+0
j  java.lang.Class.forName(Ljava/lang/String;ZLjava/lang/ClassLoader;)Ljava/lang/Class;+49
j  org.apache.tomcat.jdbc.pool.PooledConnection.connectUsingDriver()V+92
j  org.apache.tomcat.jdbc.pool.PooledConnection.connect()V+91
j  org.apache.tomcat.jdbc.pool.ConnectionPool.createConnection(JLorg/apache/tomcat/jdbc/pool/PooledConnection;Ljava/lang/String;Ljava/lang/String;)Lorg/apache/tomcat/jdbc/pool/PooledConnection;+53
j  org.apache.tomcat.jdbc.pool.ConnectionPool.borrowConnection(ILjava/lang/String;Ljava/lang/String;)Lorg/apache/tomcat/jdbc/pool/PooledConnection;+118
j  org.apache.tomcat.jdbc.pool.ConnectionPool.init(Lorg/apache/tomcat/jdbc/pool/PoolConfiguration;)V+546
j  org.apache.tomcat.jdbc.pool.ConnectionPool.<init>(Lorg/apache/tomcat/jdbc/pool/PoolConfiguration;)V+80
j  org.apache.tomcat.jdbc.pool.DataSourceProxy.pCreatePool()Lorg/apache/tomcat/jdbc/pool/ConnectionPool;+21
j  org.apache.tomcat.jdbc.pool.DataSourceProxy.createPool()Lorg/apache/tomcat/jdbc/pool/ConnectionPool;+13
j  org.apache.tomcat.jdbc.pool.DataSourceProxy.getConnection()Ljava/sql/Connection;+8
j  org.openbravo.apachejdbcconnectionpool.JdbcExternalConnectionPool.getConnection()Ljava/sql/Connection;+17
j  org.openbravo.database.ConnectionProviderImpl.getNewConnection(Ljava/lang/String;)Ljava/sql/Connection;+80
j  org.openbravo.database.ConnectionProviderImpl.getConnection(Ljava/lang/String;)Ljava/sql/Connection;+33
j  org.openbravo.database.ConnectionProviderImpl.getPreparedStatement(Ljava/lang/String;Ljava/lang/String;)Ljava/sql/PreparedStatement;+33
j  org.openbravo.database.ConnectionProviderImpl.getPreparedStatement(Ljava/lang/String;)Ljava/sql/PreparedStatement;+6
j  org.openbravo.database.CPStandAlone.getPreparedStatement(Ljava/lang/String;)Ljava/sql/PreparedStatement;+5
j  org.openbravo.translate.TranslateData.systemLanguage(Lorg/openbravo/database/ConnectionProvider;II)[Lorg/openbravo/translate/TranslateData;+38
j  org.openbravo.translate.TranslateData.systemLanguage(Lorg/openbravo/database/ConnectionProvider;)[Lorg/openbravo/translate/TranslateData;+3
...<more frames>...

Java frames: (J=compiled Java code, j=interpreted, Vv=VM code)
j  com.sun.jmx.mbeanserver.MBeanIntrospector$MBeanInfoMaker.visitAttribute(Ljava/lang/String;Ljava/lang/Object;Ljava/lang/Object;)V+0
j  com.sun.jmx.mbeanserver.MBeanAnalyzer.visit(Lcom/sun/jmx/mbeanserver/MBeanAnalyzer$MBeanVisitor;)V+69
j  com.sun.jmx.mbeanserver.MBeanIntrospector.makeInterfaceMBeanInfo(Ljava/lang/Class;Lcom/sun/jmx/mbeanserver/MBeanAnalyzer;)Ljavax/management/MBeanInfo;+12
j  com.sun.jmx.mbeanserver.MBeanIntrospector.getPerInterface(Ljava/lang/Class;)Lcom/sun/jmx/mbeanserver/PerInterface;+54
j  com.sun.jmx.mbeanserver.MBeanSupport.<init>(Ljava/lang/Object;Ljava/lang/Class;)V+90
j  com.sun.jmx.mbeanserver.MXBeanSupport.<init>(Ljava/lang/Object;Ljava/lang/Class;)V+3
j  javax.management.StandardMBean.construct(Ljava/lang/Object;Ljava/lang/Class;ZZ)V+56
j  javax.management.StandardMBean.<init>(Ljava/lang/Object;Ljava/lang/Class;Z)V+9
j  java.lang.management.ManagementFactory$2.run()Ljava/lang/Void;+70
j  java.lang.management.ManagementFactory$2.run()Ljava/lang/Object;+1
v  ~StubRoutines::call_stub
j  java.security.AccessController.doPrivileged(Ljava/security/PrivilegedExceptionAction;)Ljava/lang/Object;+0
j  java.lang.management.ManagementFactory.addMXBean(Ljavax/management/MBeanServer;Ljava/lang/management/PlatformManagedObject;)V+9
j  java.lang.management.ManagementFactory.getPlatformMBeanServer()Ljavax/management/MBeanServer;+120
j  oracle.jdbc.driver.OracleDriver.registerMBeans()V+62
j  oracle.jdbc.driver.OracleDriver$1.run()Ljava/lang/Object;+0
v  ~StubRoutines::call_stub
j  java.security.AccessController.doPrivileged(Ljava/security/PrivilegedAction;)Ljava/lang/Object;+0
j  oracle.jdbc.driver.OracleDriver.<clinit>()V+64
v  ~StubRoutines::call_stub
j  sun.reflect.NativeConstructorAccessorImpl.newInstance0(Ljava/lang/reflect/Constructor;[Ljava/lang/Object;)Ljava/lang/Object;+0
j  sun.reflect.NativeConstructorAccessorImpl.newInstance([Ljava/lang/Object;)Ljava/lang/Object;+85
j  sun.reflect.DelegatingConstructorAccessorImpl.newInstance([Ljava/lang/Object;)Ljava/lang/Object;+5
j  java.lang.reflect.Constructor.newInstance([Ljava/lang/Object;)Ljava/lang/Object;+79
j  java.lang.Class.newInstance()Ljava/lang/Object;+138
j  java.util.ServiceLoader$LazyIterator.nextService()Ljava/lang/Object;+119
j  java.util.ServiceLoader$LazyIterator.next()Ljava/lang/Object;+11
j  java.util.ServiceLoader$1.next()Ljava/lang/Object;+37
j  java.sql.DriverManager$2.run()Ljava/lang/Void;+21
j  java.sql.DriverManager$2.run()Ljava/lang/Object;+1
v  ~StubRoutines::call_stub
j  java.security.AccessController.doPrivileged(Ljava/security/PrivilegedAction;)Ljava/lang/Object;+0
j  java.sql.DriverManager.loadInitialDrivers()V+27
j  java.sql.DriverManager.<clinit>()V+32
v  ~StubRoutines::call_stub
j  org.postgresql.Driver.register()V+25
j  org.postgresql.Driver.<clinit>()V+27
v  ~StubRoutines::call_stub
j  java.lang.Class.forName0(Ljava/lang/String;ZLjava/lang/ClassLoader;Ljava/lang/Class;)Ljava/lang/Class;+0
j  java.lang.Class.forName(Ljava/lang/String;ZLjava/lang/ClassLoader;)Ljava/lang/Class;+49
j  org.apache.tomcat.jdbc.pool.PooledConnection.connectUsingDriver()V+92
j  org.apache.tomcat.jdbc.pool.PooledConnection.connect()V+91
j  org.apache.tomcat.jdbc.pool.ConnectionPool.createConnection(JLorg/apache/tomcat/jdbc/pool/PooledConnection;Ljava/lang/String;Ljava/lang/String;)Lorg/apache/tomcat/jdbc/pool/PooledConnection;+53
j  org.apache.tomcat.jdbc.pool.ConnectionPool.borrowConnection(ILjava/lang/String;Ljava/lang/String;)Lorg/apache/tomcat/jdbc/pool/PooledConnection;+118
j  org.apache.tomcat.jdbc.pool.ConnectionPool.init(Lorg/apache/tomcat/jdbc/pool/PoolConfiguration;)V+546
j  org.apache.tomcat.jdbc.pool.ConnectionPool.<init>(Lorg/apache/tomcat/jdbc/pool/PoolConfiguration;)V+80
j  org.apache.tomcat.jdbc.pool.DataSourceProxy.pCreatePool()Lorg/apache/tomcat/jdbc/pool/ConnectionPool;+21
j  org.apache.tomcat.jdbc.pool.DataSourceProxy.createPool()Lorg/apache/tomcat/jdbc/pool/ConnectionPool;+13
j  org.apache.tomcat.jdbc.pool.DataSourceProxy.getConnection()Ljava/sql/Connection;+8
j  org.openbravo.apachejdbcconnectionpool.JdbcExternalConnectionPool.getConnection()Ljava/sql/Connection;+17
j  org.openbravo.database.ConnectionProviderImpl.getNewConnection(Ljava/lang/String;)Ljava/sql/Connection;+80
j  org.openbravo.database.ConnectionProviderImpl.getConnection(Ljava/lang/String;)Ljava/sql/Connection;+33
j  org.openbravo.database.ConnectionProviderImpl.getPreparedStatement(Ljava/lang/String;Ljava/lang/String;)Ljava/sql/PreparedStatement;+33
j  org.openbravo.database.ConnectionProviderImpl.getPreparedStatement(Ljava/lang/String;)Ljava/sql/PreparedStatement;+6
j  org.openbravo.database.CPStandAlone.getPreparedStatement(Ljava/lang/String;)Ljava/sql/PreparedStatement;+5
j  org.openbravo.translate.TranslateData.systemLanguage(Lorg/openbravo/database/ConnectionProvider;II)[Lorg/openbravo/translate/TranslateData;+38
j  org.openbravo.translate.TranslateData.systemLanguage(Lorg/openbravo/database/ConnectionProvider;)[Lorg/openbravo/translate/TranslateData;+3
j  org.openbravo.translate.Translate.<init>(Ljava/lang/String;Ljava/lang/String;)V+79
j  org.openbravo.translate.Translate.main([Ljava/lang/String;)V+116
v  ~StubRoutines::call_stub

---------------  P R O C E S S  ---------------

Java Threads: ( => current thread )
  0x00007f66a8732800 JavaThread "PoolCleaner[824909230:1520277801160]" daemon [_thread_blocked, id=16108, stack(0x00007f6691670000,0x00007f6691771000)]
  0x00007f66a80b8800 JavaThread "Service Thread" daemon [_thread_blocked, id=16106, stack(0x00007f6691bfc000,0x00007f6691cfd000)]
  0x00007f66a80b0800 JavaThread "C1 CompilerThread1" daemon [_thread_blocked, id=16105, stack(0x00007f6691cfd000,0x00007f6691dfe000)]
  0x00007f66a80ad800 JavaThread "C2 CompilerThread0" daemon [_thread_in_native, id=16104, stack(0x00007f6691dfe000,0x00007f6691eff000)]
  0x00007f66a80ab800 JavaThread "Signal Dispatcher" daemon [_thread_blocked, id=16103, stack(0x00007f6691eff000,0x00007f6692000000)]
  0x00007f66a8084800 JavaThread "Finalizer" daemon [_thread_blocked, id=16102, stack(0x00007f6698225000,0x00007f6698326000)]
  0x00007f66a807f800 JavaThread "Reference Handler" daemon [_thread_blocked, id=16101, stack(0x00007f6698326000,0x00007f6698427000)]
=>0x00007f66a800e800 JavaThread "main" [_thread_in_vm, id=16097, stack(0x00007f66b098d000,0x00007f66b0a8e000)]

Other Threads:
  0x00007f66a8078000 VMThread [stack: 0x00007f6698427000,0x00007f6698528000] [id=16100]
  0x00007f66a80ba800 WatcherThread [stack: 0x00007f6691afb000,0x00007f6691bfc000] [id=16107]

VM state:not at safepoint (normal execution)

VM Mutex/Monitor currently owned by a thread: None

Heap:
 PSYoungGen      total 14336K, used 3431K [0x00000000eab00000, 0x00000000ebb00000, 0x0000000100000000)
  eden space 12288K, 16% used [0x00000000eab00000,0x00000000eacf3a10,0x00000000eb700000)
  from space 2048K, 69% used [0x00000000eb700000,0x00000000eb866200,0x00000000eb900000)
  to   space 2048K, 0% used [0x00000000eb900000,0x00000000eb900000,0x00000000ebb00000)
 ParOldGen       total 32768K, used 8K [0x00000000c0000000, 0x00000000c2000000, 0x00000000eab00000)
  object space 32768K, 0% used [0x00000000c0000000,0x00000000c0002000,0x00000000c2000000)
 Metaspace       used 6823K, capacity 6872K, committed 7040K, reserved 1056768K
  class space    used 766K, capacity 784K, committed 896K, reserved 1048576K

Card table byte_map: [0x00007f66ace31000,0x00007f66ad032000] byte_map_base: 0x00007f66ac831000

Marking Bits: (ParMarkBitMap*) 0x00007f66afc452c0
 Begin Bits: [0x00007f6692000000, 0x00007f6693000000)
 End Bits:   [0x00007f6693000000, 0x00007f6694000000)

Polling page: 0x00007f66b0a99000

CodeCache: size=245760Kb used=2186Kb max_used=2196Kb free=243573Kb
 bounds [0x00007f6699000000, 0x00007f6699270000, 0x00007f66a8000000]
 total_blobs=705 nmethods=415 adapters=205
 compilation: enabled

Compilation events (10 events):
Event: 11.260 Thread 0x00007f66a80ad800 nmethod 405 0x00007f6699225750 code [0x00007f6699225920, 0x00007f6699226328]
Event: 11.260 Thread 0x00007f66a80ad800  416       4       java.lang.String::startsWith (7 bytes)
Event: 11.285 Thread 0x00007f66a80ad800 nmethod 416 0x00007f6699218c90 code [0x00007f6699218de0, 0x00007f6699218f98]
Event: 11.285 Thread 0x00007f66a80ad800  419       4       java.lang.StringBuilder::<init> (7 bytes)
Event: 11.590 Thread 0x00007f66a80ad800 nmethod 419 0x00007f6699222750 code [0x00007f66992228a0, 0x00007f6699222998]
Event: 11.592 Thread 0x00007f66a80ad800  417       4       java.lang.String::indexOf (7 bytes)
Event: 11.755 Thread 0x00007f66a80ad800 nmethod 417 0x00007f66992238d0 code [0x00007f6699223a40, 0x00007f6699223ed8]
Event: 11.756 Thread 0x00007f66a80ad800  407       4       java.util.jar.JarFile::getEntry (22 bytes)
Event: 12.009 Thread 0x00007f66a80b0800  421       1       java.lang.reflect.Field::getName (5 bytes)
Event: 12.013 Thread 0x00007f66a80b0800 nmethod 421 0x00007f6699223610 code [0x00007f6699223760, 0x00007f6699223870]

GC Heap History (6 events):
Event: 1.519 GC heap before
{Heap before GC invocations=1 (full 0):
 PSYoungGen      total 14336K, used 12288K [0x00000000eab00000, 0x00000000ebb00000, 0x0000000100000000)
  eden space 12288K, 100% used [0x00000000eab00000,0x00000000eb700000,0x00000000eb700000)
  from space 2048K, 0% used [0x00000000eb900000,0x00000000eb900000,0x00000000ebb00000)
  to   space 2048K, 0% used [0x00000000eb700000,0x00000000eb700000,0x00000000eb900000)
 ParOldGen       total 32768K, used 0K [0x00000000c0000000, 0x00000000c2000000, 0x00000000eab00000)
  object space 32768K, 0% used [0x00000000c0000000,0x00000000c0000000,0x00000000c2000000)
 Metaspace       used 3495K, capacity 4780K, committed 5120K, reserved 1056768K
  class space    used 376K, capacity 424K, committed 512K, reserved 1048576K
Event: 1.529 GC heap after
Heap after GC invocations=1 (full 0):
 PSYoungGen      total 14336K, used 1324K [0x00000000eab00000, 0x00000000ebb00000, 0x0000000100000000)
  eden space 12288K, 0% used [0x00000000eab00000,0x00000000eab00000,0x00000000eb700000)
  from space 2048K, 64% used [0x00000000eb700000,0x00000000eb84b180,0x00000000eb900000)
  to   space 2048K, 0% used [0x00000000eb900000,0x00000000eb900000,0x00000000ebb00000)
 ParOldGen       total 32768K, used 0K [0x00000000c0000000, 0x00000000c2000000, 0x00000000eab00000)
  object space 32768K, 0% used [0x00000000c0000000,0x00000000c0000000,0x00000000c2000000)
 Metaspace       used 3495K, capacity 4780K, committed 5120K, reserved 1056768K
  class space    used 376K, capacity 424K, committed 512K, reserved 1048576K
}
Event: 4.736 GC heap before
{Heap before GC invocations=2 (full 0):
 PSYoungGen      total 14336K, used 13612K [0x00000000eab00000, 0x00000000ebb00000, 0x0000000100000000)
  eden space 12288K, 100% used [0x00000000eab00000,0x00000000eb700000,0x00000000eb700000)
  from space 2048K, 64% used [0x00000000eb700000,0x00000000eb84b180,0x00000000eb900000)
  to   space 2048K, 0% used [0x00000000eb900000,0x00000000eb900000,0x00000000ebb00000)
 ParOldGen       total 32768K, used 0K [0x00000000c0000000, 0x00000000c2000000, 0x00000000eab00000)
  object space 32768K, 0% used [0x00000000c0000000,0x00000000c0000000,0x00000000c2000000)
 Metaspace       used 4305K, capacity 5140K, committed 5504K, reserved 1056768K
  class space    used 486K, capacity 528K, committed 640K, reserved 1048576K
Event: 4.747 GC heap after
Heap after GC invocations=2 (full 0):
 PSYoungGen      total 14336K, used 1200K [0x00000000eab00000, 0x00000000ebb00000, 0x0000000100000000)
  eden space 12288K, 0% used [0x00000000eab00000,0x00000000eab00000,0x00000000eb700000)
  from space 2048K, 58% used [0x00000000eb900000,0x00000000eba2c010,0x00000000ebb00000)
  to   space 2048K, 0% used [0x00000000eb700000,0x00000000eb700000,0x00000000eb900000)
 ParOldGen       total 32768K, used 8K [0x00000000c0000000, 0x00000000c2000000, 0x00000000eab00000)
  object space 32768K, 0% used [0x00000000c0000000,0x00000000c0002000,0x00000000c2000000)
 Metaspace       used 4305K, capacity 5140K, committed 5504K, reserved 1056768K
  class space    used 486K, capacity 528K, committed 640K, reserved 1048576K
}
Event: 8.520 GC heap before
{Heap before GC invocations=3 (full 0):
 PSYoungGen      total 14336K, used 13488K [0x00000000eab00000, 0x00000000ebb00000, 0x0000000100000000)
  eden space 12288K, 100% used [0x00000000eab00000,0x00000000eb700000,0x00000000eb700000)
  from space 2048K, 58% used [0x00000000eb900000,0x00000000eba2c010,0x00000000ebb00000)
  to   space 2048K, 0% used [0x00000000eb700000,0x00000000eb700000,0x00000000eb900000)
 ParOldGen       total 32768K, used 8K [0x00000000c0000000, 0x00000000c2000000, 0x00000000eab00000)
  object space 32768K, 0% used [0x00000000c0000000,0x00000000c0002000,0x00000000c2000000)
 Metaspace       used 5329K, capacity 5684K, committed 5760K, reserved 1056768K
  class space    used 607K, capacity 624K, committed 640K, reserved 1048576K
Event: 8.530 GC heap after
Heap after GC invocations=3 (full 0):
 PSYoungGen      total 14336K, used 1432K [0x00000000eab00000, 0x00000000ebb00000, 0x0000000100000000)
  eden space 12288K, 0% used [0x00000000eab00000,0x00000000eab00000,0x00000000eb700000)
  from space 2048K, 69% used [0x00000000eb700000,0x00000000eb866200,0x00000000eb900000)
  to   space 2048K, 0% used [0x00000000eb900000,0x00000000eb900000,0x00000000ebb00000)
 ParOldGen       total 32768K, used 8K [0x00000000c0000000, 0x00000000c2000000, 0x00000000eab00000)
  object space 32768K, 0% used [0x00000000c0000000,0x00000000c0002000,0x00000000c2000000)
 Metaspace       used 5329K, capacity 5684K, committed 5760K, reserved 1056768K
  class space    used 607K, capacity 624K, committed 640K, reserved 1048576K
}

Deoptimization events (10 events):
Event: 0.193 Thread 0x00007f66a800e800 Uncommon trap: reason=unstable_if action=reinterpret pc=0x00007f6699157940 method=java.lang.String.startsWith(Ljava/lang/String;I)Z @ 37
Event: 2.223 Thread 0x00007f66a800e800 Uncommon trap: reason=unstable_if action=reinterpret pc=0x00007f669917e46c method=java.lang.AbstractStringBuilder.append(Ljava/lang/String;)Ljava/lang/AbstractStringBuilder; @ 1
Event: 2.541 Thread 0x00007f66a800e800 Uncommon trap: reason=unstable_if action=reinterpret pc=0x00007f669917b9a0 method=java.lang.String.<init>([CII)V @ 18
Event: 6.011 Thread 0x00007f66a800e800 Uncommon trap: reason=unstable_if action=reinterpret pc=0x00007f66991f6724 method=java.lang.ThreadLocal$ThreadLocalMap.getEntry(Ljava/lang/ThreadLocal;)Ljava/lang/ThreadLocal$ThreadLocalMap$Entry; @ 21
Event: 6.826 Thread 0x00007f66a800e800 Uncommon trap: reason=unstable_if action=reinterpret pc=0x00007f669918f3f4 method=java.lang.String.<init>([CII)V @ 18
Event: 6.852 Thread 0x00007f66a800e800 Uncommon trap: reason=unstable_if action=reinterpret pc=0x00007f6699160eec method=java.lang.String.indexOf([CII[CIII)I @ 3
Event: 10.249 Thread 0x00007f66a800e800 Uncommon trap: reason=unstable_if action=reinterpret pc=0x00007f66991a5370 method=java.lang.String.replace(CC)Ljava/lang/String; @ 26
Event: 10.507 Thread 0x00007f66a800e800 Uncommon trap: reason=unstable_if action=reinterpret pc=0x00007f66992033dc method=java.lang.String.indexOf([CII[CIII)I @ 134
Event: 10.513 Thread 0x00007f66a800e800 Uncommon trap: reason=unstable_if action=reinterpret pc=0x00007f66991d48e8 method=java.net.URL.<init>(Ljava/net/URL;Ljava/lang/String;Ljava/net/URLStreamHandler;)V @ 177
Event: 10.534 Thread 0x00007f66a800e800 Uncommon trap: reason=unstable_if action=reinterpret pc=0x00007f66991ecfcc method=java.net.URLStreamHandler.parseURL(Ljava/net/URL;Ljava/lang/String;II)V @ 143

Internal exceptions (10 events):
Event: 1.536 Thread 0x00007f66a800e800 Exception <a 'java/lang/ClassNotFoundException': org/apache/log4j/LayoutBeanInfo> (0x00000000eab06a00) thrown at [/build/openjdk-8-W2Qe27/openjdk-8-8u151-b12/src/hotspot/src/share/vm/classfile/systemDictionary.cpp, line 210]
Event: 1.546 Thread 0x00007f66a800e800 Exception <a 'java/lang/ClassNotFoundException': java/lang/ObjectBeanInfo> (0x00000000eab298e8) thrown at [/build/openjdk-8-W2Qe27/openjdk-8-8u151-b12/src/hotspot/src/share/vm/classfile/systemDictionary.cpp, line 210]
Event: 1.562 Thread 0x00007f66a800e800 Exception <a 'java/lang/ClassNotFoundException': java/lang/ObjectCustomizer> (0x00000000eab4c9a8) thrown at [/build/openjdk-8-W2Qe27/openjdk-8-8u151-b12/src/hotspot/src/share/vm/classfile/systemDictionary.cpp, line 210]
Event: 1.592 Thread 0x00007f66a800e800 Exception <a 'java/lang/ArrayIndexOutOfBoundsException': 18> (0x00000000eab4f0b0) thrown at [/build/openjdk-8-W2Qe27/openjdk-8-8u151-b12/src/hotspot/src/share/vm/interpreter/interpreterRuntime.cpp, line 366]
Event: 1.710 Thread 0x00007f66a800e800 Exception <a 'java/lang/ArrayIndexOutOfBoundsException': 22> (0x00000000eab523f8) thrown at [/build/openjdk-8-W2Qe27/openjdk-8-8u151-b12/src/hotspot/src/share/vm/interpreter/interpreterRuntime.cpp, line 366]
Event: 1.827 Thread 0x00007f66a800e800 Exception <a 'java/lang/ArrayIndexOutOfBoundsException': 160> (0x00000000eab54848) thrown at [/build/openjdk-8-W2Qe27/openjdk-8-8u151-b12/src/hotspot/src/share/vm/interpreter/interpreterRuntime.cpp, line 366]
Event: 2.151 Thread 0x00007f66a800e800 Exception <a 'java/lang/ClassNotFoundException': org/apache/log4j/LayoutCustomizer> (0x00000000eaba1ab0) thrown at [/build/openjdk-8-W2Qe27/openjdk-8-8u151-b12/src/hotspot/src/share/vm/classfile/systemDictionary.cpp, line 210]
Event: 2.176 Thread 0x00007f66a800e800 Exception <a 'java/lang/ClassNotFoundException': org/apache/log4j/PatternLayoutCustomizer> (0x00000000eac1f610) thrown at [/build/openjdk-8-W2Qe27/openjdk-8-8u151-b12/src/hotspot/src/share/vm/classfile/systemDictionary.cpp, line 210]
Event: 2.222 Thread 0x00007f66a800e800 Implicit null exception at 0x00007f669917e076 to 0x00007f669917e455
Event: 6.009 Thread 0x00007f66a800e800 Implicit null exception at 0x00007f66991f6674 to 0x00007f66991f6705

Events (10 events):
Event: 11.912 loading class com/sun/jmx/mbeanserver/DefaultMXBeanMappingFactory$NonNullMXBeanMapping done
Event: 11.915 loading class com/sun/jmx/mbeanserver/DefaultMXBeanMappingFactory$IdentityMapping done
Event: 11.945 loading class javax/management/openmbean/ArrayType
Event: 11.953 loading class javax/management/openmbean/ArrayType done
Event: 12.177 loading class com/sun/jmx/mbeanserver/MBeanAnalyzer$AttrMethods
Event: 12.183 loading class com/sun/jmx/mbeanserver/MBeanAnalyzer$AttrMethods done
Event: 12.209 loading class com/sun/jmx/mbeanserver/MBeanIntrospector$MBeanInfoMaker
Event: 12.212 loading class com/sun/jmx/mbeanserver/MBeanAnalyzer$MBeanVisitor
Event: 12.214 loading class com/sun/jmx/mbeanserver/MBeanAnalyzer$MBeanVisitor done
Event: 12.218 loading class com/sun/jmx/mbeanserver/MBeanIntrospector$MBeanInfoMaker done


Dynamic libraries:
00400000-00401000 r-xp 00000000 fd:01 1046840                            /usr/lib/jvm/java-8-openjdk-amd64/jre/bin/java
00600000-00601000 r--p 00000000 fd:01 1046840                            /usr/lib/jvm/java-8-openjdk-amd64/jre/bin/java
00601000-00602000 rw-p 00001000 fd:01 1046840                            /usr/lib/jvm/java-8-openjdk-amd64/jre/bin/java
0219f000-021c0000 rw-p 00000000 00:00 0                                  [heap]
c0000000-c2000000 rw-p 00000000 00:00 0 
c2000000-eab00000 ---p 00000000 00:00 0 
eab00000-ebb00000 rw-p 00000000 00:00 0 
ebb00000-100000000 ---p 00000000 00:00 0 
100000000-1000e0000 rw-p 00000000 00:00 0 
1000e0000-140000000 ---p 00000000 00:00 0 
7f6668000000-7f6668021000 rw-p 00000000 00:00 0 
7f6668021000-7f666c000000 ---p 00000000 00:00 0 
7f666c000000-7f666c021000 rw-p 00000000 00:00 0 
7f666c021000-7f6670000000 ---p 00000000 00:00 0 
7f6670000000-7f6670296000 rw-p 00000000 00:00 0 
7f6670296000-7f6674000000 ---p 00000000 00:00 0 
7f6674000000-7f6674021000 rw-p 00000000 00:00 0 
7f6674021000-7f6678000000 ---p 00000000 00:00 0 
7f6678000000-7f6678021000 rw-p 00000000 00:00 0 
7f6678021000-7f667c000000 ---p 00000000 00:00 0 
7f667c000000-7f667c34f000 rw-p 00000000 00:00 0 
7f667c34f000-7f6680000000 ---p 00000000 00:00 0 
7f6680000000-7f6680021000 rw-p 00000000 00:00 0 
7f6680021000-7f6684000000 ---p 00000000 00:00 0 
7f6684000000-7f6684021000 rw-p 00000000 00:00 0 
7f6684021000-7f6688000000 ---p 00000000 00:00 0 
7f6688000000-7f6688021000 rw-p 00000000 00:00 0 
7f6688021000-7f668c000000 ---p 00000000 00:00 0 
7f668c000000-7f668c021000 rw-p 00000000 00:00 0 
7f668c021000-7f6690000000 ---p 00000000 00:00 0 
7f6691466000-7f669146f000 r-xp 00000000 fd:01 785219                     /usr/lib/jvm/java-8-openjdk-amd64/jre/lib/amd64/libmanagement.so
7f669146f000-7f669166e000 ---p 00009000 fd:01 785219                     /usr/lib/jvm/java-8-openjdk-amd64/jre/lib/amd64/libmanagement.so
7f669166e000-7f669166f000 r--p 00008000 fd:01 785219                     /usr/lib/jvm/java-8-openjdk-amd64/jre/lib/amd64/libmanagement.so
7f669166f000-7f6691670000 rw-p 00009000 fd:01 785219                     /usr/lib/jvm/java-8-openjdk-amd64/jre/lib/amd64/libmanagement.so
7f6691670000-7f6691673000 ---p 00000000 00:00 0 
7f6691673000-7f6691771000 rw-p 00000000 00:00 0 
7f6691771000-7f6691772000 r--s 00001000 fd:01 522405                     /opt/OpenbravoTablero/modules/org.openbravo.client.kernel/lib/runtime/jsmin.0.2.4.jar
7f6691772000-7f669177e000 r--s 000ee000 fd:01 522406                     /opt/OpenbravoTablero/modules/org.openbravo.client.kernel/lib/runtime/jslint4java-1.4.7.jar
7f669177e000-7f6691780000 r--s 00005000 fd:01 520712                     /opt/OpenbravoTablero/modules/org.openbravo.client.application/lib/runtime/httpmime-4.1.jar
7f6691780000-7f6691785000 r--s 00026000 fd:01 520714                     /opt/OpenbravoTablero/modules/org.openbravo.client.application/lib/runtime/httpcore-4.0.1.jar
7f6691785000-7f669178c000 r--s 00040000 fd:01 520713                     /opt/OpenbravoTablero/modules/org.openbravo.client.application/lib/runtime/httpclient-4.0.jar
7f669178c000-7f669179a000 r--s 00099000 fd:01 520715                     /opt/OpenbravoTablero/modules/org.openbravo.client.application/lib/runtime/guice-2.0.jar
7f669179a000-7f669179e000 r--s 0000a000 fd:01 518216                     /opt/OpenbravoTablero/modules/org.openbravo.base.weld/lib/runtime/weld-spi.jar
7f669179e000-7f66917a1000 r--s 00011000 fd:01 518222                     /opt/OpenbravoTablero/modules/org.openbravo.base.weld/lib/runtime/weld-servlet-core-1.1.24.Final.jar
7f66917a1000-7f66917b3000 r--s 000ce000 fd:01 518212                     /opt/OpenbravoTablero/modules/org.openbravo.base.weld/lib/runtime/weld-core-1.1.24.Final.jar
7f66917b3000-7f66917b5000 r--s 00004000 fd:01 518213                     /opt/OpenbravoTablero/modules/org.openbravo.base.weld/lib/runtime/weld-api.jar
7f66917b5000-7f66917b7000 r--s 00009000 fd:01 518211                     /opt/OpenbravoTablero/modules/org.openbravo.base.weld/lib/runtime/slf4j-ext-1.6.1.jar
7f66917b7000-7f66917b8000 r--s 00001000 fd:01 518214                     /opt/OpenbravoTablero/modules/org.openbravo.base.weld/lib/runtime/jboss-interceptor-spi-2.0.0.CR1.jar
7f66917b8000-7f66917bb000 r--s 0000c000 fd:01 518220                     /opt/OpenbravoTablero/modules/org.openbravo.base.weld/lib/runtime/jboss-interceptor-core-2.0.0.CR1.jar
7f66917bb000-7f66917bd000 r--s 00000000 fd:01 518210                     /opt/OpenbravoTablero/modules/org.openbravo.base.weld/lib/runtime/jboss-interceptor-api-3.1.0-CR3.jar
7f66917bd000-7f66917be000 r--s 00000000 fd:01 518221                     /opt/OpenbravoTablero/modules/org.openbravo.base.weld/lib/runtime/javax.inject.jar
7f66917be000-7f66917e9000 r--s 001fc000 fd:01 518217                     /opt/OpenbravoTablero/modules/org.openbravo.base.weld/lib/runtime/guava-18.0.jar
7f66917e9000-7f66917ec000 r--s 00006000 fd:01 518219                     /opt/OpenbravoTablero/modules/org.openbravo.base.weld/lib/runtime/ejb-api-3.0.jar
7f66917ec000-7f66917ef000 r--s 0000a000 fd:01 518218                     /opt/OpenbravoTablero/modules/org.openbravo.base.weld/lib/runtime/cdi-api.jar
7f66917ef000-7f66917f1000 r--s 00006000 fd:01 518215                     /opt/OpenbravoTablero/modules/org.openbravo.base.weld/lib/runtime/cal10n-api-0.7.4.jar
7f66917f1000-7f66917f2000 r--s 00006000 fd:01 522533                     /opt/OpenbravoTablero/modules/org.openbravo.apachejdbcconnectionpool/lib/runtime/tomcat-juli.jar
7f66917f2000-7f66917f4000 r--s 0001d000 fd:01 522532                     /opt/OpenbravoTablero/modules/org.openbravo.apachejdbcconnectionpool/lib/runtime/tomcat-jdbc.jar
7f66917f4000-7f6691800000 r--s 00096000 fd:01 1076806                    /opt/OpenbravoTablero/modules/com.atrums.felectronica/lib/runtime/xmlsec-1.4.2-ADSI-1.1.jar
7f6691800000-7f6691803000 r--s 00018000 fd:01 1076805                    /opt/OpenbravoTablero/modules/com.atrums.felectronica/lib/runtime/xmlrpc-1.2-b1.jar
7f6691803000-7f6691804000 r--s 00007000 fd:01 1076804                    /opt/OpenbravoTablero/modules/com.atrums.felectronica/lib/runtime/xmlrpc-1.2-b1-applet.jar
7f6691804000-7f6691809000 r--s 0002d000 fd:01 1076795                    /opt/OpenbravoTablero/modules/com.atrums.felectronica/lib/runtime/bcmail-jdk15-140.jar
7f6691809000-7f669180c000 r--s 00014000 fd:01 1076794                    /opt/OpenbravoTablero/modules/com.atrums.felectronica/lib/runtime/barbecue-1.5-beta1.jar
7f669180c000-7f6691814000 r--s 0007a000 fd:01 1076803                    /opt/OpenbravoTablero/modules/com.atrums.felectronica/lib/runtime/MITyCLibXADES-1.1.7.jar
7f6691814000-7f669181a000 r--s 00047000 fd:01 1076801                    /opt/OpenbravoTablero/modules/com.atrums.felectronica/lib/runtime/MITyCLibTrust-1.1.7.jar
7f669181a000-7f669181b000 r--s 00011000 fd:01 1076802                    /opt/OpenbravoTablero/modules/com.atrums.felectronica/lib/runtime/MITyCLibTSA-1.1.7.jar
7f669181b000-7f669181d000 r--s 00019000 fd:01 1076800                    /opt/OpenbravoTablero/modules/com.atrums.felectronica/lib/runtime/MITyCLibPolicy-1.1.7.jar
7f669181d000-7f669181f000 r--s 0001c000 fd:01 1076799                    /opt/OpenbravoTablero/modules/com.atrums.felectronica/lib/runtime/MITyCLibOCSP-1.1.7.jar
7f669181f000-7f6691821000 r--s 0001f000 fd:01 1076798                    /opt/OpenbravoTablero/modules/com.atrums.felectronica/lib/runtime/MITyCLibCrypt-1.1.7.jar
7f6691821000-7f6691828000 r--s 0044c000 fd:01 1076797                    /opt/OpenbravoTablero/modules/com.atrums.felectronica/lib/runtime/MITyCLibCert-1.1.7.jar
7f6691828000-7f669182c000 r--s 00029000 fd:01 1076796                    /opt/OpenbravoTablero/modules/com.atrums.felectronica/lib/runtime/MITyCLibAPI-1.1.7.jar
7f669182c000-7f6691832000 r--s 0006e000 fd:01 278520                     /opt/OpenbravoTablero/src-db/database/lib/wstx-asl-3.0.2.jar
7f6691832000-7f6691834000 r--s 0000e000 fd:01 278521                     /opt/OpenbravoTablero/src-db/database/lib/jakarta-oro-2.0.8.jar
7f6691834000-7f669183f000 r--s 000b4000 fd:01 278518                     /opt/OpenbravoTablero/src-db/database/lib/dbsourcemanager.jar
7f669183f000-7f6691840000 r--s 00001000 fd:01 278522                     /opt/OpenbravoTablero/src-db/database/lib/dbmanager.jar
7f6691840000-7f6691846000 r--s 00036000 fd:01 278519                     /opt/OpenbravoTablero/src-db/database/lib/commons-betwixt-0.8.jar
7f6691846000-7f669184b000 r--s 00066000 fd:01 523757                     /opt/OpenbravoTablero/src-wad/lib/openbravo-wad.jar
7f669184b000-7f669184c000 r--s 00005000 fd:01 522897                     /opt/OpenbravoTablero/src-trl/lib/openbravo-trl.jar
7f669184c000-7f6691850000 r--s 0003d000 fd:01 516417                     /opt/OpenbravoTablero/src-core/lib/openbravo-core.jar
7f6691850000-7f6691856000 r--s 00036000 fd:01 276925                     /opt/OpenbravoTablero/lib/test/junit.jar
7f6691856000-7f669185c000 r--s 00045000 fd:01 276926                     /opt/OpenbravoTablero/lib/test/hamcrest-all-1.3.jar
7f669185c000-7f6691867000 r--s 0005f000 fd:01 276970                     /opt/OpenbravoTablero/lib/runtime/xstream-1.3.1.jar
7f6691867000-7f6691871000 r--s 00089000 fd:01 276977                     /opt/OpenbravoTablero/lib/runtime/xmlgraphics-commons-1.5.jar
7f6691871000-7f6691888000 r--s 00114000 fd:01 276929                     /opt/OpenbravoTablero/lib/runtime/xercesImpl.jar
7f6691888000-7f669188b000 r--s 0001c000 fd:01 276992                     /opt/OpenbravoTablero/lib/runtime/wsdl4j-1.5.1.jar
7f669188b000-7f6691891000 r--s 0004b000 fd:01 276945                     /opt/OpenbravoTablero/lib/runtime/tika-core-0.9.jar
7f6691891000-7f6691892000 r--s 00002000 fd:01 276950                     /opt/OpenbravoTablero/lib/runtime/slf4j-log4j12-1.6.1.jar
7f6691892000-7f6691894000 r--s 00005000 fd:01 276960                     /opt/OpenbravoTablero/lib/runtime/slf4j-api-1.6.1.jar
7f6691894000-7f6691895000 r--s 00001000 fd:01 276954                     /opt/OpenbravoTablero/lib/runtime/renderFoRmi.jar
7f6691895000-7f669189b000 r--s 00067000 fd:01 276989                     /opt/OpenbravoTablero/lib/runtime/quartz-1.6.2.jar
7f669189b000-7f66918a2000 r--s 0008e000 fd:01 276936                     /opt/OpenbravoTablero/lib/runtime/postgresql-9.4.1207.jre6.jar
7f66918a2000-7f66918c3000 r--s 001bb000 fd:01 276988                     /opt/OpenbravoTablero/lib/runtime/poi-3.10.1.jar
7f66918c3000-7f66918c7000 r--s 0003d000 fd:01 276967                     /opt/OpenbravoTablero/lib/runtime/openbravo-core.jar
7f66918c7000-7f66918d9000 r--s 001fc000 fd:01 276962                     /opt/OpenbravoTablero/lib/runtime/ojdbc6.jar
7f66918d9000-7f66918db000 r--s 00018000 fd:01 276976                     /opt/OpenbravoTablero/lib/runtime/nekohtml.jar
7f66918db000-7f66918e2000 r--s 00072000 fd:01 276938                     /opt/OpenbravoTablero/lib/runtime/mail-1.4.4.jar
7f66918e2000-7f66918eb000 r--s 0006d000 fd:01 276986                     /opt/OpenbravoTablero/lib/runtime/log4j-1.2.16.jar
7f66918eb000-7f66918f7000 r--s 000aa000 fd:01 276965                     /opt/OpenbravoTablero/lib/runtime/jxl-2.6.10.jar
7f66918f7000-7f66918f9000 r--s 00001000 fd:01 276949                     /opt/OpenbravoTablero/lib/runtime/jta.jar
7f66918f9000-7f6691909000 r--s 0013f000 fd:01 276933                     /opt/OpenbravoTablero/lib/runtime/jfreechart-1.0.12.jar
7f6691909000-7f669190b000 r--s 00010000 fd:01 276951                     /opt/OpenbravoTablero/lib/runtime/jettison-1.3.jar
7f669190b000-7f669191d000 r--s 00223000 fd:01 276971                     /opt/OpenbravoTablero/lib/runtime/jdt-compiler-4.4.2.jar
7f669191d000-7f6691923000 r--s 00046000 fd:01 276952                     /opt/OpenbravoTablero/lib/runtime/jcommon-1.0.15.jar
7f6691923000-7f6691925000 r--s 00006000 fd:01 276996                     /opt/OpenbravoTablero/lib/runtime/jaxrpc.jar
7f6691925000-7f669192e000 r--s 00095000 fd:01 276953                     /opt/OpenbravoTablero/lib/runtime/javassist-3.14.0-GA.jar
7f669192e000-7f6691930000 r--s 0025c000 fd:01 276930                     /opt/OpenbravoTablero/lib/runtime/jasperreports-fonts-6.0.0.jar
7f6691930000-7f669198c000 r--s 0048c000 fd:01 276937                     /opt/OpenbravoTablero/lib/runtime/jasperreports-6.0.0.jar
7f669198c000-7f669199e000 r--s 00105000 fd:01 276987                     /opt/OpenbravoTablero/lib/runtime/jackson-databind-2.5.1.jar
7f669199e000-7f66919a2000 r--s 00035000 fd:01 276966                     /opt/OpenbravoTablero/lib/runtime/jackson-core-2.5.1.jar
7f66919a2000-7f66919a4000 r--s 00008000 fd:01 276981                     /opt/OpenbravoTablero/lib/runtime/jackson-annotations-2.5.1.jar
7f66919a4000-7f66919ba000 r--s 001ef000 fd:01 276956                     /opt/OpenbravoTablero/lib/runtime/itextpdf-5.5.0.jar
7f66919ba000-7f66919bc000 r--s 0000c000 fd:01 276955                     /opt/OpenbravoTablero/lib/runtime/itext-pdfa-5.5.0.jar
7f66919bc000-7f66919c8000 r--s 00108000 fd:01 276978                     /opt/OpenbravoTablero/lib/runtime/iText-2.1.7.jar
7f66919c8000-7f6691a10000 r--s 003aa000 fd:01 276946                     /opt/OpenbravoTablero/lib/runtime/hibernate3-patched.jar
7f6691a10000-7f6691a15000 r--s 00014000 fd:01 276984                     /opt/OpenbravoTablero/lib/runtime/hibernate-jpa-2.0-api-1.0.0.Final.jar
7f6691a15000-7f6691a25000 r--s 000c8000 fd:01 276932                     /opt/OpenbravoTablero/lib/runtime/freemarker-2.3.16.jar
7f6691a25000-7f6691a5e000 r--s 00329000 fd:01 276998                     /opt/OpenbravoTablero/lib/runtime/fop-1.1.jar
7f6691a5e000-7f6691a63000 r--s 00048000 fd:01 276974                     /opt/OpenbravoTablero/lib/runtime/dom4j-1.6.1.jar
7f6691a63000-7f6691a66000 r--s 00016000 fd:01 276959                     /opt/OpenbravoTablero/lib/runtime/commons-pool-1.5.6.jar
7f6691a66000-7f6691a68000 r--s 0000d000 fd:01 276935                     /opt/OpenbravoTablero/lib/runtime/commons-logging-1.1.1.jar
7f6691a68000-7f6691a6d000 r--s 00041000 fd:01 276993                     /opt/OpenbravoTablero/lib/runtime/commons-lang-2.6.jar
7f6691a6d000-7f6691a71000 r--s 0002a000 fd:01 276973                     /opt/OpenbravoTablero/lib/runtime/commons-io-2.4.jar
7f6691a71000-7f6691a73000 r--s 0000d000 fd:01 276958                     /opt/OpenbravoTablero/lib/runtime/commons-fileupload-1.2.2.jar
7f6691a73000-7f6691a76000 r--s 0000f000 fd:01 276972                     /opt/OpenbravoTablero/lib/runtime/commons-discovery-0.2.jar
7f6691a76000-7f6691a7a000 r--s 00020000 fd:01 276995                     /opt/OpenbravoTablero/lib/runtime/commons-digester-1.8.1.jar
7f6691a7a000-7f6691a7d000 r--s 00025000 fd:01 276982                     /opt/OpenbravoTablero/lib/runtime/commons-dbcp-1.4.jar
7f6691a7d000-7f6691a8b000 r--s 0007f000 fd:01 276944                     /opt/OpenbravoTablero/lib/runtime/commons-collections-3.2.1.jar
7f6691a8b000-7f6691a8d000 r--s 00010000 fd:01 276994                     /opt/OpenbravoTablero/lib/runtime/commons-codec-1.5.jar
7f6691a8d000-7f6691a92000 r--s 00034000 fd:01 276979                     /opt/OpenbravoTablero/lib/runtime/commons-beanutils-1.8.3.jar
7f6691a92000-7f6691a94000 r--s 00005000 fd:01 276941                     /opt/OpenbravoTablero/lib/runtime/catalina-ant.jar
7f6691a94000-7f6691a95000 r--s 00007000 fd:01 276990                     /opt/OpenbravoTablero/lib/runtime/batik-xml.jar
7f6691a95000-7f6691a98000 r--s 0001d000 fd:01 276969                     /opt/OpenbravoTablero/lib/runtime/batik-util.jar
7f6691a98000-7f6691a9d000 r--s 00030000 fd:01 276980                     /opt/OpenbravoTablero/lib/runtime/batik-svggen.jar
7f6691a9d000-7f6691aaa000 r--s 00087000 fd:01 276975                     /opt/OpenbravoTablero/lib/runtime/batik-svg-dom.jar
7f6691aaa000-7f6691aad000 r--s 0000d000 fd:01 276943                     /opt/OpenbravoTablero/lib/runtime/batik-script.jar
7f6691aad000-7f6691aaf000 r--s 00010000 fd:01 276983                     /opt/OpenbravoTablero/lib/runtime/batik-parser.jar
7f6691aaf000-7f6691ab3000 r--s 00038000 fd:01 276963                     /opt/OpenbravoTablero/lib/runtime/batik-gvt.jar
7f6691ab3000-7f6691ab4000 r--s 00002000 fd:01 276961                     /opt/OpenbravoTablero/lib/runtime/batik-ext.jar
7f6691ab4000-7f6691ab8000 r--s 00027000 fd:01 276942                     /opt/OpenbravoTablero/lib/runtime/batik-dom.jar
7f6691ab8000-7f6691ac0000 r--s 00045000 fd:01 276940                     /opt/OpenbravoTablero/lib/runtime/batik-css.jar
7f6691ac0000-7f6691aca000 r--s 00080000 fd:01 276968                     /opt/OpenbravoTablero/lib/runtime/batik-bridge.jar
7f6691aca000-7f6691ad1000 r--s 0005c000 fd:01 276997                     /opt/OpenbravoTablero/lib/runtime/batik-awt-util.jar
7f6691ad1000-7f6691ad4000 r--s 00015000 fd:01 276928                     /opt/OpenbravoTablero/lib/runtime/batik-anim.jar
7f6691ad4000-7f6691ada000 r--s 00043000 fd:01 276957                     /opt/OpenbravoTablero/lib/runtime/barcode4j-fop-ext-complete.jar
7f6691ada000-7f6691aee000 r--s 00173000 fd:01 276985                     /opt/OpenbravoTablero/lib/runtime/axis.jar
7f6691aee000-7f6691af0000 r--s 00007000 fd:01 276964                     /opt/OpenbravoTablero/lib/runtime/axis-ant.jar
7f6691af0000-7f6691af3000 r--s 0000f000 fd:01 276947                     /opt/OpenbravoTablero/lib/runtime/avalon-framework-4.1.5.jar
7f6691af3000-7f6691afb000 r--s 00063000 fd:01 276948                     /opt/OpenbravoTablero/lib/runtime/ant-nodeps.jar
7f6691afb000-7f6691afc000 ---p 00000000 00:00 0 
7f6691afc000-7f6691bfc000 rw-p 00000000 00:00 0 
7f6691bfc000-7f6691bff000 ---p 00000000 00:00 0 
7f6691bff000-7f6691cfd000 rw-p 00000000 00:00 0 
7f6691cfd000-7f6691d00000 ---p 00000000 00:00 0 
7f6691d00000-7f6691dfe000 rw-p 00000000 00:00 0 
7f6691dfe000-7f6691e01000 ---p 00000000 00:00 0 
7f6691e01000-7f6691eff000 rw-p 00000000 00:00 0 
7f6691eff000-7f6691f02000 ---p 00000000 00:00 0 
7f6691f02000-7f6694000000 rw-p 00000000 00:00 0 
7f6694000000-7f6694021000 rw-p 00000000 00:00 0 
7f6694021000-7f6698000000 ---p 00000000 00:00 0 
7f6698000000-7f6698005000 r--s 00068000 fd:01 276934                     /opt/OpenbravoTablero/lib/runtime/antlr-2.7.7.jar
7f6698005000-7f6698006000 r--s 00004000 fd:01 276931                     /opt/OpenbravoTablero/lib/runtime/ant-launcher-1.9.2.jar
7f6698006000-7f6698008000 r--s 00001000 fd:01 276991                     /opt/OpenbravoTablero/lib/runtime/ant-apache-log4j-1.9.2.jar
7f6698008000-7f6698026000 r--s 001cb000 fd:01 276939                     /opt/OpenbravoTablero/lib/runtime/ant-1.9.2.jar
7f6698026000-7f669802f000 r--s 000c7000 fd:01 276919                     /opt/OpenbravoTablero/lib/build/yuicompressor-2.4.2.jar
7f669802f000-7f6698031000 r--s 00014000 fd:01 276920                     /opt/OpenbravoTablero/lib/build/servlet-api.jar
7f6698031000-7f669803a000 r--s 000be000 fd:01 276922                     /opt/OpenbravoTablero/lib/build/ob-rhino-1.6R7.jar
7f669803a000-7f6698043000 r--s 000cc000 fd:01 276921                     /opt/OpenbravoTablero/lib/build/js.jar
7f6698043000-7f669805e000 r--s 00394000 fd:01 785206                     /usr/lib/jvm/java-8-openjdk-amd64/jre/lib/ext/cldrdata.jar
7f669805e000-7f6698064000 r--s 0003a000 fd:01 785209                     /usr/lib/jvm/java-8-openjdk-amd64/jre/lib/ext/sunjce_provider.jar
7f6698064000-7f669806e000 r--s 00116000 fd:01 785211                     /usr/lib/jvm/java-8-openjdk-amd64/jre/lib/ext/localedata.jar
7f669806e000-7f6698072000 r--s 00037000 fd:01 785212                     /usr/lib/jvm/java-8-openjdk-amd64/jre/lib/ext/sunpkcs11.jar
7f6698072000-7f669808d000 r--s 001d6000 fd:01 785208                     /usr/lib/jvm/java-8-openjdk-amd64/jre/lib/ext/nashorn.jar
7f669808d000-7f6698225000 r--p 00000000 fd:01 2061                       /usr/lib/locale/locale-archive
7f6698225000-7f6698228000 ---p 00000000 00:00 0 
7f6698228000-7f6698326000 rw-p 00000000 00:00 0 
7f6698326000-7f6698329000 ---p 00000000 00:00 0 
7f6698329000-7f6698427000 rw-p 00000000 00:00 0 
7f6698427000-7f6698428000 ---p 00000000 00:00 0 
7f6698428000-7f6698e31000 rw-p 00000000 00:00 0 
7f6698e31000-7f6699000000 r--s 03c21000 fd:01 533088                     /usr/lib/jvm/java-8-openjdk-amd64/jre/lib/rt.jar
7f6699000000-7f6699270000 rwxp 00000000 00:00 0 
7f6699270000-7f66a8000000 ---p 00000000 00:00 0 
7f66a8000000-7f66a8781000 rw-p 00000000 00:00 0 
7f66a8781000-7f66ac000000 ---p 00000000 00:00 0 
7f66ac000000-7f66ac6d9000 rw-p 00000000 00:00 0 
7f66ac719000-7f66ac8d9000 ---p 00000000 00:00 0 
7f66ac8d9000-7f66acad9000 rw-p 00000000 00:00 0 
7f66acad9000-7f66acada000 ---p 00000000 00:00 0 
7f66acada000-7f66acbda000 rw-p 00000000 00:00 0 
7f66acbda000-7f66acbdb000 ---p 00000000 00:00 0 
7f66acbdb000-7f66acceb000 rw-p 00000000 00:00 0 
7f66acceb000-7f66ace31000 ---p 00000000 00:00 0 
7f66ace31000-7f66ace41000 rw-p 00000000 00:00 0 
7f66ace41000-7f66acf86000 ---p 00000000 00:00 0 
7f66acf86000-7f66acf8f000 rw-p 00000000 00:00 0 
7f66acf8f000-7f66ad031000 ---p 00000000 00:00 0 
7f66ad031000-7f66ad03c000 rw-p 00000000 00:00 0 
7f66ad03c000-7f66ad3f2000 ---p 00000000 00:00 0 
7f66ad3f2000-7f66ad3fa000 r-xp 00000000 fd:01 785239                     /usr/lib/jvm/java-8-openjdk-amd64/jre/lib/amd64/libzip.so
7f66ad3fa000-7f66ad5f9000 ---p 00008000 fd:01 785239                     /usr/lib/jvm/java-8-openjdk-amd64/jre/lib/amd64/libzip.so
7f66ad5f9000-7f66ad5fa000 r--p 00007000 fd:01 785239                     /usr/lib/jvm/java-8-openjdk-amd64/jre/lib/amd64/libzip.so
7f66ad5fa000-7f66ad5fb000 rw-p 00008000 fd:01 785239                     /usr/lib/jvm/java-8-openjdk-amd64/jre/lib/amd64/libzip.so
7f66ad5fb000-7f66ad606000 r-xp 00000000 fd:01 21329                      /lib/x86_64-linux-gnu/libnss_files-2.23.so
7f66ad606000-7f66ad805000 ---p 0000b000 fd:01 21329                      /lib/x86_64-linux-gnu/libnss_files-2.23.so
7f66ad805000-7f66ad806000 r--p 0000a000 fd:01 21329                      /lib/x86_64-linux-gnu/libnss_files-2.23.so
7f66ad806000-7f66ad807000 rw-p 0000b000 fd:01 21329                      /lib/x86_64-linux-gnu/libnss_files-2.23.so
7f66ad807000-7f66ad80d000 rw-p 00000000 00:00 0 
7f66ad80d000-7f66ad818000 r-xp 00000000 fd:01 21341                      /lib/x86_64-linux-gnu/libnss_nis-2.23.so
7f66ad818000-7f66ada17000 ---p 0000b000 fd:01 21341                      /lib/x86_64-linux-gnu/libnss_nis-2.23.so
7f66ada17000-7f66ada18000 r--p 0000a000 fd:01 21341                      /lib/x86_64-linux-gnu/libnss_nis-2.23.so
7f66ada18000-7f66ada19000 rw-p 0000b000 fd:01 21341                      /lib/x86_64-linux-gnu/libnss_nis-2.23.so
7f66ada19000-7f66ada2f000 r-xp 00000000 fd:01 21246                      /lib/x86_64-linux-gnu/libnsl-2.23.so
7f66ada2f000-7f66adc2e000 ---p 00016000 fd:01 21246                      /lib/x86_64-linux-gnu/libnsl-2.23.so
7f66adc2e000-7f66adc2f000 r--p 00015000 fd:01 21246                      /lib/x86_64-linux-gnu/libnsl-2.23.so
7f66adc2f000-7f66adc30000 rw-p 00016000 fd:01 21246                      /lib/x86_64-linux-gnu/libnsl-2.23.so
7f66adc30000-7f66adc32000 rw-p 00000000 00:00 0 
7f66adc32000-7f66adc3a000 r-xp 00000000 fd:01 21298                      /lib/x86_64-linux-gnu/libnss_compat-2.23.so
7f66adc3a000-7f66ade39000 ---p 00008000 fd:01 21298                      /lib/x86_64-linux-gnu/libnss_compat-2.23.so
7f66ade39000-7f66ade3a000 r--p 00007000 fd:01 21298                      /lib/x86_64-linux-gnu/libnss_compat-2.23.so
7f66ade3a000-7f66ade3b000 rw-p 00008000 fd:01 21298                      /lib/x86_64-linux-gnu/libnss_compat-2.23.so
7f66ade3b000-7f66ade68000 r-xp 00000000 fd:01 785224                     /usr/lib/jvm/java-8-openjdk-amd64/jre/lib/amd64/libjava.so
7f66ade68000-7f66ae067000 ---p 0002d000 fd:01 785224                     /usr/lib/jvm/java-8-openjdk-amd64/jre/lib/amd64/libjava.so
7f66ae067000-7f66ae068000 r--p 0002c000 fd:01 785224                     /usr/lib/jvm/java-8-openjdk-amd64/jre/lib/amd64/libjava.so
7f66ae068000-7f66ae06a000 rw-p 0002d000 fd:01 785224                     /usr/lib/jvm/java-8-openjdk-amd64/jre/lib/amd64/libjava.so
7f66ae06a000-7f66ae079000 r-xp 00000000 fd:01 785237                     /usr/lib/jvm/java-8-openjdk-amd64/jre/lib/amd64/libverify.so
7f66ae079000-7f66ae278000 ---p 0000f000 fd:01 785237                     /usr/lib/jvm/java-8-openjdk-amd64/jre/lib/amd64/libverify.so
7f66ae278000-7f66ae27a000 r--p 0000e000 fd:01 785237                     /usr/lib/jvm/java-8-openjdk-amd64/jre/lib/amd64/libverify.so
7f66ae27a000-7f66ae27b000 rw-p 00010000 fd:01 785237                     /usr/lib/jvm/java-8-openjdk-amd64/jre/lib/amd64/libverify.so
7f66ae27b000-7f66ae282000 r-xp 00000000 fd:01 21343                      /lib/x86_64-linux-gnu/librt-2.23.so
7f66ae282000-7f66ae481000 ---p 00007000 fd:01 21343                      /lib/x86_64-linux-gnu/librt-2.23.so
7f66ae481000-7f66ae482000 r--p 00006000 fd:01 21343                      /lib/x86_64-linux-gnu/librt-2.23.so
7f66ae482000-7f66ae483000 rw-p 00007000 fd:01 21343                      /lib/x86_64-linux-gnu/librt-2.23.so
7f66ae483000-7f66ae499000 r-xp 00000000 fd:01 2039                       /lib/x86_64-linux-gnu/libgcc_s.so.1
7f66ae499000-7f66ae698000 ---p 00016000 fd:01 2039                       /lib/x86_64-linux-gnu/libgcc_s.so.1
7f66ae698000-7f66ae699000 rw-p 00015000 fd:01 2039                       /lib/x86_64-linux-gnu/libgcc_s.so.1
7f66ae699000-7f66ae7a1000 r-xp 00000000 fd:01 21243                      /lib/x86_64-linux-gnu/libm-2.23.so
7f66ae7a1000-7f66ae9a0000 ---p 00108000 fd:01 21243                      /lib/x86_64-linux-gnu/libm-2.23.so
7f66ae9a0000-7f66ae9a1000 r--p 00107000 fd:01 21243                      /lib/x86_64-linux-gnu/libm-2.23.so
7f66ae9a1000-7f66ae9a2000 rw-p 00108000 fd:01 21243                      /lib/x86_64-linux-gnu/libm-2.23.so
7f66ae9a2000-7f66aeb14000 r-xp 00000000 fd:01 70537                      /usr/lib/x86_64-linux-gnu/libstdc++.so.6.0.21
7f66aeb14000-7f66aed14000 ---p 00172000 fd:01 70537                      /usr/lib/x86_64-linux-gnu/libstdc++.so.6.0.21
7f66aed14000-7f66aed1e000 r--p 00172000 fd:01 70537                      /usr/lib/x86_64-linux-gnu/libstdc++.so.6.0.21
7f66aed1e000-7f66aed20000 rw-p 0017c000 fd:01 70537                      /usr/lib/x86_64-linux-gnu/libstdc++.so.6.0.21
7f66aed20000-7f66aed24000 rw-p 00000000 00:00 0 
7f66aed24000-7f66af976000 r-xp 00000000 fd:01 1046829                    /usr/lib/jvm/java-8-openjdk-amd64/jre/lib/amd64/server/libjvm.so
7f66af976000-7f66afb76000 ---p 00c52000 fd:01 1046829                    /usr/lib/jvm/java-8-openjdk-amd64/jre/lib/amd64/server/libjvm.so
7f66afb76000-7f66afc09000 r--p 00c52000 fd:01 1046829                    /usr/lib/jvm/java-8-openjdk-amd64/jre/lib/amd64/server/libjvm.so
7f66afc09000-7f66afc32000 rw-p 00ce5000 fd:01 1046829                    /usr/lib/jvm/java-8-openjdk-amd64/jre/lib/amd64/server/libjvm.so
7f66afc32000-7f66afc62000 rw-p 00000000 00:00 0 
7f66afc62000-7f66afc7a000 r-xp 00000000 fd:01 21248                      /lib/x86_64-linux-gnu/libpthread-2.23.so
7f66afc7a000-7f66afe79000 ---p 00018000 fd:01 21248                      /lib/x86_64-linux-gnu/libpthread-2.23.so
7f66afe79000-7f66afe7a000 r--p 00017000 fd:01 21248                      /lib/x86_64-linux-gnu/libpthread-2.23.so
7f66afe7a000-7f66afe7b000 rw-p 00018000 fd:01 21248                      /lib/x86_64-linux-gnu/libpthread-2.23.so
7f66afe7b000-7f66afe7f000 rw-p 00000000 00:00 0 
7f66afe7f000-7f66afe82000 r-xp 00000000 fd:01 21251                      /lib/x86_64-linux-gnu/libdl-2.23.so
7f66afe82000-7f66b0081000 ---p 00003000 fd:01 21251                      /lib/x86_64-linux-gnu/libdl-2.23.so
7f66b0081000-7f66b0082000 r--p 00002000 fd:01 21251                      /lib/x86_64-linux-gnu/libdl-2.23.so
7f66b0082000-7f66b0083000 rw-p 00003000 fd:01 21251                      /lib/x86_64-linux-gnu/libdl-2.23.so
7f66b0083000-7f66b009c000 r-xp 00000000 fd:01 2193                       /lib/x86_64-linux-gnu/libz.so.1.2.8
7f66b009c000-7f66b029b000 ---p 00019000 fd:01 2193                       /lib/x86_64-linux-gnu/libz.so.1.2.8
7f66b029b000-7f66b029c000 r--p 00018000 fd:01 2193                       /lib/x86_64-linux-gnu/libz.so.1.2.8
7f66b029c000-7f66b029d000 rw-p 00019000 fd:01 2193                       /lib/x86_64-linux-gnu/libz.so.1.2.8
7f66b029d000-7f66b045d000 r-xp 00000000 fd:01 21249                      /lib/x86_64-linux-gnu/libc-2.23.so
7f66b045d000-7f66b065d000 ---p 001c0000 fd:01 21249                      /lib/x86_64-linux-gnu/libc-2.23.so
7f66b065d000-7f66b0661000 r--p 001c0000 fd:01 21249                      /lib/x86_64-linux-gnu/libc-2.23.so
7f66b0661000-7f66b0663000 rw-p 001c4000 fd:01 21249                      /lib/x86_64-linux-gnu/libc-2.23.so
7f66b0663000-7f66b0667000 rw-p 00000000 00:00 0 
7f66b0667000-7f66b0674000 r-xp 00000000 fd:01 785235                     /usr/lib/jvm/java-8-openjdk-amd64/jre/lib/amd64/jli/libjli.so
7f66b0674000-7f66b0874000 ---p 0000d000 fd:01 785235                     /usr/lib/jvm/java-8-openjdk-amd64/jre/lib/amd64/jli/libjli.so
7f66b0874000-7f66b0875000 r--p 0000d000 fd:01 785235                     /usr/lib/jvm/java-8-openjdk-amd64/jre/lib/amd64/jli/libjli.so
7f66b0875000-7f66b0876000 rw-p 0000e000 fd:01 785235                     /usr/lib/jvm/java-8-openjdk-amd64/jre/lib/amd64/jli/libjli.so
7f66b0876000-7f66b089c000 r-xp 00000000 fd:01 21247                      /lib/x86_64-linux-gnu/ld-2.23.so
7f66b089c000-7f66b089e000 r--s 00001000 fd:01 785214                     /usr/lib/jvm/java-8-openjdk-amd64/jre/lib/ext/dnsns.jar
7f66b089e000-7f66b08a0000 r--s 00008000 fd:01 785210                     /usr/lib/jvm/java-8-openjdk-amd64/jre/lib/ext/sunec.jar
7f66b08a0000-7f66b0985000 rw-p 00000000 00:00 0 
7f66b0985000-7f66b098d000 rw-s 00000000 fd:01 55548                      /tmp/hsperfdata_root/16093
7f66b098d000-7f66b0990000 ---p 00000000 00:00 0 
7f66b0990000-7f66b0a92000 rw-p 00000000 00:00 0 
7f66b0a92000-7f66b0a93000 r--s 00001000 fd:01 276918                     /opt/OpenbravoTablero/lib/build/YUIAnt.jar
7f66b0a93000-7f66b0a94000 r--s 00010000 fd:01 785207                     /usr/lib/jvm/java-8-openjdk-amd64/jre/lib/ext/zipfs.jar
7f66b0a94000-7f66b0a97000 r--s 0000f000 fd:01 785205                     /usr/lib/jvm/java-8-openjdk-amd64/jre/lib/ext/icedtea-sound.jar
7f66b0a97000-7f66b0a98000 r--s 0000a000 fd:01 785213                     /usr/lib/jvm/java-8-openjdk-amd64/jre/lib/ext/jaccess.jar
7f66b0a98000-7f66b0a99000 rw-p 00000000 00:00 0 
7f66b0a99000-7f66b0a9a000 r--p 00000000 00:00 0 
7f66b0a9a000-7f66b0a9b000 rw-p 00000000 00:00 0 
7f66b0a9b000-7f66b0a9c000 r--p 00025000 fd:01 21247                      /lib/x86_64-linux-gnu/ld-2.23.so
7f66b0a9c000-7f66b0a9d000 rw-p 00026000 fd:01 21247                      /lib/x86_64-linux-gnu/ld-2.23.so
7f66b0a9d000-7f66b0a9e000 rw-p 00000000 00:00 0 
7ffd7a189000-7ffd7a1ad000 rw-p 00000000 00:00 0                          [stack]
7ffd7a1bb000-7ffd7a1be000 r--p 00000000 00:00 0                          [vvar]
7ffd7a1be000-7ffd7a1c0000 r-xp 00000000 00:00 0                          [vdso]
ffffffffff600000-ffffffffff601000 r-xp 00000000 00:00 0                  [vsyscall]

VM Arguments:
jvm_args: -Xmx1024M 
java_command: org.openbravo.translate.Translate /opt/OpenbravoTablero/config/Openbravo.properties html /opt/OpenbravoTablero/modules */src
java_class_path (initial): /opt/OpenbravoTablero/modules/org.openbravo.advpaymentmngt/build/classes:/opt/OpenbravoTablero/modules/org.openbravo.advpaymentmngt/build/classes/org:/opt/OpenbravoTablero/modules/org.openbravo.advpaymentmngt/build/classes/org/openbravo:/opt/OpenbravoTablero/modules/org.openbravo.advpaymentmngt/build/classes/org/openbravo/advpaymentmngt:/opt/OpenbravoTablero/modules/org.openbravo.advpaymentmngt/build/classes/org/openbravo/advpaymentmngt/buildvalidation:/opt/OpenbravoTablero/modules/org.openbravo.advpaymentmngt/build/classes/org/openbravo/advpaymentmngt/modulescript:/opt/OpenbravoTablero/modules/org.openbravo.userinterface.selector/build/classes:/opt/OpenbravoTablero/modules/org.openbravo.userinterface.selector/build/classes/org:/opt/OpenbravoTablero/modules/org.openbravo.userinterface.selector/build/classes/org/openbravo:/opt/OpenbravoTablero/modules/org.openbravo.userinterface.selector/build/classes/org/openbravo/userinterface:/opt/OpenbravoTablero/modules/org.openbravo.userinterface.selector/build/classes/org/openbravo/userinterface/selector:/opt/OpenbravoTablero/modules/org.openbravo.userinterface.skin.250to300Comp/build/classes:/opt/OpenbravoTablero/modules/org.openbravo.userinterface.skin.250to300Comp/build/classes/org:/opt/OpenbravoTablero/modules/org.openbravo.userinterface.skin.250to300Comp/build/classes/org/openbravo:/opt/OpenbravoTablero/modules/org.openbravo.userinterface.skin.250to300Comp/build/classes/org/openbravo/userinterface:/opt/OpenbravoTablero/modules/org.openbravo.userinterface.skin.250to300Comp/build/classes/org/openbravo/userinterface/skin:/opt/OpenbravoTablero/modules/org.openbravo.userinterface.skin.250to300Comp/build/classes/org/openbravo/userinterface/skin/s250to300Comp:/opt/OpenbravoTablero/modules/org.openbravo.userinterface.skin.250to300Comp/build/classes/org/openbravo/userinterface/skin/s250to300Comp/modulescript:/opt/OpenbravoTablero/modules/org.openbravo.v3.datasets/build/classes:/opt/OpenbravoTablero/mod
Launcher Type: SUN_STANDARD

Environment Variables:
JAVA_HOME=/usr/lib/jvm/java-8-openjdk-amd64
PATH=/usr/local/sbin:/usr/local/bin:/usr/sbin:/usr/bin:/sbin:/bin:/usr/games:/usr/local/games:/snap/bin
SHELL=/bin/bash

Signal Handlers:
SIGSEGV: [libjvm.so+0xa69040], sa_mask[0]=11111111011111111101111111111110, sa_flags=SA_RESTART|SA_SIGINFO
SIGBUS: [libjvm.so+0xa69040], sa_mask[0]=11111111011111111101111111111110, sa_flags=SA_RESTART|SA_SIGINFO
SIGFPE: [libjvm.so+0x8b2170], sa_mask[0]=11111111011111111101111111111110, sa_flags=SA_RESTART|SA_SIGINFO
SIGPIPE: [libjvm.so+0x8b2170], sa_mask[0]=11111111011111111101111111111110, sa_flags=SA_RESTART|SA_SIGINFO
SIGXFSZ: [libjvm.so+0x8b2170], sa_mask[0]=11111111011111111101111111111110, sa_flags=SA_RESTART|SA_SIGINFO
SIGILL: [libjvm.so+0x8b2170], sa_mask[0]=11111111011111111101111111111110, sa_flags=SA_RESTART|SA_SIGINFO
SIGUSR1: SIG_DFL, sa_mask[0]=00000000000000000000000000000000, sa_flags=none
SIGUSR2: [libjvm.so+0x8b2020], sa_mask[0]=00100000000000000000000000000000, sa_flags=SA_RESTART|SA_SIGINFO
SIGHUP: [libjvm.so+0x8b24f0], sa_mask[0]=11111111011111111101111111111110, sa_flags=SA_RESTART|SA_SIGINFO
SIGINT: [libjvm.so+0x8b24f0], sa_mask[0]=11111111011111111101111111111110, sa_flags=SA_RESTART|SA_SIGINFO
SIGTERM: [libjvm.so+0x8b24f0], sa_mask[0]=11111111011111111101111111111110, sa_flags=SA_RESTART|SA_SIGINFO
SIGQUIT: [libjvm.so+0x8b24f0], sa_mask[0]=11111111011111111101111111111110, sa_flags=SA_RESTART|SA_SIGINFO


---------------  S Y S T E M  ---------------

OS:DISTRIB_ID=Ubuntu
DISTRIB_RELEASE=16.04
DISTRIB_CODENAME=xenial
DISTRIB_DESCRIPTION="Ubuntu 16.04.3 LTS"

uname:Linux 4.4.0-116-generic #140-Ubuntu SMP Mon Feb 12 21:23:04 UTC 2018 x86_64
libc:glibc 2.23 NPTL 2.23 
rlimit: STACK 8192k, CORE 0k, NPROC 11959, NOFILE 1048576, AS infinity
load average:1.46 0.41 0.14

/proc/meminfo:
MemTotal:        3080304 kB
MemFree:           60560 kB
MemAvailable:          0 kB
Buffers:             252 kB
Cached:            38820 kB
SwapCached:            0 kB
Active:          2916648 kB
Inactive:          34480 kB
Active(anon):    2915416 kB
Inactive(anon):    33192 kB
Active(file):       1232 kB
Inactive(file):     1288 kB
Unevictable:        3652 kB
Mlocked:            3652 kB
SwapTotal:             0 kB
SwapFree:              0 kB
Dirty:                 4 kB
Writeback:             0 kB
AnonPages:       2916008 kB
Mapped:             5020 kB
Shmem:             33828 kB
Slab:              30060 kB
SReclaimable:      13616 kB
SUnreclaim:        16444 kB
KernelStack:        4288 kB
PageTables:         9804 kB
NFS_Unstable:          0 kB
Bounce:                0 kB
WritebackTmp:          0 kB
CommitLimit:     1540152 kB
Committed_AS:    3179592 kB
VmallocTotal:   34359738367 kB
VmallocUsed:           0 kB
VmallocChunk:          0 kB
HardwareCorrupted:     0 kB
AnonHugePages:   2027520 kB
CmaTotal:              0 kB
CmaFree:               0 kB
HugePages_Total:       0
HugePages_Free:        0
HugePages_Rsvd:        0
HugePages_Surp:        0
Hugepagesize:       2048 kB
DirectMap4k:       53228 kB
DirectMap2M:     3092480 kB
DirectMap1G:           0 kB


CPU:total 2 (initial active 2) (1 cores per cpu, 1 threads per core) family 6 model 79 stepping 1, cmov, cx8, fxsr, mmx, sse, sse2, sse3, ssse3, sse4.1, sse4.2, popcnt, avx, avx2, aes, clmul, erms, rtm, 3dnowpref, lzcnt, tsc, bmi1, bmi2, adx

/proc/cpuinfo:
processor	: 0
vendor_id	: GenuineIntel
cpu family	: 6
model		: 79
model name	: Intel(R) Xeon(R) CPU E5-2697A v4 @ 2.60GHz
stepping	: 1
microcode	: 0x1
cpu MHz		: 2599.996
cache size	: 40960 KB
physical id	: 0
siblings	: 1
core id		: 0
cpu cores	: 1
apicid		: 0
initial apicid	: 0
fpu		: yes
fpu_exception	: yes
cpuid level	: 13
wp		: yes
flags		: fpu vme de pse tsc msr pae mce cx8 apic sep mtrr pge mca cmov pat pse36 clflush mmx fxsr sse sse2 ss syscall nx pdpe1gb rdtscp lm constant_tsc arch_perfmon rep_good nopl eagerfpu pni pclmulqdq vmx ssse3 fma cx16 pcid sse4_1 sse4_2 x2apic movbe popcnt tsc_deadline_timer aes xsave avx f16c rdrand hypervisor lahf_lm abm 3dnowprefetch invpcid_single retpoline kaiser tpr_shadow vnmi flexpriority ept vpid fsgsbase tsc_adjust bmi1 hle avx2 smep bmi2 erms invpcid rtm rdseed adx smap xsaveopt
bugs		: cpu_meltdown spectre_v1 spectre_v2
bogomips	: 5199.99
clflush size	: 64
cache_alignment	: 64
address sizes	: 40 bits physical, 48 bits virtual
power management:

processor	: 1
vendor_id	: GenuineIntel
cpu family	: 6
model		: 79
model name	: Intel(R) Xeon(R) CPU E5-2697A v4 @ 2.60GHz
stepping	: 1
microcode	: 0x1
cpu MHz		: 2599.996
cache size	: 40960 KB
physical id	: 1
siblings	: 1
core id		: 0
cpu cores	: 1
apicid		: 1
initial apicid	: 1
fpu		: yes
fpu_exception	: yes
cpuid level	: 13
wp		: yes
flags		: fpu vme de pse tsc msr pae mce cx8 apic sep mtrr pge mca cmov pat pse36 clflush mmx fxsr sse sse2 ss syscall nx pdpe1gb rdtscp lm constant_tsc arch_perfmon rep_good nopl eagerfpu pni pclmulqdq vmx ssse3 fma cx16 pcid sse4_1 sse4_2 x2apic movbe popcnt tsc_deadline_timer aes xsave avx f16c rdrand hypervisor lahf_lm abm 3dnowprefetch invpcid_single retpoline kaiser tpr_shadow vnmi flexpriority ept vpid fsgsbase tsc_adjust bmi1 hle avx2 smep bmi2 erms invpcid rtm rdseed adx smap xsaveopt
bugs		: cpu_meltdown spectre_v1 spectre_v2
bogomips	: 5199.99
clflush size	: 64
cache_alignment	: 64
address sizes	: 40 bits physical, 48 bits virtual
power management:



Memory: 4k page, physical 3080304k(60792k free), swap 0k(0k free)

vm_info: OpenJDK 64-Bit Server VM (25.151-b12) for linux-amd64 JRE (1.8.0_151-8u151-b12-0ubuntu0.16.04.2-b12), built on Oct 27 2017 21:59:02 by "buildd" with gcc 5.4.0 20160609

time: Mon Mar  5 14:23:25 2018
elapsed time: 12 seconds (0d 0h 0m 12s)

